%YAML 1.1
%TAG !u! tag:unity3d.com,2011:
--- !u!21 &2100000
Material:
  serializedVersion: 6
  m_ObjectHideFlags: 0
  m_CorrespondingSourceObject: {fileID: 0}
  m_PrefabInternal: {fileID: 0}
  m_Name: Dissolve_3D
  m_Shader: {fileID: 4800000, guid: 22026e25b664d464a997091392861786, type: 3}
  m_ShaderKeywords: 
  m_LightmapFlags: 4
  m_EnableInstancingVariants: 0
  m_DoubleSidedGI: 0
  m_CustomRenderQueue: -1
  stringTagMap: {}
  disabledShaderPasses: []
  m_SavedProperties:
    serializedVersion: 3
    m_TexEnvs:
    - Texture2D_9B7C6AA0:
        m_Texture: {fileID: 0}
        m_Scale: {x: 1, y: 1}
        m_Offset: {x: 0, y: 0}
    - Texture3D_E7FBDB1F:
        m_Texture: {fileID: 0}
        m_Scale: {x: 1, y: 1}
        m_Offset: {x: 0, y: 0}
    m_Floats:
    - Vector1_1186DB36: 30
    - Vector1_486685A9: 0.03
    - Vector1_7B66FEB3: 30
    - Vector1_B4E9CDEE: 0.1
    - Vector1_DE84A5BE: 2
    - Vector1_EBE7BA30: -0.1
    m_Colors:
    - Color_D8FB282F: {r: 0, g: 1.654902, b: 2, a: 0}
    - Color_DBFE9FA0: {r: 0, g: 3.592157, b: 4, a: 0}
