# MagicaVoxel @ Ephtracy

# group
g rubble1

# material
mtllib rubble1.mtl
usemtl palette

# normals
vn -1 0 0
vn 1 0 0
vn 0 0 1
vn 0 0 -1
vn 0 -1 0
vn 0 1 0

# texcoords
vt 0.830078 0.5
vt 0.833984 0.5
vt 0.837891 0.5

# verts
v -7.5 0 5.5
v -7.5 0 -2.5
v -7.5 1 1.5
v -7.5 1 0.5
v -7.5 2 3.5
v -7.5 2 1.5
v -7.5 2 0.5
v -7.5 2 -2.5
v -7.5 3 5.5
v -7.5 3 3.5
v -6.5 0 -4.5
v -6.5 0 -5.5
v -6.5 1 1.5
v -6.5 1 0.5
v -6.5 1 -4.5
v -6.5 1 -5.5
v -6.5 2 1.5
v -6.5 2 0.5
v -5.5 0 5.5
v -5.5 0 4.5
v -5.5 2 3.5
v -5.5 2 -1.5
v -5.5 3 5.5
v -5.5 3 4.5
v -5.5 3 3.5
v -5.5 3 1.5
v -5.5 3 0.5
v -5.5 3 -1.5
v -5.5 4 4.5
v -5.5 4 3.5
v -5.5 4 1.5
v -5.5 4 0.5
v -5.5 4 -1.5
v -4.5 0 6.5
v -4.5 0 5.5
v -4.5 0 -2.5
v -4.5 0 -3.5
v -4.5 1 -1.5
v -4.5 1 -2.5
v -4.5 1 -3.5
v -4.5 3 6.5
v -4.5 3 5.5
v -4.5 3 4.5
v -4.5 3 1.5
v -4.5 3 0.5
v -4.5 3 -1.5
v -4.5 3 -2.5
v -4.5 4 4.5
v -4.5 4 3.5
v -4.5 4 1.5
v -4.5 4 0.5
v -4.5 5 5.5
v -4.5 5 4.5
v -4.5 5 1.5
v -3.5 0 -5.5
v -3.5 0 -6.5
v -3.5 1 -5.5
v -3.5 1 -6.5
v -3.5 3 6.5
v -3.5 3 5.5
v -3.5 4 6.5
v -3.5 4 5.5
v -3.5 4 1.5
v -3.5 4 0.5
v -3.5 5 4.5
v -3.5 5 3.5
v -3.5 5 1.5
v -3.5 5 0.5
v -3.5 6 4.5
v -3.5 6 3.5
v -1.5 0 6.5
v -1.5 0 5.5
v -1.5 0 -2.5
v -1.5 0 -5.5
v -1.5 1 -1.5
v -1.5 1 -2.5
v -1.5 2 6.5
v -1.5 2 5.5
v -1.5 2 -4.5
v -1.5 2 -5.5
v -1.5 3 6.5
v -1.5 3 5.5
v -1.5 3 0.5
v -1.5 3 -1.5
v -1.5 3 -2.5
v -1.5 3 -4.5
v -1.5 3 -5.5
v -1.5 4 6.5
v -1.5 4 5.5
v -1.5 4 0.5
v -1.5 4 -1.5
v -1.5 4 -2.5
v -1.5 4 -3.5
v -1.5 4 -4.5
v -1.5 4 -5.5
v -1.5 5 0.5
v -1.5 5 -1.5
v -1.5 5 -2.5
v -1.5 5 -3.5
v -1.5 5 -4.5
v -1.5 5 -5.5
v -0.5 0 -5.5
v -0.5 0 -6.5
v -0.5 1 -5.5
v -0.5 1 -6.5
v -0.5 4 1.5
v -0.5 4 0.5
v -0.5 4 -3.5
v -0.5 4 -4.5
v -0.5 5 1.5
v -0.5 5 0.5
v -0.5 5 -3.5
v -0.5 5 -4.5
v 0.5 0 -6.5
v 0.5 0 -7.5
v 0.5 1 -5.5
v 0.5 1 -6.5
v 0.5 1 -7.5
v 0.5 2 -5.5
v 0.5 2 -6.5
v 0.5 4 5.5
v 0.5 4 4.5
v 0.5 5 5.5
v 0.5 5 4.5
v 0.5 5 0.5
v 0.5 5 -1.5
v 0.5 5 -2.5
v 0.5 5 -4.5
v 0.5 6 0.5
v 0.5 6 -4.5
v 1.5 1 6.5
v 1.5 1 5.5
v 1.5 2 6.5
v 1.5 2 5.5
v 4.5 0 -3.5
v 4.5 0 -4.5
v 4.5 1 -3.5
v 4.5 1 -4.5
v 5.5 0 -2.5
v 5.5 0 -3.5
v 5.5 1 -0.5
v 5.5 1 -1.5
v 5.5 1 -2.5
v 5.5 1 -3.5
v 5.5 2 -0.5
v 5.5 2 -1.5
v -6.5 0 5.5
v -6.5 0 4.5
v -6.5 3 5.5
v -6.5 3 4.5
v -5.5 1 -1.5
v -5.5 1 -2.5
v -5.5 2 -1.5
v -5.5 2 -2.5
v -4.5 0 -4.5
v -4.5 0 -5.5
v -4.5 1 -4.5
v -4.5 1 -5.5
v -3.5 3 0.5
v -3.5 3 -1.5
v -3.5 4 0.5
v -3.5 4 -1.5
v -2.5 0 6.5
v -2.5 0 5.5
v -2.5 0 -2.5
v -2.5 0 -3.5
v -2.5 0 -5.5
v -2.5 0 -6.5
v -2.5 1 -1.5
v -2.5 1 -2.5
v -2.5 1 -3.5
v -2.5 1 -5.5
v -2.5 1 -6.5
v -2.5 2 6.5
v -2.5 2 5.5
v -2.5 3 6.5
v -2.5 3 5.5
v -2.5 3 -1.5
v -2.5 3 -2.5
v -2.5 4 6.5
v -2.5 4 5.5
v -2.5 4 1.5
v -2.5 4 0.5
v -2.5 5 4.5
v -2.5 5 3.5
v -2.5 5 1.5
v -2.5 5 0.5
v -2.5 6 4.5
v -2.5 6 3.5
v -0.5 4 5.5
v -0.5 4 4.5
v -0.5 5 5.5
v -0.5 5 4.5
v 0.5 1 6.5
v 0.5 1 5.5
v 0.5 2 6.5
v 0.5 2 5.5
v 1.5 0 -5.5
v 1.5 0 -7.5
v 1.5 1 -4.5
v 1.5 1 -5.5
v 1.5 1 -6.5
v 1.5 1 -7.5
v 1.5 2 -4.5
v 1.5 2 -5.5
v 1.5 2 -6.5
v 1.5 4 -4.5
v 1.5 4 -5.5
v 1.5 5 -1.5
v 1.5 5 -2.5
v 1.5 6 -1.5
v 1.5 6 -2.5
v 2.5 3 6.5
v 2.5 3 5.5
v 2.5 3 4.5
v 2.5 3 3.5
v 2.5 4 6.5
v 2.5 4 5.5
v 2.5 4 4.5
v 2.5 4 3.5
v 2.5 4 0.5
v 2.5 4 -3.5
v 2.5 4 -4.5
v 2.5 5 5.5
v 2.5 5 0.5
v 2.5 5 -1.5
v 2.5 5 -2.5
v 2.5 5 -3.5
v 2.5 5 -4.5
v 2.5 6 0.5
v 2.5 6 -1.5
v 2.5 6 -2.5
v 2.5 6 -4.5
v 3.5 0 6.5
v 3.5 0 5.5
v 3.5 0 -3.5
v 3.5 0 -5.5
v 3.5 1 5.5
v 3.5 1 4.5
v 3.5 1 0.5
v 3.5 1 -3.5
v 3.5 1 -4.5
v 3.5 1 -5.5
v 3.5 2 -0.5
v 3.5 2 -1.5
v 3.5 2 -3.5
v 3.5 2 -4.5
v 3.5 3 6.5
v 3.5 3 5.5
v 3.5 3 4.5
v 3.5 3 3.5
v 3.5 3 1.5
v 3.5 3 0.5
v 3.5 3 -0.5
v 3.5 3 -1.5
v 3.5 3 -2.5
v 3.5 3 -3.5
v 3.5 3 -4.5
v 3.5 4 5.5
v 3.5 4 4.5
v 3.5 4 3.5
v 3.5 4 1.5
v 3.5 4 0.5
v 3.5 4 -0.5
v 3.5 4 -1.5
v 3.5 4 -2.5
v 3.5 4 -3.5
v 3.5 4 -4.5
v 3.5 4 -5.5
v 3.5 5 0.5
v 3.5 5 -3.5
v 3.5 5 -4.5
v 3.5 5 -5.5
v 4.5 0 5.5
v 4.5 0 4.5
v 4.5 0 3.5
v 4.5 0 -2.5
v 4.5 0 -3.5
v 4.5 1 5.5
v 4.5 1 4.5
v 4.5 1 3.5
v 4.5 1 -2.5
v 4.5 1 -3.5
v 4.5 2 3.5
v 4.5 2 -0.5
v 4.5 2 -1.5
v 4.5 3 4.5
v 4.5 3 3.5
v 4.5 3 1.5
v 4.5 3 0.5
v 4.5 3 -0.5
v 4.5 3 -1.5
v 4.5 3 -2.5
v 4.5 4 1.5
v 4.5 4 -0.5
v 4.5 4 -1.5
v 4.5 4 -2.5
v 5.5 0 1.5
v 5.5 0 0.5
v 5.5 0 -3.5
v 5.5 0 -4.5
v 5.5 1 1.5
v 5.5 1 0.5
v 5.5 1 -3.5
v 5.5 1 -4.5
v 5.5 2 3.5
v 5.5 2 1.5
v 5.5 3 3.5
v 5.5 3 1.5
v 6.5 0 3.5
v 6.5 0 1.5
v 6.5 0 0.5
v 6.5 0 -3.5
v 6.5 1 1.5
v 6.5 1 0.5
v 6.5 1 -0.5
v 6.5 1 -1.5
v 6.5 1 -3.5
v 6.5 2 3.5
v 6.5 2 1.5
v 6.5 2 -0.5
v 6.5 2 -1.5
v 6.5 3 1.5
v 6.5 3 0.5
v -4.5 0 6.5
v -4.5 3 6.5
v -3.5 3 6.5
v -3.5 4 6.5
v -2.5 0 6.5
v -2.5 2 6.5
v -2.5 3 6.5
v -2.5 4 6.5
v -1.5 0 6.5
v -1.5 2 6.5
v -1.5 3 6.5
v -1.5 4 6.5
v 0.5 0 6.5
v 0.5 1 6.5
v 0.5 2 6.5
v 0.5 4 6.5
v 1.5 0 6.5
v 1.5 1 6.5
v 1.5 2 6.5
v 1.5 3 6.5
v 1.5 4 6.5
v 2.5 0 6.5
v 2.5 1 6.5
v 2.5 3 6.5
v 2.5 4 6.5
v 3.5 0 6.5
v 3.5 3 6.5
v -7.5 0 5.5
v -7.5 3 5.5
v -6.5 0 5.5
v -6.5 3 5.5
v -5.5 0 5.5
v -5.5 3 5.5
v -4.5 0 5.5
v -4.5 3 5.5
v -4.5 5 5.5
v -3.5 3 5.5
v -3.5 4 5.5
v -2.5 0 5.5
v -2.5 2 5.5
v -2.5 3 5.5
v -2.5 4 5.5
v -2.5 5 5.5
v -1.5 0 5.5
v -1.5 2 5.5
v -1.5 3 5.5
v -1.5 4 5.5
v -1.5 5 5.5
v -0.5 4 5.5
v -0.5 5 5.5
v 0.5 1 5.5
v 0.5 2 5.5
v 0.5 4 5.5
v 0.5 5 5.5
v 1.5 1 5.5
v 1.5 2 5.5
v 1.5 4 5.5
v 1.5 5 5.5
v 2.5 3 5.5
v 2.5 4 5.5
v 2.5 5 5.5
v 3.5 0 5.5
v 3.5 1 5.5
v 3.5 3 5.5
v 3.5 4 5.5
v 4.5 0 5.5
v 4.5 1 5.5
v -6.5 0 4.5
v -6.5 3 4.5
v -5.5 0 4.5
v -5.5 3 4.5
v -5.5 4 4.5
v -4.5 3 4.5
v -4.5 4 4.5
v -3.5 5 4.5
v -3.5 6 4.5
v -2.5 5 4.5
v -2.5 6 4.5
v -0.5 4 4.5
v -0.5 5 4.5
v 0.5 4 4.5
v 0.5 5 4.5
v 3.5 1 4.5
v 3.5 3 4.5
v 4.5 1 4.5
v 4.5 3 4.5
v 2.5 3 3.5
v 2.5 4 3.5
v 3.5 3 3.5
v 3.5 4 3.5
v 4.5 0 3.5
v 4.5 1 3.5
v 4.5 2 3.5
v 4.5 3 3.5
v 5.5 0 3.5
v 5.5 1 3.5
v 5.5 2 3.5
v 5.5 3 3.5
v 6.5 0 3.5
v 6.5 2 3.5
v 3.5 3 1.5
v 3.5 4 1.5
v 4.5 3 1.5
v 4.5 4 1.5
v 5.5 2 1.5
v 5.5 3 1.5
v 6.5 2 1.5
v 6.5 3 1.5
v -7.5 1 0.5
v -7.5 2 0.5
v -6.5 1 0.5
v -6.5 2 0.5
v -5.5 3 0.5
v -5.5 4 0.5
v -4.5 3 0.5
v -4.5 4 0.5
v -1.5 4 0.5
v -1.5 5 0.5
v -0.5 4 0.5
v -0.5 5 0.5
v 0.5 5 0.5
v 0.5 6 0.5
v 1.5 5 0.5
v 1.5 6 0.5
v 2.5 4 0.5
v 2.5 5 0.5
v 2.5 6 0.5
v 3.5 4 0.5
v 3.5 5 0.5
v 5.5 0 0.5
v 5.5 1 0.5
v 6.5 0 0.5
v 6.5 1 0.5
v 3.5 2 -0.5
v 3.5 3 -0.5
v 4.5 2 -0.5
v 4.5 3 -0.5
v 5.5 1 -0.5
v 5.5 2 -0.5
v 6.5 1 -0.5
v 6.5 2 -0.5
v 3.5 3 -1.5
v 3.5 4 -1.5
v 4.5 3 -1.5
v 4.5 4 -1.5
v 1.5 5 -2.5
v 1.5 6 -2.5
v 2.5 5 -2.5
v 2.5 6 -2.5
v 4.5 0 -3.5
v 4.5 1 -3.5
v 5.5 0 -3.5
v 5.5 1 -3.5
v -6.5 0 -4.5
v -6.5 1 -4.5
v -4.5 0 -4.5
v -4.5 1 -4.5
v -1.5 4 -4.5
v -1.5 5 -4.5
v -0.5 4 -4.5
v -0.5 5 -4.5
v 2.5 4 -4.5
v 2.5 5 -4.5
v 3.5 4 -4.5
v 3.5 5 -4.5
v -3.5 0 -5.5
v -3.5 1 -5.5
v -2.5 0 -5.5
v -2.5 1 -5.5
v 2.5 3 4.5
v 2.5 4 4.5
v 3.5 3 4.5
v 3.5 4 4.5
v -7.5 2 3.5
v -7.5 3 3.5
v -5.5 2 3.5
v -5.5 3 3.5
v -3.5 5 3.5
v -3.5 6 3.5
v -2.5 5 3.5
v -2.5 6 3.5
v -7.5 1 1.5
v -7.5 2 1.5
v -6.5 1 1.5
v -6.5 2 1.5
v -5.5 3 1.5
v -5.5 4 1.5
v -4.5 3 1.5
v -4.5 4 1.5
v -4.5 5 1.5
v -3.5 4 1.5
v -3.5 5 1.5
v -2.5 4 1.5
v -2.5 5 1.5
v -1.5 4 1.5
v -0.5 4 1.5
v -0.5 5 1.5
v 5.5 0 1.5
v 5.5 1 1.5
v 6.5 0 1.5
v 6.5 1 1.5
v -3.5 3 0.5
v -3.5 4 0.5
v -3.5 5 0.5
v -2.5 4 0.5
v -2.5 5 0.5
v -1.5 3 0.5
v -1.5 4 0.5
v 3.5 1 0.5
v 3.5 3 0.5
v 4.5 3 0.5
v 6.5 1 0.5
v 6.5 3 0.5
v 3.5 3 -0.5
v 3.5 4 -0.5
v 4.5 3 -0.5
v 4.5 4 -0.5
v -5.5 1 -1.5
v -5.5 2 -1.5
v -5.5 3 -1.5
v -5.5 4 -1.5
v -4.5 1 -1.5
v -4.5 3 -1.5
v -4.5 4 -1.5
v -3.5 3 -1.5
v -3.5 4 -1.5
v -2.5 1 -1.5
v -2.5 3 -1.5
v -1.5 1 -1.5
v -1.5 3 -1.5
v 1.5 5 -1.5
v 1.5 6 -1.5
v 2.5 5 -1.5
v 2.5 6 -1.5
v 3.5 2 -1.5
v 3.5 3 -1.5
v 4.5 2 -1.5
v 4.5 3 -1.5
v 5.5 1 -1.5
v 5.5 2 -1.5
v 6.5 1 -1.5
v 6.5 2 -1.5
v -7.5 0 -2.5
v -7.5 2 -2.5
v -5.5 1 -2.5
v -5.5 2 -2.5
v -4.5 0 -2.5
v -4.5 1 -2.5
v -4.5 3 -2.5
v -2.5 0 -2.5
v -2.5 1 -2.5
v -2.5 3 -2.5
v -1.5 0 -2.5
v -1.5 1 -2.5
v 3.5 3 -2.5
v 3.5 4 -2.5
v 4.5 0 -2.5
v 4.5 1 -2.5
v 4.5 3 -2.5
v 4.5 4 -2.5
v 5.5 0 -2.5
v 5.5 1 -2.5
v -4.5 0 -3.5
v -4.5 1 -3.5
v -2.5 0 -3.5
v -2.5 1 -3.5
v -1.5 4 -3.5
v -1.5 5 -3.5
v -0.5 4 -3.5
v -0.5 5 -3.5
v 2.5 4 -3.5
v 2.5 5 -3.5
v 3.5 0 -3.5
v 3.5 1 -3.5
v 3.5 4 -3.5
v 3.5 5 -3.5
v 4.5 0 -3.5
v 4.5 1 -3.5
v 5.5 0 -3.5
v 5.5 1 -3.5
v 6.5 0 -3.5
v 6.5 1 -3.5
v 0.5 5 -4.5
v 0.5 6 -4.5
v 1.5 1 -4.5
v 1.5 2 -4.5
v 1.5 4 -4.5
v 1.5 5 -4.5
v 1.5 6 -4.5
v 2.5 1 -4.5
v 2.5 2 -4.5
v 2.5 3 -4.5
v 2.5 5 -4.5
v 2.5 6 -4.5
v 3.5 1 -4.5
v 3.5 2 -4.5
v 3.5 3 -4.5
v 3.5 4 -4.5
v 4.5 0 -4.5
v 4.5 1 -4.5
v 5.5 0 -4.5
v 5.5 1 -4.5
v -6.5 0 -5.5
v -6.5 1 -5.5
v -4.5 0 -5.5
v -4.5 1 -5.5
v -1.5 0 -5.5
v -1.5 2 -5.5
v -1.5 3 -5.5
v -1.5 4 -5.5
v -1.5 5 -5.5
v -0.5 0 -5.5
v -0.5 1 -5.5
v -0.5 2 -5.5
v -0.5 3 -5.5
v -0.5 4 -5.5
v -0.5 5 -5.5
v 0.5 1 -5.5
v 0.5 2 -5.5
v 0.5 4 -5.5
v 0.5 5 -5.5
v 1.5 0 -5.5
v 1.5 1 -5.5
v 1.5 2 -5.5
v 1.5 4 -5.5
v 1.5 5 -5.5
v 3.5 0 -5.5
v 3.5 1 -5.5
v 3.5 4 -5.5
v 3.5 5 -5.5
v -3.5 0 -6.5
v -3.5 1 -6.5
v -2.5 0 -6.5
v -2.5 1 -6.5
v -0.5 0 -6.5
v -0.5 1 -6.5
v 0.5 0 -6.5
v 0.5 1 -6.5
v 0.5 2 -6.5
v 1.5 1 -6.5
v 1.5 2 -6.5
v 0.5 0 -7.5
v 0.5 1 -7.5
v 1.5 0 -7.5
v 1.5 1 -7.5
v -4.5 0 6.5
v -2.5 0 6.5
v -1.5 0 6.5
v 0.5 0 6.5
v 1.5 0 6.5
v 2.5 0 6.5
v 3.5 0 6.5
v -7.5 0 5.5
v -6.5 0 5.5
v -5.5 0 5.5
v -4.5 0 5.5
v -2.5 0 5.5
v -1.5 0 5.5
v 0.5 0 5.5
v 1.5 0 5.5
v 2.5 0 5.5
v 3.5 0 5.5
v 4.5 0 5.5
v -6.5 0 4.5
v -5.5 0 4.5
v 3.5 0 4.5
v 4.5 0 4.5
v 4.5 0 3.5
v 5.5 0 3.5
v 6.5 0 3.5
v 4.5 0 2.5
v 5.5 0 2.5
v 5.5 0 1.5
v 6.5 0 1.5
v 5.5 0 0.5
v 6.5 0 0.5
v -7.5 0 -2.5
v -4.5 0 -2.5
v -2.5 0 -2.5
v -1.5 0 -2.5
v 4.5 0 -2.5
v 5.5 0 -2.5
v -4.5 0 -3.5
v -2.5 0 -3.5
v 3.5 0 -3.5
v 4.5 0 -3.5
v 5.5 0 -3.5
v 6.5 0 -3.5
v -6.5 0 -4.5
v -4.5 0 -4.5
v 4.5 0 -4.5
v 5.5 0 -4.5
v -6.5 0 -5.5
v -4.5 0 -5.5
v -3.5 0 -5.5
v -2.5 0 -5.5
v -1.5 0 -5.5
v -0.5 0 -5.5
v 1.5 0 -5.5
v 3.5 0 -5.5
v -3.5 0 -6.5
v -2.5 0 -6.5
v -0.5 0 -6.5
v 0.5 0 -6.5
v 0.5 0 -7.5
v 1.5 0 -7.5
v 5.5 1 1.5
v 6.5 1 1.5
v 5.5 1 0.5
v 6.5 1 0.5
v -2.5 2 6.5
v -1.5 2 6.5
v 0.5 2 6.5
v 1.5 2 6.5
v -2.5 2 5.5
v -1.5 2 5.5
v 0.5 2 5.5
v 1.5 2 5.5
v 3.5 2 -0.5
v 4.5 2 -0.5
v 3.5 2 -1.5
v 4.5 2 -1.5
v 3.5 3 0.5
v 4.5 3 0.5
v 3.5 3 -0.5
v 4.5 3 -0.5
v 3.5 3 -1.5
v 4.5 3 -1.5
v 3.5 3 -2.5
v 4.5 3 -2.5
v 1.5 4 -4.5
v 3.5 4 -4.5
v 1.5 4 -5.5
v 3.5 4 -5.5
v 0.5 1 6.5
v 1.5 1 6.5
v 0.5 1 5.5
v 1.5 1 5.5
v 3.5 1 5.5
v 4.5 1 5.5
v 3.5 1 4.5
v 4.5 1 4.5
v -7.5 1 1.5
v -6.5 1 1.5
v -7.5 1 0.5
v -6.5 1 0.5
v 3.5 1 0.5
v 6.5 1 0.5
v 5.5 1 -0.5
v 6.5 1 -0.5
v -5.5 1 -1.5
v -4.5 1 -1.5
v -2.5 1 -1.5
v -1.5 1 -1.5
v 5.5 1 -1.5
v 6.5 1 -1.5
v -5.5 1 -2.5
v -4.5 1 -2.5
v -2.5 1 -2.5
v -1.5 1 -2.5
v 4.5 1 -2.5
v 5.5 1 -2.5
v -4.5 1 -3.5
v -2.5 1 -3.5
v 3.5 1 -3.5
v 4.5 1 -3.5
v 5.5 1 -3.5
v 6.5 1 -3.5
v -6.5 1 -4.5
v -4.5 1 -4.5
v 1.5 1 -4.5
v 2.5 1 -4.5
v 3.5 1 -4.5
v 4.5 1 -4.5
v 5.5 1 -4.5
v -6.5 1 -5.5
v -4.5 1 -5.5
v -3.5 1 -5.5
v -2.5 1 -5.5
v -0.5 1 -5.5
v 0.5 1 -5.5
v 1.5 1 -5.5
v 3.5 1 -5.5
v -3.5 1 -6.5
v -2.5 1 -6.5
v -0.5 1 -6.5
v 0.5 1 -6.5
v 1.5 1 -6.5
v 0.5 1 -7.5
v 1.5 1 -7.5
v -7.5 2 3.5
v -5.5 2 3.5
v 5.5 2 3.5
v 6.5 2 3.5
v -7.5 2 1.5
v -6.5 2 1.5
v 5.5 2 1.5
v 6.5 2 1.5
v -7.5 2 0.5
v -6.5 2 0.5
v 5.5 2 -0.5
v 6.5 2 -0.5
v -5.5 2 -1.5
v 5.5 2 -1.5
v 6.5 2 -1.5
v -7.5 2 -2.5
v -5.5 2 -2.5
v 0.5 2 -5.5
v 1.5 2 -5.5
v 0.5 2 -6.5
v 1.5 2 -6.5
v -4.5 3 6.5
v -3.5 3 6.5
v -2.5 3 6.5
v -1.5 3 6.5
v 2.5 3 6.5
v 3.5 3 6.5
v -7.5 3 5.5
v -6.5 3 5.5
v -5.5 3 5.5
v -4.5 3 5.5
v -3.5 3 5.5
v -2.5 3 5.5
v -1.5 3 5.5
v 2.5 3 5.5
v 3.5 3 5.5
v -6.5 3 4.5
v -5.5 3 4.5
v -4.5 3 4.5
v 2.5 3 4.5
v 3.5 3 4.5
v 4.5 3 4.5
v -7.5 3 3.5
v -5.5 3 3.5
v 2.5 3 3.5
v 3.5 3 3.5
v 4.5 3 3.5
v 5.5 3 3.5
v -5.5 3 1.5
v -4.5 3 1.5
v 3.5 3 1.5
v 4.5 3 1.5
v 5.5 3 1.5
v 6.5 3 1.5
v -5.5 3 0.5
v -4.5 3 0.5
v -3.5 3 0.5
v -1.5 3 0.5
v 4.5 3 0.5
v 6.5 3 0.5
v 3.5 3 -0.5
v 4.5 3 -0.5
v -4.5 3 -1.5
v -3.5 3 -1.5
v -2.5 3 -1.5
v -1.5 3 -1.5
v 3.5 3 -1.5
v 4.5 3 -1.5
v -4.5 3 -2.5
v -2.5 3 -2.5
v -3.5 4 6.5
v -2.5 4 6.5
v -1.5 4 6.5
v 0.5 4 6.5
v 1.5 4 6.5
v 2.5 4 6.5
v -3.5 4 5.5
v -2.5 4 5.5
v -1.5 4 5.5
v -0.5 4 5.5
v 0.5 4 5.5
v 1.5 4 5.5
v 2.5 4 5.5
v 3.5 4 5.5
v -5.5 4 4.5
v -4.5 4 4.5
v -0.5 4 4.5
v 0.5 4 4.5
v 2.5 4 4.5
v 3.5 4 4.5
v -5.5 4 3.5
v -4.5 4 3.5
v 2.5 4 3.5
v 3.5 4 3.5
v -5.5 4 1.5
v -4.5 4 1.5
v -3.5 4 1.5
v -2.5 4 1.5
v -1.5 4 1.5
v -0.5 4 1.5
v 3.5 4 1.5
v 4.5 4 1.5
v -5.5 4 0.5
v -4.5 4 0.5
v -3.5 4 0.5
v -2.5 4 0.5
v -1.5 4 0.5
v -0.5 4 0.5
v 2.5 4 0.5
v 3.5 4 0.5
v 3.5 4 -0.5
v 4.5 4 -0.5
v -5.5 4 -1.5
v -4.5 4 -1.5
v -3.5 4 -1.5
v 3.5 4 -1.5
v 4.5 4 -1.5
v 3.5 4 -2.5
v 4.5 4 -2.5
v -1.5 4 -3.5
v -0.5 4 -3.5
v 2.5 4 -3.5
v 3.5 4 -3.5
v -1.5 4 -4.5
v -0.5 4 -4.5
v 2.5 4 -4.5
v 3.5 4 -4.5
v -4.5 5 5.5
v -2.5 5 5.5
v -1.5 5 5.5
v -0.5 5 5.5
v 0.5 5 5.5
v 1.5 5 5.5
v 2.5 5 5.5
v -4.5 5 4.5
v -3.5 5 4.5
v -2.5 5 4.5
v -0.5 5 4.5
v 0.5 5 4.5
v -3.5 5 3.5
v -2.5 5 3.5
v -1.5 5 2.5
v -0.5 5 2.5
v 0.5 5 2.5
v -4.5 5 1.5
v -3.5 5 1.5
v -2.5 5 1.5
v -0.5 5 1.5
v 0.5 5 1.5
v -3.5 5 0.5
v -2.5 5 0.5
v -1.5 5 0.5
v -0.5 5 0.5
v 0.5 5 0.5
v 1.5 5 0.5
v 2.5 5 0.5
v 3.5 5 0.5
v -1.5 5 -1.5
v -0.5 5 -1.5
v 0.5 5 -1.5
v 1.5 5 -1.5
v 2.5 5 -1.5
v -1.5 5 -2.5
v -0.5 5 -2.5
v 0.5 5 -2.5
v 1.5 5 -2.5
v 2.5 5 -2.5
v -1.5 5 -3.5
v -0.5 5 -3.5
v 2.5 5 -3.5
v 3.5 5 -3.5
v -1.5 5 -4.5
v -0.5 5 -4.5
v 0.5 5 -4.5
v 1.5 5 -4.5
v 2.5 5 -4.5
v 3.5 5 -4.5
v -1.5 5 -5.5
v -0.5 5 -5.5
v 0.5 5 -5.5
v 1.5 5 -5.5
v 3.5 5 -5.5
v -3.5 6 4.5
v -2.5 6 4.5
v -3.5 6 3.5
v -2.5 6 3.5
v 0.5 6 0.5
v 1.5 6 0.5
v 2.5 6 0.5
v 1.5 6 -1.5
v 2.5 6 -1.5
v 1.5 6 -2.5
v 2.5 6 -2.5
v 0.5 6 -4.5
v 1.5 6 -4.5
v 2.5 6 -4.5

# faces
f 3/3/1 2/3/1 1/3/1
f 4/3/1 2/3/1 3/3/1
f 5/3/1 3/3/1 1/3/1
f 6/3/1 3/3/1 5/3/1
f 7/3/1 2/3/1 4/3/1
f 8/3/1 2/3/1 7/3/1
f 9/3/1 5/3/1 1/3/1
f 10/3/1 5/3/1 9/3/1
f 15/3/1 12/3/1 11/3/1
f 16/3/1 12/3/1 15/3/1
f 17/3/1 14/3/1 13/3/1
f 18/3/1 14/3/1 17/3/1
f 23/3/1 20/3/1 19/3/1
f 24/3/1 20/3/1 23/3/1
f 25/3/1 22/3/1 21/3/1
f 26/3/1 22/3/1 25/3/1
f 27/3/1 22/3/1 26/3/1
f 28/3/1 22/3/1 27/3/1
f 29/1/1 25/1/1 24/1/1
f 30/3/1 26/3/1 25/3/1
f 30/1/1 25/1/1 29/1/1
f 31/3/1 26/3/1 30/3/1
f 32/1/1 28/1/1 27/1/1
f 33/1/1 28/1/1 32/1/1
f 39/3/1 37/3/1 36/3/1
f 40/3/1 37/3/1 39/3/1
f 41/3/1 35/3/1 34/3/1
f 42/3/1 35/3/1 41/3/1
f 46/3/1 39/3/1 38/3/1
f 47/3/1 39/3/1 46/3/1
f 48/3/1 43/3/1 42/3/1
f 50/3/1 45/3/1 44/3/1
f 51/3/1 45/3/1 50/3/1
f 52/3/1 48/3/1 42/3/1
f 53/2/1 49/2/1 48/2/1
f 53/3/1 48/3/1 52/3/1
f 53/2/1 50/2/1 49/2/1
f 54/2/1 50/2/1 53/2/1
f 57/3/1 56/3/1 55/3/1
f 58/3/1 56/3/1 57/3/1
f 61/3/1 60/3/1 59/3/1
f 62/3/1 60/3/1 61/3/1
f 67/3/1 64/3/1 63/3/1
f 68/3/1 64/3/1 67/3/1
f 69/3/1 66/3/1 65/3/1
f 70/3/1 66/3/1 69/3/1
f 76/3/1 74/3/1 73/3/1
f 77/3/1 72/3/1 71/3/1
f 78/3/1 72/3/1 77/3/1
f 79/3/1 76/3/1 75/3/1
f 79/3/1 74/3/1 76/3/1
f 80/3/1 74/3/1 79/3/1
f 84/3/1 79/3/1 75/3/1
f 85/3/1 79/3/1 84/3/1
f 86/2/1 80/2/1 79/2/1
f 86/3/1 79/3/1 85/3/1
f 87/2/1 80/2/1 86/2/1
f 88/3/1 82/3/1 81/3/1
f 89/3/1 82/3/1 88/3/1
f 90/3/1 84/3/1 83/3/1
f 91/1/1 85/1/1 84/1/1
f 91/3/1 84/3/1 90/3/1
f 92/3/1 86/3/1 85/3/1
f 92/1/1 85/1/1 91/1/1
f 92/3/1 87/3/1 86/3/1
f 93/3/1 87/3/1 92/3/1
f 94/3/1 87/3/1 93/3/1
f 95/3/1 87/3/1 94/3/1
f 96/2/1 91/2/1 90/2/1
f 97/1/1 92/1/1 91/1/1
f 97/2/1 91/2/1 96/2/1
f 98/2/1 93/2/1 92/2/1
f 98/1/1 92/1/1 97/1/1
f 99/2/1 93/2/1 98/2/1
f 100/2/1 95/2/1 94/2/1
f 101/2/1 95/2/1 100/2/1
f 104/3/1 103/3/1 102/3/1
f 105/3/1 103/3/1 104/3/1
f 110/3/1 107/3/1 106/3/1
f 111/3/1 107/3/1 110/3/1
f 112/3/1 109/3/1 108/3/1
f 113/3/1 109/3/1 112/3/1
f 117/3/1 115/3/1 114/3/1
f 118/3/1 115/3/1 117/3/1
f 119/3/1 117/3/1 116/3/1
f 120/3/1 117/3/1 119/3/1
f 123/1/1 122/1/1 121/1/1
f 124/1/1 122/1/1 123/1/1
f 129/3/1 128/3/1 127/3/1
f 129/3/1 127/3/1 126/3/1
f 129/3/1 126/3/1 125/3/1
f 130/3/1 128/3/1 129/3/1
f 133/3/1 132/3/1 131/3/1
f 134/3/1 132/3/1 133/3/1
f 137/3/1 136/3/1 135/3/1
f 138/3/1 136/3/1 137/3/1
f 143/3/1 140/3/1 139/3/1
f 144/3/1 140/3/1 143/3/1
f 145/3/1 142/3/1 141/3/1
f 146/3/1 142/3/1 145/3/1
f 147/3/2 148/3/2 149/3/2
f 149/3/2 148/3/2 150/3/2
f 151/3/2 152/3/2 153/3/2
f 153/3/2 152/3/2 154/3/2
f 155/3/2 156/3/2 157/3/2
f 157/3/2 156/3/2 158/3/2
f 159/3/2 160/3/2 161/3/2
f 161/3/2 160/3/2 162/3/2
f 165/3/2 166/3/2 170/3/2
f 170/3/2 166/3/2 171/3/2
f 167/3/2 168/3/2 172/3/2
f 172/3/2 168/3/2 173/3/2
f 163/3/2 164/3/2 174/3/2
f 174/3/2 164/3/2 175/3/2
f 169/3/2 170/3/2 178/3/2
f 178/3/2 170/3/2 179/3/2
f 176/3/2 177/3/2 180/3/2
f 180/3/2 177/3/2 181/3/2
f 182/3/2 183/3/2 186/3/2
f 186/3/2 183/3/2 187/3/2
f 184/3/2 185/3/2 188/3/2
f 188/3/2 185/3/2 189/3/2
f 190/2/2 191/2/2 192/2/2
f 192/2/2 191/2/2 193/2/2
f 194/3/2 195/3/2 196/3/2
f 196/3/2 195/3/2 197/3/2
f 198/3/2 199/3/2 201/3/2
f 201/3/2 199/3/2 202/3/2
f 202/3/2 199/3/2 203/3/2
f 200/3/2 201/3/2 204/3/2
f 201/3/2 202/3/2 204/3/2
f 204/3/2 202/3/2 205/3/2
f 205/3/2 202/3/2 206/3/2
f 204/3/2 205/3/2 207/3/2
f 207/3/2 205/3/2 208/3/2
f 209/3/2 210/3/2 211/3/2
f 211/3/2 210/3/2 212/3/2
f 213/2/2 214/2/2 217/2/2
f 217/2/2 214/2/2 218/2/2
f 215/3/2 216/3/2 219/3/2
f 219/3/2 216/3/2 220/3/2
f 218/2/2 219/2/2 224/2/2
f 220/2/2 221/2/2 224/2/2
f 219/2/2 220/2/2 224/2/2
f 224/2/2 221/2/2 225/2/2
f 222/3/2 223/3/2 228/3/2
f 228/3/2 223/3/2 229/3/2
f 225/2/2 226/2/2 230/2/2
f 230/2/2 226/2/2 231/2/2
f 228/2/2 229/2/2 232/2/2
f 227/2/2 228/2/2 232/2/2
f 232/2/2 229/2/2 233/2/2
f 234/3/2 235/3/2 238/3/2
f 236/3/2 237/3/2 241/3/2
f 241/3/2 237/3/2 242/3/2
f 242/3/2 237/3/2 243/3/2
f 240/3/2 241/3/2 244/3/2
f 241/3/2 242/3/2 244/3/2
f 244/3/2 242/3/2 245/3/2
f 245/3/2 242/3/2 246/3/2
f 246/3/2 242/3/2 247/3/2
f 238/3/2 239/3/2 248/3/2
f 234/3/2 238/3/2 248/3/2
f 248/3/2 239/3/2 249/3/2
f 249/3/2 239/3/2 250/3/2
f 240/3/2 244/3/2 253/3/2
f 253/3/2 244/3/2 254/3/2
f 245/3/2 246/3/2 255/3/2
f 255/3/2 246/3/2 256/3/2
f 246/2/2 247/2/2 257/2/2
f 256/3/2 246/3/2 257/3/2
f 257/2/2 247/2/2 258/2/2
f 249/3/2 250/3/2 259/3/2
f 259/3/2 250/3/2 260/3/2
f 251/3/2 252/3/2 261/3/2
f 261/3/2 252/3/2 262/3/2
f 254/3/2 255/3/2 264/3/2
f 264/3/2 255/3/2 265/3/2
f 257/3/2 258/3/2 266/3/2
f 256/3/2 257/3/2 266/3/2
f 266/3/2 258/3/2 267/3/2
f 267/3/2 258/3/2 268/3/2
f 266/3/2 267/3/2 270/3/2
f 265/3/2 266/3/2 270/3/2
f 264/3/2 265/3/2 270/3/2
f 263/3/2 264/3/2 270/3/2
f 270/3/2 267/3/2 271/3/2
f 268/3/2 269/3/2 272/3/2
f 272/3/2 269/3/2 273/3/2
f 274/1/2 275/1/2 279/1/2
f 275/3/2 276/3/2 280/3/2
f 279/1/2 275/1/2 280/1/2
f 280/3/2 276/3/2 281/3/2
f 277/3/2 278/3/2 282/3/2
f 282/3/2 278/3/2 283/3/2
f 280/1/2 281/1/2 284/1/2
f 280/1/2 284/1/2 287/1/2
f 287/1/2 284/1/2 288/1/2
f 285/1/2 286/1/2 291/1/2
f 291/1/2 286/1/2 292/1/2
f 289/3/2 290/3/2 294/3/2
f 290/3/2 291/3/2 294/3/2
f 294/3/2 291/3/2 295/3/2
f 292/3/2 293/3/2 296/3/2
f 296/3/2 293/3/2 297/3/2
f 298/3/2 299/3/2 302/3/2
f 302/3/2 299/3/2 303/3/2
f 300/3/2 301/3/2 304/3/2
f 304/3/2 301/3/2 305/3/2
f 306/2/2 307/2/2 308/2/2
f 308/2/2 307/2/2 309/2/2
f 310/3/2 311/3/2 314/3/2
f 312/3/2 313/3/2 315/3/2
f 315/3/2 313/3/2 316/3/2
f 316/3/2 313/3/2 317/3/2
f 317/3/2 313/3/2 318/3/2
f 310/3/2 314/3/2 319/3/2
f 314/3/2 315/3/2 319/3/2
f 319/3/2 315/3/2 320/3/2
f 316/3/2 317/3/2 321/3/2
f 321/3/2 317/3/2 322/3/2
f 320/3/2 315/3/2 323/3/2
f 323/3/2 315/3/2 324/3/2
f 327/3/3 326/3/3 325/3/3
f 329/3/3 327/3/3 325/3/3
f 329/3/3 328/3/3 327/3/3
f 330/3/3 328/3/3 329/3/3
f 331/3/3 328/3/3 330/3/3
f 332/3/3 328/3/3 331/3/3
f 334/1/3 331/1/3 330/1/3
f 335/1/3 331/1/3 334/1/3
f 337/3/3 334/3/3 333/3/3
f 337/3/3 336/3/3 335/3/3
f 337/3/3 335/3/3 334/3/3
f 338/3/3 336/3/3 337/3/3
f 339/3/3 336/3/3 338/3/3
f 340/3/3 336/3/3 339/3/3
f 341/1/3 338/1/3 337/1/3
f 342/1/3 338/1/3 341/1/3
f 343/1/3 340/1/3 339/1/3
f 344/1/3 340/1/3 343/1/3
f 345/1/3 340/1/3 344/1/3
f 346/2/3 342/2/3 341/2/3
f 347/3/3 343/3/3 342/3/3
f 347/2/3 342/2/3 346/2/3
f 347/3/3 344/3/3 343/3/3
f 348/2/3 345/2/3 344/2/3
f 348/3/3 344/3/3 347/3/3
f 349/2/3 345/2/3 348/2/3
f 350/3/3 347/3/3 346/3/3
f 350/3/3 348/3/3 347/3/3
f 351/3/3 348/3/3 350/3/3
f 354/3/3 353/3/3 352/3/3
f 355/3/3 353/3/3 354/3/3
f 358/3/3 357/3/3 356/3/3
f 359/3/3 357/3/3 358/3/3
f 361/3/3 360/3/3 359/3/3
f 362/3/3 360/3/3 361/3/3
f 366/3/3 360/3/3 362/3/3
f 367/3/3 360/3/3 366/3/3
f 368/3/3 364/3/3 363/3/3
f 369/3/3 364/3/3 368/3/3
f 370/3/3 366/3/3 365/3/3
f 371/1/3 367/1/3 366/1/3
f 371/3/3 366/3/3 370/3/3
f 372/1/3 367/1/3 371/1/3
f 373/2/3 372/2/3 371/2/3
f 374/2/3 372/2/3 373/2/3
f 379/3/3 376/3/3 375/3/3
f 380/3/3 376/3/3 379/3/3
f 381/1/3 378/1/3 377/1/3
f 382/1/3 378/1/3 381/1/3
f 384/2/3 382/2/3 381/2/3
f 385/2/3 382/2/3 384/2/3
f 388/3/3 384/3/3 383/3/3
f 389/3/3 384/3/3 388/3/3
f 390/1/3 387/1/3 386/1/3
f 391/1/3 387/1/3 390/1/3
f 394/3/3 393/3/3 392/3/3
f 395/3/3 393/3/3 394/3/3
f 397/1/3 396/1/3 395/1/3
f 398/1/3 396/1/3 397/1/3
f 401/3/3 400/3/3 399/3/3
f 402/3/3 400/3/3 401/3/3
f 405/3/3 404/3/3 403/3/3
f 406/3/3 404/3/3 405/3/3
f 409/1/3 408/1/3 407/1/3
f 410/1/3 408/1/3 409/1/3
f 413/3/3 412/3/3 411/3/3
f 414/3/3 412/3/3 413/3/3
f 419/2/3 416/2/3 415/2/3
f 420/3/3 417/3/3 416/3/3
f 420/2/3 416/2/3 419/2/3
f 421/2/3 418/2/3 417/2/3
f 421/3/3 417/3/3 420/3/3
f 422/2/3 418/2/3 421/2/3
f 423/3/3 420/3/3 419/3/3
f 423/3/3 421/3/3 420/3/3
f 424/3/3 421/3/3 423/3/3
f 427/3/3 426/3/3 425/3/3
f 428/3/3 426/3/3 427/3/3
f 431/3/3 430/3/3 429/3/3
f 432/3/3 430/3/3 431/3/3
f 435/3/3 434/3/3 433/3/3
f 436/3/3 434/3/3 435/3/3
f 439/1/3 438/1/3 437/1/3
f 440/1/3 438/1/3 439/1/3
f 443/2/3 442/2/3 441/2/3
f 444/2/3 442/2/3 443/2/3
f 447/3/3 446/3/3 445/3/3
f 448/3/3 446/3/3 447/3/3
f 450/2/3 448/2/3 447/2/3
f 451/2/3 448/2/3 450/2/3
f 452/3/3 450/3/3 449/3/3
f 453/3/3 450/3/3 452/3/3
f 456/3/3 455/3/3 454/3/3
f 457/3/3 455/3/3 456/3/3
f 460/1/3 459/1/3 458/1/3
f 461/1/3 459/1/3 460/1/3
f 464/3/3 463/3/3 462/3/3
f 465/3/3 463/3/3 464/3/3
f 468/3/3 467/3/3 466/3/3
f 469/3/3 467/3/3 468/3/3
f 472/2/3 471/2/3 470/2/3
f 473/2/3 471/2/3 472/2/3
f 476/3/3 475/3/3 474/3/3
f 477/3/3 475/3/3 476/3/3
f 480/3/3 479/3/3 478/3/3
f 481/3/3 479/3/3 480/3/3
f 484/2/3 483/2/3 482/2/3
f 485/2/3 483/2/3 484/2/3
f 488/3/3 487/3/3 486/3/3
f 489/3/3 487/3/3 488/3/3
f 492/3/3 491/3/3 490/3/3
f 493/3/3 491/3/3 492/3/3
f 494/3/4 495/3/4 496/3/4
f 496/3/4 495/3/4 497/3/4
f 498/3/4 499/3/4 500/3/4
f 500/3/4 499/3/4 501/3/4
f 502/3/4 503/3/4 504/3/4
f 504/3/4 503/3/4 505/3/4
f 506/3/4 507/3/4 508/3/4
f 508/3/4 507/3/4 509/3/4
f 510/3/4 511/3/4 512/3/4
f 512/3/4 511/3/4 513/3/4
f 513/2/4 514/2/4 515/2/4
f 515/2/4 514/2/4 516/2/4
f 517/1/4 518/1/4 519/1/4
f 519/1/4 518/1/4 520/1/4
f 520/1/4 518/1/4 521/1/4
f 522/3/4 523/3/4 524/3/4
f 524/3/4 523/3/4 525/3/4
f 526/3/4 527/3/4 529/3/4
f 527/3/4 528/3/4 529/3/4
f 529/3/4 528/3/4 530/3/4
f 526/3/4 529/3/4 531/3/4
f 531/3/4 529/3/4 532/3/4
f 533/3/4 534/3/4 535/3/4
f 533/3/4 535/3/4 536/3/4
f 536/3/4 535/3/4 537/3/4
f 538/3/4 539/3/4 540/3/4
f 540/3/4 539/3/4 541/3/4
f 542/3/4 543/3/4 546/3/4
f 543/3/4 544/3/4 546/3/4
f 544/1/4 545/1/4 547/1/4
f 546/3/4 544/3/4 547/3/4
f 547/1/4 545/1/4 548/1/4
f 547/3/4 548/3/4 549/3/4
f 549/3/4 548/3/4 550/3/4
f 551/3/4 552/3/4 553/3/4
f 553/3/4 552/3/4 554/3/4
f 555/2/4 556/2/4 557/2/4
f 557/2/4 556/2/4 558/2/4
f 559/1/4 560/1/4 561/1/4
f 561/1/4 560/1/4 562/1/4
f 563/3/4 564/3/4 565/3/4
f 565/3/4 564/3/4 566/3/4
f 567/3/4 568/3/4 569/3/4
f 569/3/4 568/3/4 570/3/4
f 567/3/4 569/3/4 571/3/4
f 571/3/4 569/3/4 572/3/4
f 572/3/4 573/3/4 575/3/4
f 575/3/4 573/3/4 576/3/4
f 574/3/4 575/3/4 577/3/4
f 577/3/4 575/3/4 578/3/4
f 579/3/4 580/3/4 583/3/4
f 583/3/4 580/3/4 584/3/4
f 581/3/4 582/3/4 585/3/4
f 585/3/4 582/3/4 586/3/4
f 587/3/4 588/3/4 589/3/4
f 589/3/4 588/3/4 590/3/4
f 591/2/4 592/2/4 593/2/4
f 593/2/4 592/2/4 594/2/4
f 595/3/4 596/3/4 599/3/4
f 599/3/4 596/3/4 600/3/4
f 597/3/4 598/3/4 601/3/4
f 601/3/4 598/3/4 602/3/4
f 603/3/4 604/3/4 605/3/4
f 605/3/4 604/3/4 606/3/4
f 607/3/4 608/3/4 612/3/4
f 612/3/4 608/3/4 613/3/4
f 609/2/4 610/2/4 614/2/4
f 610/3/4 611/3/4 615/3/4
f 614/2/4 610/2/4 615/2/4
f 615/3/4 611/3/4 616/3/4
f 612/2/4 613/2/4 617/2/4
f 617/2/4 613/2/4 618/2/4
f 614/3/4 615/3/4 619/3/4
f 615/2/4 616/2/4 620/2/4
f 619/3/4 615/3/4 620/3/4
f 616/3/4 611/3/4 621/3/4
f 620/2/4 616/2/4 621/2/4
f 621/3/4 611/3/4 622/3/4
f 623/3/4 624/3/4 625/3/4
f 625/3/4 624/3/4 626/3/4
f 627/3/4 628/3/4 629/3/4
f 629/3/4 628/3/4 630/3/4
f 631/3/4 632/3/4 636/3/4
f 636/3/4 632/3/4 637/3/4
f 632/2/4 633/2/4 638/2/4
f 637/3/4 632/3/4 638/3/4
f 633/3/4 634/3/4 639/3/4
f 638/2/4 633/2/4 639/2/4
f 634/2/4 635/2/4 640/2/4
f 639/3/4 634/3/4 640/3/4
f 640/2/4 635/2/4 641/2/4
f 638/3/4 639/3/4 642/3/4
f 640/3/4 641/3/4 642/3/4
f 639/3/4 640/3/4 642/3/4
f 637/3/4 638/3/4 642/3/4
f 642/3/4 641/3/4 643/3/4
f 643/3/4 641/3/4 644/3/4
f 644/3/4 641/3/4 645/3/4
f 643/3/4 644/3/4 648/3/4
f 644/1/4 645/1/4 649/1/4
f 648/3/4 644/3/4 649/3/4
f 649/1/4 645/1/4 650/1/4
f 646/3/4 647/3/4 651/3/4
f 651/3/4 647/3/4 652/3/4
f 649/3/4 650/3/4 653/3/4
f 653/3/4 650/3/4 654/3/4
f 655/3/4 656/3/4 657/3/4
f 657/3/4 656/3/4 658/3/4
f 659/3/4 660/3/4 661/3/4
f 661/3/4 660/3/4 662/3/4
f 662/3/4 663/3/4 664/3/4
f 664/3/4 663/3/4 665/3/4
f 666/3/4 667/3/4 668/3/4
f 668/3/4 667/3/4 669/3/4
f 680/3/5 671/3/5 670/3/5
f 681/3/5 671/3/5 680/3/5
f 682/3/5 673/3/5 672/3/5
f 683/1/5 674/1/5 673/1/5
f 683/3/5 673/3/5 682/3/5
f 684/2/5 675/2/5 674/2/5
f 684/1/5 674/1/5 683/1/5
f 685/3/5 676/3/5 675/3/5
f 685/2/5 675/2/5 684/2/5
f 686/3/5 676/3/5 685/3/5
f 688/3/5 678/3/5 677/3/5
f 689/3/5 681/3/5 680/3/5
f 689/3/5 682/3/5 681/3/5
f 689/3/5 686/3/5 685/3/5
f 689/3/5 685/3/5 684/3/5
f 689/3/5 683/3/5 682/3/5
f 689/3/5 680/3/5 679/3/5
f 689/3/5 684/3/5 683/3/5
f 690/1/5 687/1/5 686/1/5
f 690/3/5 686/3/5 689/3/5
f 691/1/5 687/1/5 690/1/5
f 692/3/5 689/3/5 688/3/5
f 692/3/5 690/3/5 689/3/5
f 692/3/5 691/3/5 690/3/5
f 695/3/5 692/3/5 688/3/5
f 695/2/5 693/2/5 692/2/5
f 696/3/5 694/3/5 693/3/5
f 696/2/5 693/2/5 695/2/5
f 697/3/5 696/3/5 695/3/5
f 697/3/5 694/3/5 696/3/5
f 698/3/5 694/3/5 697/3/5
f 699/3/5 697/3/5 695/3/5
f 701/3/5 695/3/5 688/3/5
f 701/3/5 700/3/5 699/3/5
f 701/3/5 699/3/5 695/3/5
f 701/3/5 688/3/5 677/3/5
f 702/3/5 700/3/5 701/3/5
f 703/3/5 700/3/5 702/3/5
f 704/3/5 700/3/5 703/3/5
f 705/3/5 700/3/5 704/3/5
f 706/3/5 700/3/5 705/3/5
f 707/3/5 703/3/5 702/3/5
f 708/3/5 703/3/5 707/3/5
f 709/3/5 705/3/5 704/3/5
f 710/3/5 705/3/5 709/3/5
f 711/3/5 700/3/5 706/3/5
f 712/3/5 700/3/5 711/3/5
f 715/3/5 711/3/5 710/3/5
f 716/3/5 711/3/5 715/3/5
f 717/3/5 714/3/5 713/3/5
f 718/3/5 714/3/5 717/3/5
f 721/3/5 709/3/5 704/3/5
f 722/3/5 709/3/5 721/3/5
f 723/3/5 709/3/5 722/3/5
f 724/3/5 709/3/5 723/3/5
f 725/3/5 720/3/5 719/3/5
f 726/3/5 720/3/5 725/3/5
f 727/3/5 723/3/5 722/3/5
f 728/3/5 723/3/5 727/3/5
f 729/3/5 723/3/5 728/3/5
f 730/3/5 723/3/5 729/3/5
f 733/3/5 732/3/5 731/3/5
f 734/3/5 732/3/5 733/3/5
f 739/1/5 736/1/5 735/1/5
f 740/1/5 736/1/5 739/1/5
f 741/1/5 738/1/5 737/1/5
f 742/1/5 738/1/5 741/1/5
f 745/1/5 744/1/5 743/1/5
f 746/1/5 744/1/5 745/1/5
f 749/3/5 748/3/5 747/3/5
f 750/3/5 748/3/5 749/3/5
f 753/3/5 752/3/5 751/3/5
f 754/3/5 752/3/5 753/3/5
f 757/3/5 756/3/5 755/3/5
f 758/3/5 756/3/5 757/3/5
f 759/1/6 760/1/6 761/1/6
f 761/1/6 760/1/6 762/1/6
f 763/1/6 764/1/6 765/1/6
f 765/1/6 764/1/6 766/1/6
f 767/3/6 768/3/6 769/3/6
f 769/3/6 768/3/6 770/3/6
f 771/3/6 772/3/6 773/3/6
f 773/3/6 772/3/6 774/3/6
f 771/3/6 773/3/6 779/3/6
f 775/3/6 776/3/6 781/3/6
f 781/3/6 776/3/6 782/3/6
f 777/3/6 778/3/6 783/3/6
f 783/3/6 778/3/6 784/3/6
f 779/3/6 780/3/6 785/3/6
f 771/3/6 779/3/6 785/3/6
f 785/3/6 780/3/6 786/3/6
f 782/3/6 783/3/6 787/3/6
f 787/3/6 783/3/6 788/3/6
f 771/3/6 785/3/6 789/3/6
f 789/3/6 785/3/6 790/3/6
f 786/3/6 780/3/6 791/3/6
f 791/3/6 780/3/6 792/3/6
f 790/3/6 791/3/6 798/3/6
f 798/3/6 791/3/6 799/3/6
f 793/3/6 794/3/6 800/3/6
f 800/3/6 794/3/6 801/3/6
f 796/3/6 797/3/6 806/3/6
f 795/3/6 796/3/6 806/3/6
f 806/3/6 797/3/6 807/3/6
f 802/3/6 803/3/6 808/3/6
f 808/3/6 803/3/6 809/3/6
f 804/3/6 805/3/6 810/3/6
f 810/3/6 805/3/6 811/3/6
f 811/3/6 812/3/6 813/3/6
f 813/3/6 812/3/6 814/3/6
f 815/3/6 816/3/6 819/3/6
f 819/3/6 816/3/6 820/3/6
f 817/3/6 818/3/6 821/3/6
f 821/3/6 818/3/6 822/3/6
f 820/3/6 816/3/6 824/3/6
f 824/3/6 816/3/6 827/3/6
f 823/3/6 824/3/6 827/3/6
f 825/3/6 826/3/6 828/3/6
f 828/3/6 826/3/6 829/3/6
f 823/3/6 827/3/6 830/3/6
f 830/3/6 827/3/6 831/3/6
f 832/3/6 833/3/6 834/3/6
f 834/3/6 833/3/6 835/3/6
f 836/3/6 837/3/6 845/3/6
f 845/3/6 837/3/6 846/3/6
f 838/1/6 839/1/6 847/1/6
f 847/1/6 839/1/6 848/1/6
f 840/3/6 841/3/6 849/3/6
f 849/3/6 841/3/6 850/3/6
f 842/3/6 843/3/6 851/3/6
f 844/3/6 845/3/6 852/3/6
f 852/3/6 845/3/6 853/3/6
f 842/3/6 851/3/6 857/3/6
f 851/3/6 852/3/6 857/3/6
f 857/3/6 852/3/6 858/3/6
f 854/3/6 855/3/6 859/3/6
f 855/1/6 856/1/6 860/1/6
f 859/3/6 855/3/6 860/3/6
f 860/1/6 856/1/6 861/1/6
f 860/3/6 861/3/6 865/3/6
f 861/2/6 862/2/6 866/2/6
f 865/3/6 861/3/6 866/3/6
f 866/2/6 862/2/6 867/2/6
f 863/3/6 864/3/6 869/3/6
f 869/3/6 864/3/6 870/3/6
f 867/3/6 868/3/6 873/3/6
f 866/3/6 867/3/6 873/3/6
f 873/3/6 868/3/6 874/3/6
f 871/3/6 872/3/6 878/3/6
f 878/3/6 872/3/6 879/3/6
f 879/3/6 872/3/6 880/3/6
f 875/1/6 876/1/6 881/1/6
f 881/1/6 876/1/6 882/1/6
f 877/3/6 878/3/6 883/3/6
f 878/3/6 879/3/6 883/3/6
f 883/3/6 879/3/6 884/3/6
f 885/3/6 886/3/6 891/3/6
f 891/3/6 886/3/6 892/3/6
f 887/3/6 888/3/6 893/3/6
f 893/3/6 888/3/6 894/3/6
f 888/1/6 889/1/6 895/1/6
f 894/3/6 888/3/6 895/3/6
f 889/2/6 890/2/6 896/2/6
f 895/1/6 889/1/6 896/1/6
f 896/2/6 890/2/6 897/2/6
f 894/3/6 895/3/6 901/3/6
f 901/3/6 895/3/6 902/3/6
f 897/3/6 898/3/6 903/3/6
f 903/3/6 898/3/6 904/3/6
f 899/1/6 900/1/6 905/1/6
f 905/1/6 900/1/6 906/1/6
f 905/3/6 906/3/6 909/3/6
f 909/3/6 906/3/6 910/3/6
f 907/3/6 908/3/6 915/3/6
f 910/3/6 911/3/6 918/3/6
f 918/3/6 911/3/6 919/3/6
f 912/3/6 913/3/6 920/3/6
f 913/2/6 914/2/6 921/2/6
f 920/3/6 913/3/6 921/3/6
f 921/2/6 914/2/6 922/2/6
f 907/3/6 915/3/6 923/3/6
f 915/3/6 916/3/6 923/3/6
f 923/3/6 916/3/6 924/3/6
f 924/3/6 916/3/6 925/3/6
f 925/3/6 916/3/6 926/3/6
f 917/1/6 918/1/6 927/1/6
f 918/3/6 919/3/6 928/3/6
f 927/1/6 918/1/6 928/1/6
f 928/3/6 919/3/6 929/3/6
f 930/3/6 931/3/6 932/3/6
f 932/3/6 931/3/6 933/3/6
f 934/3/6 935/3/6 938/3/6
f 938/3/6 935/3/6 939/3/6
f 936/3/6 937/3/6 940/3/6
f 940/3/6 937/3/6 941/3/6
f 942/3/6 943/3/6 949/3/6
f 949/3/6 943/3/6 950/3/6
f 943/1/6 944/1/6 951/1/6
f 950/3/6 943/3/6 951/3/6
f 944/2/6 945/2/6 952/2/6
f 946/1/6 947/1/6 953/1/6
f 949/2/6 950/2/6 954/2/6
f 951/1/6 944/1/6 955/1/6
f 944/2/6 952/2/6 956/2/6
f 955/1/6 944/1/6 956/1/6
f 952/3/6 953/3/6 957/3/6
f 956/2/6 952/2/6 957/2/6
f 953/1/6 947/1/6 958/1/6
f 957/3/6 953/3/6 958/3/6
f 949/2/6 954/2/6 959/2/6
f 954/3/6 955/3/6 960/3/6
f 959/2/6 954/2/6 960/2/6
f 955/1/6 956/1/6 961/1/6
f 960/3/6 955/3/6 961/3/6
f 956/1/6 957/1/6 961/1/6
f 957/1/6 958/1/6 961/1/6
f 961/1/6 958/1/6 962/1/6
f 958/1/6 947/1/6 963/1/6
f 962/1/6 958/1/6 963/1/6
f 960/3/6 961/3/6 964/3/6
f 964/3/6 961/3/6 965/3/6
f 962/3/6 963/3/6 967/3/6
f 963/1/6 947/1/6 968/1/6
f 967/3/6 963/3/6 968/3/6
f 947/2/6 948/2/6 969/2/6
f 968/1/6 947/1/6 969/1/6
f 969/2/6 948/2/6 970/2/6
f 966/2/6 967/2/6 972/2/6
f 967/3/6 968/3/6 973/3/6
f 972/2/6 967/2/6 973/2/6
f 973/3/6 968/3/6 974/3/6
f 970/3/6 971/3/6 976/3/6
f 973/1/6 974/1/6 977/1/6
f 972/1/6 973/1/6 977/1/6
f 977/1/6 974/1/6 978/1/6
f 978/1/6 974/1/6 979/1/6
f 975/3/6 976/3/6 980/3/6
f 976/3/6 971/3/6 981/3/6
f 980/3/6 976/3/6 981/3/6
f 977/2/6 978/2/6 982/2/6
f 978/3/6 979/3/6 983/3/6
f 982/2/6 978/2/6 983/2/6
f 981/3/6 971/3/6 984/3/6
f 984/3/6 971/3/6 985/3/6
f 983/3/6 979/3/6 987/3/6
f 987/3/6 979/3/6 988/3/6
f 986/2/6 987/2/6 992/2/6
f 987/3/6 988/3/6 993/3/6
f 992/2/6 987/2/6 993/2/6
f 988/1/6 989/1/6 994/1/6
f 993/3/6 988/3/6 994/3/6
f 990/3/6 991/3/6 995/3/6
f 994/1/6 989/1/6 995/1/6
f 989/3/6 990/3/6 995/3/6
f 995/3/6 991/3/6 996/3/6
f 997/3/6 998/3/6 999/3/6
f 999/3/6 998/3/6 1000/3/6
f 1001/3/6 1002/3/6 1004/3/6
f 1002/2/6 1003/2/6 1004/2/6
f 1004/2/6 1003/2/6 1005/2/6
f 1001/3/6 1004/3/6 1006/3/6
f 1001/3/6 1006/3/6 1008/3/6
f 1006/2/6 1007/2/6 1009/2/6
f 1008/3/6 1006/3/6 1009/3/6
f 1009/2/6 1007/2/6 1010/2/6
