# MagicaVoxel @ Ephtracy

# group
g rubble2

# material
mtllib rubble2.mtl
usemtl palette

# normals
vn -1 0 0
vn 1 0 0
vn 0 0 1
vn 0 0 -1
vn 0 -1 0
vn 0 1 0

# texcoords
vt 0.830078 0.5
vt 0.833984 0.5
vt 0.837891 0.5

# verts
v -15 0 5.5
v -15 0 4.5
v -15 0 -3.5
v -15 1 5.5
v -15 1 4.5
v -15 1 3.5
v -15 1 0.5
v -15 1 -3.5
v -15 2 -0.5
v -15 2 -1.5
v -15 3 4.5
v -15 3 3.5
v -15 3 1.5
v -15 3 0.5
v -15 3 -0.5
v -15 3 -1.5
v -15 3 -2.5
v -15 4 1.5
v -15 4 -0.5
v -15 4 -1.5
v -15 4 -2.5
v -14 0 -3.5
v -14 0 -4.5
v -14 1 -3.5
v -14 1 -4.5
v -13 0 -2.5
v -13 0 -3.5
v -13 1 0.5
v -13 1 -2.5
v -13 1 -3.5
v -13 1 -4.5
v -13 2 0.5
v -13 2 -1.5
v -13 2 -2.5
v -13 2 -4.5
v -13 3 -1.5
v -13 3 -2.5
v -12 2 -2.5
v -12 2 -4.5
v -12 3 -2.5
v -12 3 -4.5
v -11 0 2.5
v -11 0 1.5
v -11 0 -4.5
v -11 0 -5.5
v -11 0 -6.5
v -11 1 2.5
v -11 1 1.5
v -11 1 -4.5
v -11 1 -5.5
v -11 1 -6.5
v -11 2 0.5
v -11 2 -0.5
v -11 2 -4.5
v -11 3 1.5
v -11 3 0.5
v -11 3 -0.5
v -11 3 -1.5
v -11 3 -2.5
v -11 3 -4.5
v -11 3 -5.5
v -11 4 1.5
v -11 4 0.5
v -11 4 -0.5
v -11 4 -2.5
v -10 0 4.5
v -10 0 2.5
v -10 0 -6.5
v -10 0 -7.5
v -10 1 4.5
v -10 1 3.5
v -10 1 2.5
v -10 1 -1.5
v -10 1 -5.5
v -10 1 -6.5
v -10 2 3.5
v -10 2 2.5
v -10 2 0.5
v -10 2 -0.5
v -10 3 3.5
v -10 3 2.5
v -10 3 1.5
v -10 3 0.5
v -10 3 -0.5
v -10 3 -1.5
v -10 3 -2.5
v -10 3 -4.5
v -10 3 -5.5
v -10 3 -6.5
v -10 3 -7.5
v -10 4 4.5
v -10 4 3.5
v -10 4 2.5
v -10 4 1.5
v -10 4 0.5
v -10 4 -0.5
v -10 4 -1.5
v -10 4 -2.5
v -10 4 -4.5
v -10 4 -5.5
v -10 4 -6.5
v -10 5 4.5
v -10 5 3.5
v -10 5 2.5
v -10 5 -1.5
v -9 3 -4.5
v -9 3 -5.5
v -9 3 -6.5
v -9 3 -7.5
v -9 4 3.5
v -9 4 2.5
v -9 4 -1.5
v -9 4 -4.5
v -9 4 -5.5
v -9 4 -6.5
v -9 4 -7.5
v -9 5 3.5
v -9 5 2.5
v -9 5 1.5
v -9 5 0.5
v -9 5 -1.5
v -9 5 -6.5
v -9 6 3.5
v -9 6 1.5
v -9 6 0.5
v -9 6 -1.5
v -8 0 6.5
v -8 0 4.5
v -8 1 6.5
v -8 1 5.5
v -8 1 4.5
v -8 1 3.5
v -8 2 5.5
v -8 2 4.5
v -8 2 3.5
v -8 4 4.5
v -8 4 3.5
v -8 5 1.5
v -8 5 0.5
v -8 6 1.5
v -8 6 0.5
v -7 1 -6.5
v -7 1 -7.5
v -7 2 -6.5
v -7 2 -7.5
v -6 4 -5.5
v -6 4 -6.5
v -6 5 -5.5
v -6 5 -6.5
v -5 0 5.5
v -5 0 4.5
v -5 1 5.5
v -5 1 4.5
v -5 4 -1.5
v -5 4 -2.5
v -5 5 -1.5
v -5 5 -2.5
v -4 0 2.5
v -4 0 1.5
v -4 0 -6.5
v -4 0 -7.5
v -4 1 2.5
v -4 1 1.5
v -4 1 0.5
v -4 2 0.5
v -4 2 -6.5
v -4 2 -7.5
v -4 3 1.5
v -4 3 0.5
v -4 3 -6.5
v -4 3 -7.5
v -4 4 -6.5
v -4 4 -7.5
v -4 5 -1.5
v -4 5 -2.5
v -4 5 -3.5
v -4 5 -4.5
v -4 5 -5.5
v -4 6 -1.5
v -4 6 -2.5
v -4 6 -3.5
v -4 6 -4.5
v -4 6 -5.5
v -3 0 3.5
v -3 0 2.5
v -3 1 3.5
v -3 1 2.5
v -3 4 0.5
v -3 4 -0.5
v -3 5 0.5
v -3 5 -0.5
v -2 0 6.5
v -2 0 3.5
v -2 1 4.5
v -2 1 3.5
v -2 1 1.5
v -2 2 6.5
v -2 2 4.5
v -2 3 3.5
v -2 3 1.5
v -1 1 4.5
v -1 1 3.5
v -1 1 1.5
v -1 1 0.5
v -1 1 -6.5
v -1 1 -7.5
v -1 2 4.5
v -1 2 -6.5
v -1 2 -7.5
v -1 3 4.5
v -1 3 3.5
v -1 3 2.5
v -1 3 1.5
v -1 3 0.5
v -1 4 4.5
v -1 4 3.5
v -1 4 2.5
v -1 5 -2.5
v -1 5 -3.5
v -1 6 -2.5
v -1 6 -3.5
v 0 1 -5.5
v 0 1 -6.5
v 0 2 -5.5
v 0 2 -6.5
v 0 3 -4.5
v 0 3 -5.5
v 0 3 -6.5
v 0 4 -4.5
v 0 4 -5.5
v 1 1 -6.5
v 1 1 -7.5
v 1 3 2.5
v 1 3 0.5
v 1 3 -6.5
v 1 3 -7.5
v 1 4 2.5
v 1 4 1.5
v 1 4 0.5
v 1 5 2.5
v 1 5 1.5
v 2 0 -6.5
v 2 0 -7.5
v 2 1 6.5
v 2 1 5.5
v 2 1 -6.5
v 2 1 -7.5
v 2 2 6.5
v 2 2 5.5
v 2 3 4.5
v 2 3 3.5
v 2 4 4.5
v 2 4 3.5
v 2 4 2.5
v 2 4 1.5
v 2 4 0.5
v 2 4 -0.5
v 2 5 3.5
v 2 5 2.5
v 2 5 1.5
v 2 5 -0.5
v 4 2 6.5
v 4 2 4.5
v 4 3 6.5
v 4 3 4.5
v 4 5 2.5
v 4 5 1.5
v 4 6 2.5
v 4 6 1.5
v 5 3 -3.5
v 5 3 -4.5
v 5 4 -3.5
v 5 4 -4.5
v 6 0 5.5
v 6 0 4.5
v 6 3 5.5
v 6 3 4.5
v 6 3 3.5
v 6 4 4.5
v 6 4 3.5
v 7 0 6.5
v 7 0 5.5
v 7 1 -1.5
v 7 1 -2.5
v 7 2 -1.5
v 7 2 -2.5
v 7 3 6.5
v 7 3 5.5
v 7 3 4.5
v 7 3 1.5
v 7 3 0.5
v 7 4 4.5
v 7 4 3.5
v 7 4 1.5
v 7 4 0.5
v 7 5 5.5
v 7 5 4.5
v 7 5 1.5
v 8 0 -5.5
v 8 0 -6.5
v 8 1 -5.5
v 8 1 -6.5
v 8 3 6.5
v 8 3 5.5
v 8 4 6.5
v 8 4 5.5
v 8 4 1.5
v 8 4 0.5
v 8 5 4.5
v 8 5 3.5
v 8 5 1.5
v 8 5 0.5
v 8 6 4.5
v 8 6 3.5
v 10 0 6.5
v 10 0 5.5
v 10 0 -2.5
v 10 0 -5.5
v 10 1 -1.5
v 10 1 -2.5
v 10 2 6.5
v 10 2 5.5
v 10 2 -4.5
v 10 2 -5.5
v 10 3 6.5
v 10 3 5.5
v 10 3 0.5
v 10 3 -1.5
v 10 3 -2.5
v 10 3 -4.5
v 10 3 -5.5
v 10 4 6.5
v 10 4 5.5
v 10 4 0.5
v 10 4 -1.5
v 10 4 -2.5
v 10 4 -3.5
v 10 4 -4.5
v 10 4 -5.5
v 10 5 0.5
v 10 5 -1.5
v 10 5 -2.5
v 10 5 -3.5
v 10 5 -4.5
v 10 5 -5.5
v 11 0 -5.5
v 11 0 -6.5
v 11 1 -5.5
v 11 1 -6.5
v 11 4 1.5
v 11 4 0.5
v 11 4 -3.5
v 11 4 -4.5
v 11 5 1.5
v 11 5 0.5
v 11 5 -3.5
v 11 5 -4.5
v 12 0 -6.5
v 12 0 -7.5
v 12 1 -5.5
v 12 1 -6.5
v 12 1 -7.5
v 12 2 -5.5
v 12 2 -6.5
v 12 4 5.5
v 12 4 4.5
v 12 5 5.5
v 12 5 4.5
v 12 5 0.5
v 12 5 -1.5
v 12 5 -2.5
v 12 5 -4.5
v 12 6 0.5
v 12 6 -4.5
v 13 1 6.5
v 13 1 5.5
v 13 2 6.5
v 13 2 5.5
v -14 0 5.5
v -14 0 4.5
v -14 0 3.5
v -14 0 -2.5
v -14 0 -3.5
v -14 1 5.5
v -14 1 4.5
v -14 1 3.5
v -14 1 -2.5
v -14 1 -3.5
v -14 2 3.5
v -14 2 -0.5
v -14 2 -1.5
v -14 3 4.5
v -14 3 3.5
v -14 3 1.5
v -14 3 0.5
v -14 3 -0.5
v -14 3 -1.5
v -14 3 -2.5
v -14 4 1.5
v -14 4 -0.5
v -14 4 -1.5
v -14 4 -2.5
v -13 2 3.5
v -13 2 1.5
v -13 3 3.5
v -13 3 1.5
v -12 0 2.5
v -12 0 1.5
v -12 1 3.5
v -12 1 2.5
v -12 1 1.5
v -12 1 -1.5
v -12 2 3.5
v -12 2 1.5
v -12 2 0.5
v -12 2 -1.5
v -12 3 1.5
v -12 3 0.5
v -11 0 3.5
v -11 0 2.5
v -11 1 3.5
v -11 1 2.5
v -8 1 -6.5
v -8 1 -7.5
v -8 2 -6.5
v -8 2 -7.5
v -7 0 6.5
v -7 0 5.5
v -7 1 6.5
v -7 1 5.5
v -7 1 4.5
v -7 2 5.5
v -7 2 4.5
v -7 4 -5.5
v -7 4 -6.5
v -7 5 3.5
v -7 5 1.5
v -7 5 0.5
v -7 5 -1.5
v -7 5 -5.5
v -7 5 -6.5
v -7 6 3.5
v -7 6 -1.5
v -6 0 5.5
v -6 0 4.5
v -6 1 5.5
v -6 1 4.5
v -6 4 3.5
v -6 4 2.5
v -6 4 -1.5
v -6 4 -2.5
v -6 5 3.5
v -6 5 2.5
v -6 5 -1.5
v -6 5 -2.5
v -5 0 3.5
v -5 0 1.5
v -5 0 -6.5
v -5 0 -7.5
v -5 1 4.5
v -5 1 3.5
v -5 1 1.5
v -5 1 0.5
v -5 2 4.5
v -5 2 3.5
v -5 2 0.5
v -5 2 -6.5
v -5 2 -7.5
v -5 3 4.5
v -5 3 3.5
v -5 3 1.5
v -5 3 0.5
v -5 3 -6.5
v -5 3 -7.5
v -5 4 4.5
v -5 4 3.5
v -5 4 2.5
v -5 4 1.5
v -5 4 0.5
v -5 4 -6.5
v -5 4 -7.5
v -5 5 4.5
v -5 5 3.5
v -5 5 2.5
v -5 5 1.5
v -5 5 0.5
v -4 0 4.5
v -4 0 3.5
v -4 1 4.5
v -4 1 3.5
v -4 4 0.5
v -4 4 -0.5
v -4 5 0.5
v -4 5 -0.5
v -3 0 5.5
v -3 0 4.5
v -3 1 5.5
v -3 1 4.5
v -3 3 -6.5
v -3 3 -7.5
v -3 4 -6.5
v -3 4 -7.5
v -3 5 -4.5
v -3 5 -5.5
v -3 6 -4.5
v -3 6 -5.5
v -2 1 1.5
v -2 1 0.5
v -2 1 -6.5
v -2 1 -7.5
v -2 3 1.5
v -2 3 0.5
v -2 3 -5.5
v -2 3 -6.5
v -2 3 -7.5
v -2 4 -4.5
v -2 4 -5.5
v -2 5 -2.5
v -2 5 -3.5
v -2 5 -4.5
v -2 5 -5.5
v -2 5 -6.5
v -2 6 -2.5
v -2 6 -3.5
v -1 1 -5.5
v -1 1 -6.5
v -1 2 -5.5
v -1 2 -6.5
v -1 3 -4.5
v -1 3 -5.5
v -1 3 -6.5
v -1 4 -4.5
v -1 4 -5.5
v 0 1 -6.5
v 0 1 -7.5
v 0 2 -6.5
v 0 2 -7.5
v 1 0 -6.5
v 1 0 -7.5
v 1 1 6.5
v 1 1 5.5
v 1 1 -6.5
v 1 1 -7.5
v 1 2 6.5
v 1 2 5.5
v 1 3 4.5
v 1 3 3.5
v 1 4 4.5
v 1 4 3.5
v 1 4 0.5
v 1 4 -0.5
v 1 4 -3.5
v 1 4 -4.5
v 1 5 0.5
v 1 5 -0.5
v 1 5 -1.5
v 1 5 -2.5
v 1 5 -3.5
v 1 5 -4.5
v 1 6 -1.5
v 1 6 -2.5
v 1 6 -3.5
v 2 2 -6.5
v 2 2 -7.5
v 2 3 -4.5
v 2 3 -5.5
v 2 3 -6.5
v 2 3 -7.5
v 2 4 -4.5
v 2 4 -5.5
v 4 0 -5.5
v 4 0 -6.5
v 4 0 -7.5
v 4 1 -5.5
v 4 1 -6.5
v 4 2 -5.5
v 4 2 -6.5
v 4 2 -7.5
v 4 3 -3.5
v 4 3 -4.5
v 4 3 -5.5
v 4 3 -6.5
v 4 4 -3.5
v 4 4 -4.5
v 5 0 5.5
v 5 0 4.5
v 5 1 -4.5
v 5 1 -5.5
v 5 3 5.5
v 5 3 4.5
v 5 3 3.5
v 5 3 -4.5
v 5 3 -5.5
v 5 4 4.5
v 5 4 3.5
v 5 4 -0.5
v 5 4 -1.5
v 5 5 2.5
v 5 5 1.5
v 5 5 -0.5
v 5 5 -1.5
v 5 6 2.5
v 5 6 1.5
v 6 0 6.5
v 6 0 5.5
v 6 1 -1.5
v 6 1 -2.5
v 6 2 -1.5
v 6 2 -2.5
v 6 3 6.5
v 6 3 5.5
v 6 3 1.5
v 6 3 0.5
v 6 3 -3.5
v 6 3 -4.5
v 6 4 3.5
v 6 4 1.5
v 6 4 0.5
v 6 4 -0.5
v 6 4 -1.5
v 6 4 -2.5
v 6 4 -3.5
v 6 4 -4.5
v 6 5 3.5
v 6 5 1.5
v 6 5 0.5
v 6 5 -0.5
v 6 5 -1.5
v 6 5 -2.5
v 6 5 -3.5
v 7 0 -3.5
v 7 0 -5.5
v 7 1 -2.5
v 7 1 -3.5
v 7 1 -4.5
v 7 1 -5.5
v 7 3 -1.5
v 7 3 -2.5
v 7 3 -3.5
v 7 3 -4.5
v 7 4 -1.5
v 7 4 -2.5
v 7 4 -3.5
v 8 3 0.5
v 8 3 -1.5
v 8 4 0.5
v 8 4 -1.5
v 9 0 6.5
v 9 0 5.5
v 9 0 -2.5
v 9 0 -3.5
v 9 0 -5.5
v 9 0 -6.5
v 9 1 -1.5
v 9 1 -2.5
v 9 1 -3.5
v 9 1 -5.5
v 9 1 -6.5
v 9 2 6.5
v 9 2 5.5
v 9 3 6.5
v 9 3 5.5
v 9 3 -1.5
v 9 3 -2.5
v 9 4 6.5
v 9 4 5.5
v 9 4 1.5
v 9 4 0.5
v 9 5 4.5
v 9 5 3.5
v 9 5 1.5
v 9 5 0.5
v 9 6 4.5
v 9 6 3.5
v 11 4 5.5
v 11 4 4.5
v 11 5 5.5
v 11 5 4.5
v 12 1 6.5
v 12 1 5.5
v 12 2 6.5
v 12 2 5.5
v 13 0 -5.5
v 13 0 -7.5
v 13 1 -4.5
v 13 1 -5.5
v 13 1 -6.5
v 13 1 -7.5
v 13 2 -4.5
v 13 2 -5.5
v 13 2 -6.5
v 13 4 -4.5
v 13 4 -5.5
v 13 5 -1.5
v 13 5 -2.5
v 13 6 -1.5
v 13 6 -2.5
v 14 3 6.5
v 14 3 5.5
v 14 3 4.5
v 14 3 3.5
v 14 4 6.5
v 14 4 5.5
v 14 4 4.5
v 14 4 3.5
v 14 4 0.5
v 14 4 -3.5
v 14 4 -4.5
v 14 5 5.5
v 14 5 0.5
v 14 5 -1.5
v 14 5 -2.5
v 14 5 -3.5
v 14 5 -4.5
v 14 6 0.5
v 14 6 -1.5
v 14 6 -2.5
v 14 6 -4.5
v 15 0 6.5
v 15 0 -5.5
v 15 1 -4.5
v 15 1 -5.5
v 15 2 -3.5
v 15 2 -4.5
v 15 3 6.5
v 15 3 5.5
v 15 3 4.5
v 15 3 3.5
v 15 3 -3.5
v 15 3 -4.5
v 15 4 5.5
v 15 4 4.5
v 15 4 3.5
v 15 4 0.5
v 15 4 -3.5
v 15 4 -4.5
v 15 4 -5.5
v 15 5 0.5
v 15 5 -3.5
v 15 5 -4.5
v 15 5 -5.5
v -8 0 6.5
v -8 1 6.5
v -7 0 6.5
v -7 1 6.5
v -2 0 6.5
v -2 2 6.5
v 1 1 6.5
v 1 2 6.5
v 2 1 6.5
v 2 2 6.5
v 4 2 6.5
v 4 3 6.5
v 6 0 6.5
v 6 3 6.5
v 7 0 6.5
v 7 3 6.5
v 8 3 6.5
v 8 4 6.5
v 9 0 6.5
v 9 2 6.5
v 9 3 6.5
v 9 4 6.5
v 10 0 6.5
v 10 2 6.5
v 10 3 6.5
v 10 4 6.5
v 12 0 6.5
v 12 1 6.5
v 12 2 6.5
v 12 4 6.5
v 13 0 6.5
v 13 1 6.5
v 13 2 6.5
v 13 3 6.5
v 13 4 6.5
v 14 0 6.5
v 14 1 6.5
v 14 3 6.5
v 14 4 6.5
v 15 0 6.5
v 15 3 6.5
v -15 0 5.5
v -15 1 5.5
v -14 0 5.5
v -14 1 5.5
v -8 1 5.5
v -8 2 5.5
v -7 0 5.5
v -7 1 5.5
v -7 2 5.5
v -6 0 5.5
v -6 1 5.5
v -5 0 5.5
v -5 1 5.5
v -3 0 5.5
v -3 1 5.5
v 1 1 5.5
v 1 2 5.5
v 2 1 5.5
v 2 2 5.5
v 6 0 5.5
v 6 3 5.5
v 7 0 5.5
v 7 3 5.5
v 7 5 5.5
v 8 3 5.5
v 8 4 5.5
v 9 0 5.5
v 9 2 5.5
v 9 3 5.5
v 9 4 5.5
v 9 5 5.5
v 10 0 5.5
v 10 2 5.5
v 10 3 5.5
v 10 4 5.5
v 10 5 5.5
v 11 4 5.5
v 11 5 5.5
v 12 1 5.5
v 12 2 5.5
v 12 4 5.5
v 12 5 5.5
v 13 1 5.5
v 13 2 5.5
v 13 4 5.5
v 13 5 5.5
v 14 3 5.5
v 14 4 5.5
v 14 5 5.5
v 15 3 5.5
v 15 4 5.5
v -15 1 4.5
v -15 3 4.5
v -14 1 4.5
v -14 3 4.5
v -10 0 4.5
v -10 1 4.5
v -10 4 4.5
v -10 5 4.5
v -8 0 4.5
v -8 1 4.5
v -8 2 4.5
v -8 4 4.5
v -8 5 4.5
v -7 1 4.5
v -7 2 4.5
v -7 4 4.5
v -7 5 4.5
v -6 0 4.5
v -6 1 4.5
v -6 2 4.5
v -6 3 4.5
v -6 4 4.5
v -6 5 4.5
v -5 0 4.5
v -5 1 4.5
v -5 2 4.5
v -5 3 4.5
v -5 4 4.5
v -5 5 4.5
v -1 2 4.5
v -1 3 4.5
v -1 4 4.5
v 1 3 4.5
v 1 4 4.5
v 2 3 4.5
v 2 4 4.5
v 4 2 4.5
v 4 3 4.5
v 4 4 4.5
v 5 0 4.5
v 5 3 4.5
v 5 4 4.5
v 6 0 4.5
v 6 3 4.5
v 6 4 4.5
v 7 3 4.5
v 7 4 4.5
v 8 5 4.5
v 8 6 4.5
v 9 5 4.5
v 9 6 4.5
v 11 4 4.5
v 11 5 4.5
v 12 4 4.5
v 12 5 4.5
v -14 0 3.5
v -14 1 3.5
v -14 2 3.5
v -14 3 3.5
v -13 0 3.5
v -13 1 3.5
v -13 2 3.5
v -13 3 3.5
v -12 1 3.5
v -12 2 3.5
v -11 0 3.5
v -11 1 3.5
v -10 1 3.5
v -10 2 3.5
v -10 3 3.5
v -10 4 3.5
v -9 1 3.5
v -9 2 3.5
v -9 3 3.5
v -9 5 3.5
v -9 6 3.5
v -8 1 3.5
v -8 2 3.5
v -8 4 3.5
v -8 5 3.5
v -8 6 3.5
v -7 5 3.5
v -7 6 3.5
v -3 0 3.5
v -3 1 3.5
v -2 0 3.5
v -2 1 3.5
v -2 3 3.5
v -1 1 3.5
v -1 3 3.5
v 1 3 3.5
v 1 4 3.5
v 2 3 3.5
v 2 4 3.5
v 2 5 3.5
v 4 4 3.5
v 5 3 3.5
v 5 4 3.5
v 5 5 3.5
v 6 3 3.5
v 6 4 3.5
v 6 5 3.5
v 14 3 3.5
v 14 4 3.5
v 15 3 3.5
v 15 4 3.5
v -11 0 2.5
v -11 1 2.5
v -10 0 2.5
v -10 1 2.5
v -10 4 2.5
v -10 5 2.5
v -9 4 2.5
v -9 5 2.5
v -6 4 2.5
v -6 5 2.5
v -5 4 2.5
v -5 5 2.5
v -4 0 2.5
v -4 1 2.5
v -3 0 2.5
v -3 1 2.5
v 1 4 2.5
v 1 5 2.5
v 2 4 2.5
v 2 5 2.5
v 4 5 2.5
v 4 6 2.5
v 5 5 2.5
v 5 6 2.5
v -15 3 1.5
v -15 4 1.5
v -14 3 1.5
v -14 4 1.5
v -13 2 1.5
v -13 3 1.5
v -12 0 1.5
v -12 1 1.5
v -12 2 1.5
v -12 3 1.5
v -11 0 1.5
v -11 1 1.5
v -11 3 1.5
v -11 4 1.5
v -10 3 1.5
v -10 4 1.5
v -5 0 1.5
v -5 1 1.5
v -4 0 1.5
v -4 1 1.5
v -4 3 1.5
v -2 1 1.5
v -2 3 1.5
v -11 2 0.5
v -11 3 0.5
v -10 2 0.5
v -10 3 0.5
v -9 5 0.5
v -9 6 0.5
v -8 5 0.5
v -8 6 0.5
v -5 1 0.5
v -5 2 0.5
v -5 3 0.5
v -5 4 0.5
v -5 5 0.5
v -4 1 0.5
v -4 2 0.5
v -4 3 0.5
v -4 4 0.5
v -4 5 0.5
v -3 4 0.5
v -3 5 0.5
v -2 1 0.5
v -2 3 0.5
v -2 4 0.5
v -2 5 0.5
v -1 1 0.5
v -1 3 0.5
v -1 4 0.5
v -1 5 0.5
v 1 3 0.5
v 1 4 0.5
v 1 5 0.5
v 6 3 0.5
v 6 4 0.5
v 7 3 0.5
v 7 4 0.5
v 10 4 0.5
v 10 5 0.5
v 11 4 0.5
v 11 5 0.5
v 12 5 0.5
v 12 6 0.5
v 13 5 0.5
v 13 6 0.5
v 14 4 0.5
v 14 5 0.5
v 14 6 0.5
v 15 4 0.5
v 15 5 0.5
v -15 2 -0.5
v -15 3 -0.5
v -14 2 -0.5
v -14 3 -0.5
v -11 3 -0.5
v -11 4 -0.5
v -10 3 -0.5
v -10 4 -0.5
v -4 4 -0.5
v -4 5 -0.5
v -3 4 -0.5
v -3 5 -0.5
v 1 4 -0.5
v 1 5 -0.5
v 2 4 -0.5
v 2 5 -0.5
v -15 3 -1.5
v -15 4 -1.5
v -14 3 -1.5
v -14 4 -1.5
v -13 2 -1.5
v -13 3 -1.5
v -12 1 -1.5
v -12 2 -1.5
v -11 3 -1.5
v -10 1 -1.5
v -10 3 -1.5
v -4 5 -1.5
v -4 6 -1.5
v -2 5 -1.5
v -1 5 -1.5
v 1 5 -1.5
v 1 6 -1.5
v 5 4 -1.5
v 5 5 -1.5
v 6 4 -1.5
v 6 5 -1.5
v -6 4 -2.5
v -6 5 -2.5
v -5 4 -2.5
v -5 5 -2.5
v 6 1 -2.5
v 6 2 -2.5
v 7 1 -2.5
v 7 2 -2.5
v 13 5 -2.5
v 13 6 -2.5
v 14 5 -2.5
v 14 6 -2.5
v -14 0 -3.5
v -14 1 -3.5
v -13 0 -3.5
v -13 1 -3.5
v -4 5 -4.5
v -4 6 -4.5
v -3 5 -4.5
v -3 6 -4.5
v 10 4 -4.5
v 10 5 -4.5
v 11 4 -4.5
v 11 5 -4.5
v 14 4 -4.5
v 14 5 -4.5
v 15 4 -4.5
v 15 5 -4.5
v -10 3 -5.5
v -10 4 -5.5
v -9 3 -5.5
v -9 4 -5.5
v 8 0 -5.5
v 8 1 -5.5
v 9 0 -5.5
v 9 1 -5.5
v -1 1 -6.5
v -1 2 -6.5
v 0 1 -6.5
v 0 2 -6.5
v 5 0 5.5
v 5 3 5.5
v 6 0 5.5
v 6 3 5.5
v -4 0 4.5
v -4 1 4.5
v -3 0 4.5
v -3 1 4.5
v -2 1 4.5
v -2 2 4.5
v -1 1 4.5
v -1 2 4.5
v 14 3 4.5
v 14 4 4.5
v 15 3 4.5
v 15 4 4.5
v -10 4 3.5
v -10 5 3.5
v -9 4 3.5
v -9 5 3.5
v -6 4 3.5
v -6 5 3.5
v -5 0 3.5
v -5 1 3.5
v -5 4 3.5
v -5 5 3.5
v -4 0 3.5
v -4 1 3.5
v 8 5 3.5
v 8 6 3.5
v 9 5 3.5
v 9 6 3.5
v -12 0 2.5
v -12 1 2.5
v -11 0 2.5
v -11 1 2.5
v -1 3 2.5
v -1 4 2.5
v 1 3 2.5
v 1 4 2.5
v -9 5 1.5
v -9 6 1.5
v -8 5 1.5
v -8 6 1.5
v -2 1 1.5
v -2 3 1.5
v -1 1 1.5
v -1 3 1.5
v 1 4 1.5
v 1 5 1.5
v 2 4 1.5
v 2 5 1.5
v 4 5 1.5
v 4 6 1.5
v 5 5 1.5
v 5 6 1.5
v 6 3 1.5
v 6 4 1.5
v 7 3 1.5
v 7 4 1.5
v 7 5 1.5
v 8 4 1.5
v 8 5 1.5
v 9 4 1.5
v 9 5 1.5
v 10 4 1.5
v 11 4 1.5
v 11 5 1.5
v -15 1 0.5
v -15 3 0.5
v -14 3 0.5
v -13 1 0.5
v -13 2 0.5
v -12 2 0.5
v -12 3 0.5
v -11 3 0.5
v -11 4 0.5
v -10 3 0.5
v -10 4 0.5
v 8 3 0.5
v 8 4 0.5
v 8 5 0.5
v 9 4 0.5
v 9 5 0.5
v 10 3 0.5
v 10 4 0.5
v -15 3 -0.5
v -15 4 -0.5
v -14 3 -0.5
v -14 4 -0.5
v -11 2 -0.5
v -11 3 -0.5
v -10 2 -0.5
v -10 3 -0.5
v 5 4 -0.5
v 5 5 -0.5
v 6 4 -0.5
v 6 5 -0.5
v -15 2 -1.5
v -15 3 -1.5
v -14 2 -1.5
v -14 3 -1.5
v -10 4 -1.5
v -10 5 -1.5
v -9 4 -1.5
v -9 5 -1.5
v -9 6 -1.5
v -8 5 -1.5
v -8 6 -1.5
v -7 5 -1.5
v -7 6 -1.5
v -6 4 -1.5
v -6 5 -1.5
v -5 4 -1.5
v -5 5 -1.5
v 6 1 -1.5
v 6 2 -1.5
v 7 1 -1.5
v 7 2 -1.5
v 7 3 -1.5
v 7 4 -1.5
v 8 3 -1.5
v 8 4 -1.5
v 9 1 -1.5
v 9 3 -1.5
v 10 1 -1.5
v 10 3 -1.5
v 13 5 -1.5
v 13 6 -1.5
v 14 5 -1.5
v 14 6 -1.5
v -15 3 -2.5
v -15 4 -2.5
v -14 0 -2.5
v -14 1 -2.5
v -14 3 -2.5
v -14 4 -2.5
v -13 0 -2.5
v -13 1 -2.5
v -13 2 -2.5
v -13 3 -2.5
v -12 2 -2.5
v -12 3 -2.5
v -11 3 -2.5
v -11 4 -2.5
v -10 3 -2.5
v -10 4 -2.5
v -2 5 -2.5
v -2 6 -2.5
v -1 5 -2.5
v -1 6 -2.5
v 7 1 -2.5
v 7 3 -2.5
v 9 0 -2.5
v 9 1 -2.5
v 9 3 -2.5
v 10 0 -2.5
v 10 1 -2.5
v -15 0 -3.5
v -15 1 -3.5
v -14 0 -3.5
v -14 1 -3.5
v -4 5 -3.5
v -4 6 -3.5
v -2 5 -3.5
v -2 6 -3.5
v -1 5 -3.5
v -1 6 -3.5
v 1 4 -3.5
v 1 5 -3.5
v 1 6 -3.5
v 4 3 -3.5
v 4 4 -3.5
v 5 3 -3.5
v 5 4 -3.5
v 6 3 -3.5
v 6 4 -3.5
v 6 5 -3.5
v 7 0 -3.5
v 7 1 -3.5
v 7 3 -3.5
v 7 4 -3.5
v 9 0 -3.5
v 9 1 -3.5
v 10 4 -3.5
v 10 5 -3.5
v 11 4 -3.5
v 11 5 -3.5
v 14 4 -3.5
v 14 5 -3.5
v 15 4 -3.5
v 15 5 -3.5
v -14 0 -4.5
v -14 1 -4.5
v -13 1 -4.5
v -13 2 -4.5
v -12 0 -4.5
v -12 1 -4.5
v -12 2 -4.5
v -12 3 -4.5
v -11 0 -4.5
v -11 1 -4.5
v -11 2 -4.5
v -11 3 -4.5
v -10 3 -4.5
v -10 4 -4.5
v -9 3 -4.5
v -9 4 -4.5
v -2 4 -4.5
v -2 5 -4.5
v -1 3 -4.5
v -1 4 -4.5
v 0 3 -4.5
v 0 4 -4.5
v 1 4 -4.5
v 1 5 -4.5
v 2 3 -4.5
v 2 4 -4.5
v 4 3 -4.5
v 4 4 -4.5
v 5 1 -4.5
v 5 3 -4.5
v 5 4 -4.5
v 6 1 -4.5
v 6 3 -4.5
v 6 4 -4.5
v 7 1 -4.5
v 7 3 -4.5
v 12 5 -4.5
v 12 6 -4.5
v 13 1 -4.5
v 13 2 -4.5
v 13 4 -4.5
v 13 5 -4.5
v 13 6 -4.5
v 14 1 -4.5
v 14 2 -4.5
v 14 3 -4.5
v 14 5 -4.5
v 14 6 -4.5
v 15 1 -4.5
v 15 2 -4.5
v 15 3 -4.5
v 15 4 -4.5
v -11 1 -5.5
v -11 3 -5.5
v -10 1 -5.5
v -10 3 -5.5
v -7 4 -5.5
v -7 5 -5.5
v -6 4 -5.5
v -6 5 -5.5
v -4 5 -5.5
v -4 6 -5.5
v -3 5 -5.5
v -3 6 -5.5
v -2 3 -5.5
v -2 4 -5.5
v -1 1 -5.5
v -1 2 -5.5
v -1 3 -5.5
v -1 4 -5.5
v 0 1 -5.5
v 0 2 -5.5
v 0 3 -5.5
v 0 4 -5.5
v 2 3 -5.5
v 2 4 -5.5
v 4 0 -5.5
v 4 1 -5.5
v 4 2 -5.5
v 4 3 -5.5
v 5 0 -5.5
v 5 1 -5.5
v 5 3 -5.5
v 6 0 -5.5
v 6 1 -5.5
v 7 0 -5.5
v 7 1 -5.5
v 10 0 -5.5
v 10 2 -5.5
v 10 3 -5.5
v 10 4 -5.5
v 10 5 -5.5
v 11 0 -5.5
v 11 1 -5.5
v 11 2 -5.5
v 11 3 -5.5
v 11 4 -5.5
v 11 5 -5.5
v 12 1 -5.5
v 12 2 -5.5
v 12 4 -5.5
v 12 5 -5.5
v 13 0 -5.5
v 13 1 -5.5
v 13 2 -5.5
v 13 4 -5.5
v 13 5 -5.5
v 15 0 -5.5
v 15 1 -5.5
v 15 4 -5.5
v 15 5 -5.5
v -11 0 -6.5
v -11 1 -6.5
v -10 0 -6.5
v -10 1 -6.5
v -10 3 -6.5
v -10 4 -6.5
v -9 3 -6.5
v -9 4 -6.5
v -9 5 -6.5
v -8 1 -6.5
v -8 2 -6.5
v -8 4 -6.5
v -8 5 -6.5
v -7 1 -6.5
v -7 2 -6.5
v -7 4 -6.5
v -7 5 -6.5
v -6 4 -6.5
v -6 5 -6.5
v -5 0 -6.5
v -5 2 -6.5
v -5 3 -6.5
v -5 4 -6.5
v -5 5 -6.5
v -4 0 -6.5
v -4 2 -6.5
v -4 3 -6.5
v -4 4 -6.5
v -4 5 -6.5
v -3 3 -6.5
v -3 4 -6.5
v -2 1 -6.5
v -2 3 -6.5
v -2 5 -6.5
v -1 1 -6.5
v -1 2 -6.5
v -1 3 -6.5
v 0 1 -6.5
v 0 2 -6.5
v 0 3 -6.5
v 1 0 -6.5
v 1 1 -6.5
v 1 3 -6.5
v 2 0 -6.5
v 2 1 -6.5
v 2 2 -6.5
v 2 3 -6.5
v 4 2 -6.5
v 4 3 -6.5
v 8 0 -6.5
v 8 1 -6.5
v 9 0 -6.5
v 9 1 -6.5
v 11 0 -6.5
v 11 1 -6.5
v 12 0 -6.5
v 12 1 -6.5
v 12 2 -6.5
v 13 1 -6.5
v 13 2 -6.5
v -10 0 -7.5
v -10 3 -7.5
v -9 0 -7.5
v -9 1 -7.5
v -9 3 -7.5
v -9 4 -7.5
v -8 0 -7.5
v -8 1 -7.5
v -8 2 -7.5
v -8 3 -7.5
v -8 4 -7.5
v -7 0 -7.5
v -7 1 -7.5
v -7 2 -7.5
v -7 4 -7.5
v -5 0 -7.5
v -5 2 -7.5
v -5 3 -7.5
v -5 4 -7.5
v -4 0 -7.5
v -4 2 -7.5
v -4 3 -7.5
v -4 4 -7.5
v -3 3 -7.5
v -3 4 -7.5
v -2 1 -7.5
v -2 3 -7.5
v -1 1 -7.5
v -1 2 -7.5
v 0 1 -7.5
v 0 2 -7.5
v 1 0 -7.5
v 1 1 -7.5
v 1 3 -7.5
v 2 0 -7.5
v 2 1 -7.5
v 2 2 -7.5
v 2 3 -7.5
v 4 0 -7.5
v 4 2 -7.5
v 12 0 -7.5
v 12 1 -7.5
v 13 0 -7.5
v 13 1 -7.5
v -8 0 6.5
v -7 0 6.5
v -2 0 6.5
v 6 0 6.5
v 7 0 6.5
v 9 0 6.5
v 10 0 6.5
v 12 0 6.5
v 13 0 6.5
v 14 0 6.5
v 15 0 6.5
v -15 0 5.5
v -14 0 5.5
v -7 0 5.5
v -6 0 5.5
v -5 0 5.5
v -3 0 5.5
v 5 0 5.5
v 6 0 5.5
v 7 0 5.5
v 9 0 5.5
v 10 0 5.5
v 12 0 5.5
v 13 0 5.5
v 14 0 5.5
v -15 0 4.5
v -14 0 4.5
v -10 0 4.5
v -8 0 4.5
v -6 0 4.5
v -5 0 4.5
v -4 0 4.5
v -3 0 4.5
v 5 0 4.5
v 6 0 4.5
v -14 0 3.5
v -13 0 3.5
v -11 0 3.5
v -5 0 3.5
v -4 0 3.5
v -3 0 3.5
v -2 0 3.5
v -14 0 2.5
v -13 0 2.5
v -12 0 2.5
v -11 0 2.5
v -10 0 2.5
v -4 0 2.5
v -3 0 2.5
v -12 0 1.5
v -11 0 1.5
v -5 0 1.5
v -4 0 1.5
v 6 0 -1.5
v 7 0 -1.5
v -14 0 -2.5
v -13 0 -2.5
v 6 0 -2.5
v 7 0 -2.5
v 9 0 -2.5
v 10 0 -2.5
v -15 0 -3.5
v -14 0 -3.5
v -13 0 -3.5
v -12 0 -3.5
v -11 0 -3.5
v 6 0 -3.5
v 7 0 -3.5
v 9 0 -3.5
v -14 0 -4.5
v -12 0 -4.5
v -11 0 -4.5
v 5 0 -4.5
v 6 0 -4.5
v -11 0 -5.5
v -10 0 -5.5
v 3 0 -5.5
v 4 0 -5.5
v 5 0 -5.5
v 6 0 -5.5
v 7 0 -5.5
v 8 0 -5.5
v 9 0 -5.5
v 10 0 -5.5
v 11 0 -5.5
v 13 0 -5.5
v 15 0 -5.5
v -11 0 -6.5
v -10 0 -6.5
v -9 0 -6.5
v -8 0 -6.5
v -7 0 -6.5
v -5 0 -6.5
v -4 0 -6.5
v 1 0 -6.5
v 2 0 -6.5
v 3 0 -6.5
v 4 0 -6.5
v 8 0 -6.5
v 9 0 -6.5
v 11 0 -6.5
v 12 0 -6.5
v -10 0 -7.5
v -9 0 -7.5
v -8 0 -7.5
v -7 0 -7.5
v -5 0 -7.5
v -4 0 -7.5
v 1 0 -7.5
v 2 0 -7.5
v 4 0 -7.5
v 12 0 -7.5
v 13 0 -7.5
v 1 1 -6.5
v 2 1 -6.5
v 1 1 -7.5
v 2 1 -7.5
v 9 2 6.5
v 10 2 6.5
v 12 2 6.5
v 13 2 6.5
v 9 2 5.5
v 10 2 5.5
v 12 2 5.5
v 13 2 5.5
v -11 2 0.5
v -10 2 0.5
v -15 2 -0.5
v -14 2 -0.5
v -11 2 -0.5
v -10 2 -0.5
v -15 2 -1.5
v -14 2 -1.5
v 6 2 -1.5
v 7 2 -1.5
v 6 2 -2.5
v 7 2 -2.5
v -8 2 -6.5
v -7 2 -6.5
v -5 2 -6.5
v -4 2 -6.5
v -8 2 -7.5
v -7 2 -7.5
v -5 2 -7.5
v -4 2 -7.5
v -11 3 1.5
v -10 3 1.5
v -15 3 0.5
v -14 3 0.5
v -11 3 0.5
v -10 3 0.5
v -15 3 -0.5
v -14 3 -0.5
v -11 3 -0.5
v -10 3 -0.5
v -15 3 -1.5
v -14 3 -1.5
v -11 3 -1.5
v -10 3 -1.5
v -15 3 -2.5
v -14 3 -2.5
v -10 4 4.5
v -8 4 4.5
v -10 4 3.5
v -8 4 3.5
v 13 4 -4.5
v 15 4 -4.5
v 13 4 -5.5
v 15 4 -5.5
v -8 1 6.5
v -7 1 6.5
v 1 1 6.5
v 2 1 6.5
v 12 1 6.5
v 13 1 6.5
v -15 1 5.5
v -14 1 5.5
v -8 1 5.5
v -7 1 5.5
v -6 1 5.5
v -5 1 5.5
v -3 1 5.5
v 1 1 5.5
v 2 1 5.5
v 12 1 5.5
v 13 1 5.5
v -15 1 4.5
v -14 1 4.5
v -10 1 4.5
v -8 1 4.5
v -7 1 4.5
v -6 1 4.5
v -5 1 4.5
v -4 1 4.5
v -3 1 4.5
v -2 1 4.5
v -1 1 4.5
v -12 1 3.5
v -11 1 3.5
v -10 1 3.5
v -9 1 3.5
v -8 1 3.5
v -5 1 3.5
v -4 1 3.5
v -3 1 3.5
v -2 1 3.5
v -1 1 3.5
v -12 1 2.5
v -11 1 2.5
v -10 1 2.5
v -4 1 2.5
v -3 1 2.5
v -12 1 1.5
v -11 1 1.5
v -5 1 1.5
v -4 1 1.5
v -2 1 1.5
v -1 1 1.5
v -15 1 0.5
v -13 1 0.5
v -5 1 0.5
v -4 1 0.5
v -2 1 0.5
v -1 1 0.5
v -12 1 -1.5
v -10 1 -1.5
v 6 1 -1.5
v 7 1 -1.5
v 9 1 -1.5
v 10 1 -1.5
v -14 1 -2.5
v -13 1 -2.5
v 6 1 -2.5
v 7 1 -2.5
v 9 1 -2.5
v 10 1 -2.5
v -15 1 -3.5
v -14 1 -3.5
v -13 1 -3.5
v 7 1 -3.5
v 9 1 -3.5
v -14 1 -4.5
v -13 1 -4.5
v 5 1 -4.5
v 6 1 -4.5
v 7 1 -4.5
v 13 1 -4.5
v 14 1 -4.5
v 15 1 -4.5
v -11 1 -5.5
v -10 1 -5.5
v -1 1 -5.5
v 0 1 -5.5
v 5 1 -5.5
v 6 1 -5.5
v 7 1 -5.5
v 8 1 -5.5
v 9 1 -5.5
v 11 1 -5.5
v 12 1 -5.5
v 13 1 -5.5
v 15 1 -5.5
v -11 1 -6.5
v -10 1 -6.5
v -8 1 -6.5
v -7 1 -6.5
v -2 1 -6.5
v -1 1 -6.5
v 0 1 -6.5
v 1 1 -6.5
v 8 1 -6.5
v 9 1 -6.5
v 11 1 -6.5
v 12 1 -6.5
v 13 1 -6.5
v -8 1 -7.5
v -7 1 -7.5
v -2 1 -7.5
v -1 1 -7.5
v 0 1 -7.5
v 1 1 -7.5
v 12 1 -7.5
v 13 1 -7.5
v -2 2 6.5
v 1 2 6.5
v 2 2 6.5
v 4 2 6.5
v -8 2 5.5
v -7 2 5.5
v 1 2 5.5
v 2 2 5.5
v -8 2 4.5
v -7 2 4.5
v -2 2 4.5
v -1 2 4.5
v 4 2 4.5
v -13 2 3.5
v -12 2 3.5
v -13 2 1.5
v -12 2 1.5
v -13 2 0.5
v -12 2 0.5
v -13 2 -1.5
v -12 2 -1.5
v -13 2 -2.5
v -12 2 -2.5
v -13 2 -4.5
v -12 2 -4.5
v 12 2 -5.5
v 13 2 -5.5
v -1 2 -6.5
v 0 2 -6.5
v 2 2 -6.5
v 4 2 -6.5
v 12 2 -6.5
v 13 2 -6.5
v -1 2 -7.5
v 0 2 -7.5
v 2 2 -7.5
v 4 2 -7.5
v 4 3 6.5
v 6 3 6.5
v 7 3 6.5
v 8 3 6.5
v 9 3 6.5
v 10 3 6.5
v 14 3 6.5
v 15 3 6.5
v 5 3 5.5
v 6 3 5.5
v 7 3 5.5
v 8 3 5.5
v 9 3 5.5
v 10 3 5.5
v 14 3 5.5
v 15 3 5.5
v -15 3 4.5
v -14 3 4.5
v 1 3 4.5
v 2 3 4.5
v 4 3 4.5
v 5 3 4.5
v 6 3 4.5
v 7 3 4.5
v 14 3 4.5
v 15 3 4.5
v -15 3 3.5
v -14 3 3.5
v -13 3 3.5
v -2 3 3.5
v -1 3 3.5
v 1 3 3.5
v 2 3 3.5
v 5 3 3.5
v 6 3 3.5
v 14 3 3.5
v 15 3 3.5
v -1 3 2.5
v 1 3 2.5
v -15 3 1.5
v -14 3 1.5
v -13 3 1.5
v -12 3 1.5
v -4 3 1.5
v -2 3 1.5
v -1 3 1.5
v 6 3 1.5
v 7 3 1.5
v -14 3 0.5
v -12 3 0.5
v -11 3 0.5
v -10 3 0.5
v -4 3 0.5
v -2 3 0.5
v -1 3 0.5
v 1 3 0.5
v 6 3 0.5
v 7 3 0.5
v 8 3 0.5
v 10 3 0.5
v -15 3 -0.5
v -14 3 -0.5
v -11 3 -0.5
v -10 3 -0.5
v -15 3 -1.5
v -14 3 -1.5
v -13 3 -1.5
v -11 3 -1.5
v 7 3 -1.5
v 8 3 -1.5
v 9 3 -1.5
v 10 3 -1.5
v -13 3 -2.5
v -12 3 -2.5
v -11 3 -2.5
v -10 3 -2.5
v 7 3 -2.5
v 9 3 -2.5
v 4 3 -3.5
v 5 3 -3.5
v 6 3 -3.5
v 7 3 -3.5
v -12 3 -4.5
v -11 3 -4.5
v -10 3 -4.5
v -9 3 -4.5
v -1 3 -4.5
v 0 3 -4.5
v 2 3 -4.5
v 4 3 -4.5
v 5 3 -4.5
v 6 3 -4.5
v 7 3 -4.5
v -11 3 -5.5
v -10 3 -5.5
v -9 3 -5.5
v -2 3 -5.5
v -1 3 -5.5
v 0 3 -5.5
v 2 3 -5.5
v 4 3 -5.5
v 5 3 -5.5
v -10 3 -6.5
v -9 3 -6.5
v -5 3 -6.5
v -4 3 -6.5
v -3 3 -6.5
v -2 3 -6.5
v -1 3 -6.5
v 0 3 -6.5
v 1 3 -6.5
v 2 3 -6.5
v 4 3 -6.5
v -10 3 -7.5
v -9 3 -7.5
v -5 3 -7.5
v -4 3 -7.5
v -3 3 -7.5
v -2 3 -7.5
v 1 3 -7.5
v 2 3 -7.5
v 8 4 6.5
v 9 4 6.5
v 10 4 6.5
v 12 4 6.5
v 13 4 6.5
v 14 4 6.5
v 8 4 5.5
v 9 4 5.5
v 10 4 5.5
v 11 4 5.5
v 12 4 5.5
v 13 4 5.5
v 14 4 5.5
v 15 4 5.5
v -1 4 4.5
v 1 4 4.5
v 2 4 4.5
v 4 4 4.5
v 5 4 4.5
v 6 4 4.5
v 7 4 4.5
v 11 4 4.5
v 12 4 4.5
v 14 4 4.5
v 15 4 4.5
v -10 4 3.5
v -9 4 3.5
v -6 4 3.5
v -5 4 3.5
v -1 4 3.5
v 1 4 3.5
v 2 4 3.5
v 4 4 3.5
v 5 4 3.5
v 6 4 3.5
v 7 4 3.5
v 14 4 3.5
v 15 4 3.5
v -10 4 2.5
v -9 4 2.5
v -6 4 2.5
v -5 4 2.5
v -1 4 2.5
v 1 4 2.5
v 2 4 2.5
v -15 4 1.5
v -14 4 1.5
v -11 4 1.5
v -10 4 1.5
v 1 4 1.5
v 2 4 1.5
v 6 4 1.5
v 7 4 1.5
v 8 4 1.5
v 9 4 1.5
v 10 4 1.5
v 11 4 1.5
v -11 4 0.5
v -10 4 0.5
v -4 4 0.5
v -3 4 0.5
v 1 4 0.5
v 2 4 0.5
v 6 4 0.5
v 7 4 0.5
v 8 4 0.5
v 9 4 0.5
v 10 4 0.5
v 11 4 0.5
v 14 4 0.5
v 15 4 0.5
v -15 4 -0.5
v -14 4 -0.5
v -11 4 -0.5
v -10 4 -0.5
v -4 4 -0.5
v -3 4 -0.5
v 1 4 -0.5
v 2 4 -0.5
v 5 4 -0.5
v 6 4 -0.5
v -15 4 -1.5
v -14 4 -1.5
v -10 4 -1.5
v -9 4 -1.5
v -6 4 -1.5
v -5 4 -1.5
v 5 4 -1.5
v 6 4 -1.5
v 7 4 -1.5
v 8 4 -1.5
v -15 4 -2.5
v -14 4 -2.5
v -11 4 -2.5
v -10 4 -2.5
v -6 4 -2.5
v -5 4 -2.5
v 6 4 -2.5
v 7 4 -2.5
v 1 4 -3.5
v 4 4 -3.5
v 5 4 -3.5
v 6 4 -3.5
v 7 4 -3.5
v 10 4 -3.5
v 11 4 -3.5
v 14 4 -3.5
v 15 4 -3.5
v -10 4 -4.5
v -9 4 -4.5
v -2 4 -4.5
v -1 4 -4.5
v 0 4 -4.5
v 1 4 -4.5
v 2 4 -4.5
v 4 4 -4.5
v 5 4 -4.5
v 6 4 -4.5
v 10 4 -4.5
v 11 4 -4.5
v 14 4 -4.5
v 15 4 -4.5
v -10 4 -5.5
v -9 4 -5.5
v -7 4 -5.5
v -6 4 -5.5
v -2 4 -5.5
v -1 4 -5.5
v 0 4 -5.5
v 2 4 -5.5
v -10 4 -6.5
v -9 4 -6.5
v -8 4 -6.5
v -7 4 -6.5
v -6 4 -6.5
v -5 4 -6.5
v -4 4 -6.5
v -3 4 -6.5
v -9 4 -7.5
v -8 4 -7.5
v -7 4 -7.5
v -5 4 -7.5
v -4 4 -7.5
v -3 4 -7.5
v 7 5 5.5
v 9 5 5.5
v 10 5 5.5
v 11 5 5.5
v 12 5 5.5
v 13 5 5.5
v 14 5 5.5
v -10 5 4.5
v -8 5 4.5
v -7 5 4.5
v -6 5 4.5
v -5 5 4.5
v 7 5 4.5
v 8 5 4.5
v 9 5 4.5
v 11 5 4.5
v 12 5 4.5
v -10 5 3.5
v -9 5 3.5
v -8 5 3.5
v -7 5 3.5
v -6 5 3.5
v -5 5 3.5
v 2 5 3.5
v 5 5 3.5
v 6 5 3.5
v 8 5 3.5
v 9 5 3.5
v -10 5 2.5
v -9 5 2.5
v -6 5 2.5
v -5 5 2.5
v 1 5 2.5
v 2 5 2.5
v 4 5 2.5
v 5 5 2.5
v 10 5 2.5
v 11 5 2.5
v 12 5 2.5
v -9 5 1.5
v -8 5 1.5
v -7 5 1.5
v -6 5 1.5
v -5 5 1.5
v 1 5 1.5
v 2 5 1.5
v 4 5 1.5
v 5 5 1.5
v 6 5 1.5
v 7 5 1.5
v 8 5 1.5
v 9 5 1.5
v 11 5 1.5
v 12 5 1.5
v -9 5 0.5
v -8 5 0.5
v -7 5 0.5
v -6 5 0.5
v -5 5 0.5
v -4 5 0.5
v -3 5 0.5
v -2 5 0.5
v -1 5 0.5
v 1 5 0.5
v 3 5 0.5
v 6 5 0.5
v 8 5 0.5
v 9 5 0.5
v 10 5 0.5
v 11 5 0.5
v 12 5 0.5
v 13 5 0.5
v 14 5 0.5
v 15 5 0.5
v -5 5 -0.5
v -4 5 -0.5
v -3 5 -0.5
v -2 5 -0.5
v -1 5 -0.5
v 1 5 -0.5
v 2 5 -0.5
v 3 5 -0.5
v 5 5 -0.5
v 6 5 -0.5
v -10 5 -1.5
v -9 5 -1.5
v -8 5 -1.5
v -7 5 -1.5
v -6 5 -1.5
v -5 5 -1.5
v -4 5 -1.5
v -2 5 -1.5
v -1 5 -1.5
v 1 5 -1.5
v 2 5 -1.5
v 3 5 -1.5
v 5 5 -1.5
v 6 5 -1.5
v 10 5 -1.5
v 11 5 -1.5
v 12 5 -1.5
v 13 5 -1.5
v 14 5 -1.5
v -7 5 -2.5
v -6 5 -2.5
v -5 5 -2.5
v -4 5 -2.5
v -2 5 -2.5
v -1 5 -2.5
v 1 5 -2.5
v 6 5 -2.5
v 10 5 -2.5
v 11 5 -2.5
v 12 5 -2.5
v 13 5 -2.5
v 14 5 -2.5
v -7 5 -3.5
v -6 5 -3.5
v -5 5 -3.5
v -4 5 -3.5
v -2 5 -3.5
v -1 5 -3.5
v 1 5 -3.5
v 6 5 -3.5
v 10 5 -3.5
v 11 5 -3.5
v 14 5 -3.5
v 15 5 -3.5
v -5 5 -4.5
v -4 5 -4.5
v -3 5 -4.5
v -2 5 -4.5
v 1 5 -4.5
v 10 5 -4.5
v 11 5 -4.5
v 12 5 -4.5
v 13 5 -4.5
v 14 5 -4.5
v 15 5 -4.5
v -7 5 -5.5
v -6 5 -5.5
v -4 5 -5.5
v -3 5 -5.5
v -2 5 -5.5
v 10 5 -5.5
v 11 5 -5.5
v 12 5 -5.5
v 13 5 -5.5
v 15 5 -5.5
v -9 5 -6.5
v -8 5 -6.5
v -7 5 -6.5
v -6 5 -6.5
v -5 5 -6.5
v -4 5 -6.5
v -2 5 -6.5
v 8 6 4.5
v 9 6 4.5
v -9 6 3.5
v -8 6 3.5
v -7 6 3.5
v 8 6 3.5
v 9 6 3.5
v 4 6 2.5
v 5 6 2.5
v -9 6 1.5
v -8 6 1.5
v 4 6 1.5
v 5 6 1.5
v -9 6 0.5
v -8 6 0.5
v 12 6 0.5
v 13 6 0.5
v 14 6 0.5
v -9 6 -1.5
v -8 6 -1.5
v -7 6 -1.5
v -4 6 -1.5
v 1 6 -1.5
v 13 6 -1.5
v 14 6 -1.5
v -4 6 -2.5
v -2 6 -2.5
v -1 6 -2.5
v 1 6 -2.5
v 13 6 -2.5
v 14 6 -2.5
v -4 6 -3.5
v -2 6 -3.5
v -1 6 -3.5
v 1 6 -3.5
v -4 6 -4.5
v -3 6 -4.5
v 12 6 -4.5
v 13 6 -4.5
v 14 6 -4.5
v -4 6 -5.5
v -3 6 -5.5

# faces
f 4/1/1 2/1/1 1/1/1
f 5/3/1 3/3/1 2/3/1
f 5/1/1 2/1/1 4/1/1
f 6/3/1 3/3/1 5/3/1
f 7/3/1 3/3/1 6/3/1
f 8/3/1 3/3/1 7/3/1
f 11/1/1 6/1/1 5/1/1
f 12/3/1 7/3/1 6/3/1
f 12/1/1 6/1/1 11/1/1
f 13/3/1 7/3/1 12/3/1
f 14/3/1 7/3/1 13/3/1
f 15/1/1 10/1/1 9/1/1
f 16/1/1 10/1/1 15/1/1
f 18/3/1 14/3/1 13/3/1
f 18/3/1 15/3/1 14/3/1
f 19/3/1 15/3/1 18/3/1
f 20/3/1 17/3/1 16/3/1
f 21/3/1 17/3/1 20/3/1
f 24/3/1 23/3/1 22/3/1
f 25/3/1 23/3/1 24/3/1
f 29/3/1 27/3/1 26/3/1
f 30/3/1 27/3/1 29/3/1
f 32/3/1 29/3/1 28/3/1
f 32/3/1 31/3/1 30/3/1
f 32/3/1 30/3/1 29/3/1
f 33/3/1 31/3/1 32/3/1
f 34/3/1 31/3/1 33/3/1
f 35/3/1 31/3/1 34/3/1
f 36/3/1 34/3/1 33/3/1
f 37/3/1 34/3/1 36/3/1
f 40/2/1 39/2/1 38/2/1
f 41/2/1 39/2/1 40/2/1
f 47/3/1 43/3/1 42/3/1
f 48/3/1 43/3/1 47/3/1
f 49/3/1 45/3/1 44/3/1
f 50/1/1 46/1/1 45/1/1
f 50/3/1 45/3/1 49/3/1
f 51/1/1 46/1/1 50/1/1
f 54/1/1 50/1/1 49/1/1
f 56/1/1 53/1/1 52/1/1
f 57/1/1 53/1/1 56/1/1
f 60/1/1 50/1/1 54/1/1
f 61/1/1 50/1/1 60/1/1
f 62/3/1 56/3/1 55/3/1
f 63/3/1 56/3/1 62/3/1
f 64/3/1 59/3/1 58/3/1
f 64/3/1 58/3/1 57/3/1
f 65/3/1 59/3/1 64/3/1
f 70/3/1 67/3/1 66/3/1
f 71/3/1 67/3/1 70/3/1
f 72/3/1 67/3/1 71/3/1
f 75/3/1 69/3/1 68/3/1
f 76/3/1 73/3/1 72/3/1
f 76/3/1 72/3/1 71/3/1
f 77/3/1 73/3/1 76/3/1
f 78/3/1 73/3/1 77/3/1
f 79/3/1 73/3/1 78/3/1
f 80/2/1 77/2/1 76/2/1
f 81/3/1 78/3/1 77/3/1
f 81/2/1 77/2/1 80/2/1
f 82/3/1 78/3/1 81/3/1
f 83/3/1 78/3/1 82/3/1
f 84/3/1 73/3/1 79/3/1
f 85/3/1 73/3/1 84/3/1
f 88/3/1 75/3/1 74/3/1
f 89/3/1 69/3/1 75/3/1
f 89/3/1 75/3/1 88/3/1
f 90/3/1 69/3/1 89/3/1
f 92/3/1 81/3/1 80/3/1
f 92/3/1 82/3/1 81/3/1
f 93/3/1 82/3/1 92/3/1
f 94/3/1 82/3/1 93/3/1
f 95/3/1 84/3/1 83/3/1
f 96/3/1 84/3/1 95/3/1
f 98/3/1 87/3/1 86/3/1
f 99/3/1 87/3/1 98/3/1
f 100/3/1 89/3/1 88/3/1
f 101/3/1 89/3/1 100/3/1
f 102/3/1 92/3/1 91/3/1
f 103/3/1 92/3/1 102/3/1
f 104/3/1 97/3/1 96/3/1
f 104/3/1 94/3/1 93/3/1
f 104/3/1 95/3/1 94/3/1
f 104/3/1 96/3/1 95/3/1
f 105/3/1 97/3/1 104/3/1
f 113/3/1 107/3/1 106/3/1
f 114/3/1 107/3/1 113/3/1
f 115/2/1 109/2/1 108/2/1
f 116/2/1 109/2/1 115/2/1
f 117/3/1 111/3/1 110/3/1
f 118/3/1 111/3/1 117/3/1
f 121/2/1 114/2/1 113/2/1
f 121/2/1 113/2/1 112/2/1
f 121/2/1 115/2/1 114/2/1
f 122/2/1 115/2/1 121/2/1
f 123/2/1 119/2/1 118/2/1
f 123/2/1 118/2/1 117/2/1
f 124/2/1 119/2/1 123/2/1
f 125/2/1 121/2/1 120/2/1
f 126/2/1 121/2/1 125/2/1
f 129/3/1 128/3/1 127/3/1
f 130/3/1 128/3/1 129/3/1
f 131/3/1 128/3/1 130/3/1
f 133/3/1 132/3/1 131/3/1
f 133/3/1 131/3/1 130/3/1
f 134/3/1 132/3/1 133/3/1
f 135/3/1 132/3/1 134/3/1
f 136/3/1 135/3/1 134/3/1
f 137/3/1 135/3/1 136/3/1
f 140/3/1 139/3/1 138/3/1
f 141/3/1 139/3/1 140/3/1
f 144/3/1 143/3/1 142/3/1
f 145/3/1 143/3/1 144/3/1
f 148/2/1 147/2/1 146/2/1
f 149/2/1 147/2/1 148/2/1
f 152/3/1 151/3/1 150/3/1
f 153/3/1 151/3/1 152/3/1
f 156/1/1 155/1/1 154/1/1
f 157/1/1 155/1/1 156/1/1
f 162/3/1 159/3/1 158/3/1
f 163/3/1 159/3/1 162/3/1
f 165/3/1 164/3/1 163/3/1
f 166/3/1 161/3/1 160/3/1
f 167/3/1 161/3/1 166/3/1
f 168/3/1 165/3/1 163/3/1
f 169/3/1 165/3/1 168/3/1
f 172/3/1 171/3/1 170/3/1
f 173/3/1 171/3/1 172/3/1
f 179/3/1 175/3/1 174/3/1
f 180/2/1 176/2/1 175/2/1
f 180/3/1 175/3/1 179/3/1
f 181/2/1 176/2/1 180/2/1
f 182/3/1 178/3/1 177/3/1
f 183/3/1 178/3/1 182/3/1
f 186/3/1 185/3/1 184/3/1
f 187/3/1 185/3/1 186/3/1
f 190/2/1 189/2/1 188/2/1
f 191/2/1 189/2/1 190/2/1
f 194/3/1 193/3/1 192/3/1
f 195/3/1 193/3/1 194/3/1
f 197/3/1 194/3/1 192/3/1
f 198/3/1 194/3/1 197/3/1
f 199/3/1 196/3/1 195/3/1
f 200/3/1 196/3/1 199/3/1
f 207/3/1 202/3/1 201/3/1
f 208/3/1 206/3/1 205/3/1
f 209/3/1 206/3/1 208/3/1
f 210/3/1 202/3/1 207/3/1
f 211/3/1 202/3/1 210/3/1
f 213/3/1 204/3/1 203/3/1
f 214/3/1 204/3/1 213/3/1
f 215/1/1 211/1/1 210/1/1
f 216/3/1 212/3/1 211/3/1
f 216/1/1 211/1/1 215/1/1
f 217/3/1 212/3/1 216/3/1
f 220/2/1 219/2/1 218/2/1
f 221/2/1 219/2/1 220/2/1
f 224/3/1 223/3/1 222/3/1
f 225/3/1 223/3/1 224/3/1
f 227/3/1 225/3/1 224/3/1
f 228/3/1 225/3/1 227/3/1
f 229/3/1 227/3/1 226/3/1
f 230/3/1 227/3/1 229/3/1
f 235/3/1 232/3/1 231/3/1
f 236/3/1 232/3/1 235/3/1
f 237/3/1 234/3/1 233/3/1
f 238/3/1 234/3/1 237/3/1
f 239/3/1 234/3/1 238/3/1
f 240/3/1 238/3/1 237/3/1
f 241/3/1 238/3/1 240/3/1
f 246/3/1 243/3/1 242/3/1
f 247/3/1 243/3/1 246/3/1
f 248/3/1 245/3/1 244/3/1
f 249/3/1 245/3/1 248/3/1
f 252/3/1 251/3/1 250/3/1
f 253/3/1 251/3/1 252/3/1
f 258/2/1 254/2/1 253/2/1
f 259/2/1 254/2/1 258/2/1
f 260/1/1 257/1/1 256/1/1
f 260/1/1 256/1/1 255/1/1
f 261/1/1 257/1/1 260/1/1
f 264/3/1 263/3/1 262/3/1
f 265/3/1 263/3/1 264/3/1
f 268/3/1 267/3/1 266/3/1
f 269/3/1 267/3/1 268/3/1
f 272/3/1 271/3/1 270/3/1
f 273/3/1 271/3/1 272/3/1
f 276/3/1 275/3/1 274/3/1
f 277/3/1 275/3/1 276/3/1
f 279/1/1 278/1/1 277/1/1
f 280/1/1 278/1/1 279/1/1
f 285/3/1 284/3/1 283/3/1
f 286/3/1 284/3/1 285/3/1
f 287/3/1 282/3/1 281/3/1
f 288/3/1 282/3/1 287/3/1
f 292/3/1 289/3/1 288/3/1
f 294/3/1 291/3/1 290/3/1
f 295/3/1 291/3/1 294/3/1
f 296/3/1 292/3/1 288/3/1
f 297/2/1 293/2/1 292/2/1
f 297/3/1 292/3/1 296/3/1
f 297/2/1 294/2/1 293/2/1
f 298/2/1 294/2/1 297/2/1
f 301/3/1 300/3/1 299/3/1
f 302/3/1 300/3/1 301/3/1
f 305/3/1 304/3/1 303/3/1
f 306/3/1 304/3/1 305/3/1
f 311/3/1 308/3/1 307/3/1
f 312/3/1 308/3/1 311/3/1
f 313/3/1 310/3/1 309/3/1
f 314/3/1 310/3/1 313/3/1
f 320/3/1 318/3/1 317/3/1
f 321/3/1 316/3/1 315/3/1
f 322/3/1 316/3/1 321/3/1
f 323/3/1 320/3/1 319/3/1
f 323/3/1 318/3/1 320/3/1
f 324/3/1 318/3/1 323/3/1
f 328/3/1 323/3/1 319/3/1
f 329/3/1 323/3/1 328/3/1
f 330/2/1 324/2/1 323/2/1
f 330/3/1 323/3/1 329/3/1
f 331/2/1 324/2/1 330/2/1
f 332/3/1 326/3/1 325/3/1
f 333/3/1 326/3/1 332/3/1
f 334/3/1 328/3/1 327/3/1
f 335/1/1 329/1/1 328/1/1
f 335/3/1 328/3/1 334/3/1
f 336/3/1 330/3/1 329/3/1
f 336/1/1 329/1/1 335/1/1
f 336/3/1 331/3/1 330/3/1
f 337/3/1 331/3/1 336/3/1
f 338/3/1 331/3/1 337/3/1
f 339/3/1 331/3/1 338/3/1
f 340/2/1 335/2/1 334/2/1
f 341/1/1 336/1/1 335/1/1
f 341/2/1 335/2/1 340/2/1
f 342/2/1 337/2/1 336/2/1
f 342/1/1 336/1/1 341/1/1
f 343/2/1 337/2/1 342/2/1
f 344/2/1 339/2/1 338/2/1
f 345/2/1 339/2/1 344/2/1
f 348/3/1 347/3/1 346/3/1
f 349/3/1 347/3/1 348/3/1
f 354/3/1 351/3/1 350/3/1
f 355/3/1 351/3/1 354/3/1
f 356/3/1 353/3/1 352/3/1
f 357/3/1 353/3/1 356/3/1
f 361/3/1 359/3/1 358/3/1
f 362/3/1 359/3/1 361/3/1
f 363/3/1 361/3/1 360/3/1
f 364/3/1 361/3/1 363/3/1
f 367/1/1 366/1/1 365/1/1
f 368/1/1 366/1/1 367/1/1
f 373/3/1 372/3/1 371/3/1
f 373/3/1 371/3/1 370/3/1
f 373/3/1 370/3/1 369/3/1
f 374/3/1 372/3/1 373/3/1
f 377/3/1 376/3/1 375/3/1
f 378/3/1 376/3/1 377/3/1
f 379/1/2 380/1/2 384/1/2
f 380/3/2 381/3/2 385/3/2
f 384/1/2 380/1/2 385/1/2
f 385/3/2 381/3/2 386/3/2
f 382/3/2 383/3/2 387/3/2
f 387/3/2 383/3/2 388/3/2
f 385/1/2 386/1/2 389/1/2
f 385/1/2 389/1/2 392/1/2
f 392/1/2 389/1/2 393/1/2
f 390/1/2 391/1/2 396/1/2
f 396/1/2 391/1/2 397/1/2
f 394/3/2 395/3/2 399/3/2
f 395/3/2 396/3/2 399/3/2
f 399/3/2 396/3/2 400/3/2
f 397/3/2 398/3/2 401/3/2
f 401/3/2 398/3/2 402/3/2
f 403/2/2 404/2/2 405/2/2
f 405/2/2 404/2/2 406/2/2
f 407/3/2 408/3/2 410/3/2
f 410/3/2 408/3/2 411/3/2
f 409/3/2 410/3/2 413/3/2
f 411/3/2 412/3/2 413/3/2
f 410/3/2 411/3/2 413/3/2
f 413/3/2 412/3/2 414/3/2
f 414/3/2 412/3/2 415/3/2
f 415/3/2 412/3/2 416/3/2
f 414/3/2 415/3/2 417/3/2
f 417/3/2 415/3/2 418/3/2
f 419/3/2 420/3/2 421/3/2
f 421/3/2 420/3/2 422/3/2
f 423/3/2 424/3/2 425/3/2
f 425/3/2 424/3/2 426/3/2
f 427/3/2 428/3/2 429/3/2
f 429/3/2 428/3/2 430/3/2
f 430/3/2 431/3/2 432/3/2
f 432/3/2 431/3/2 433/3/2
f 434/1/2 435/1/2 440/1/2
f 440/1/2 435/1/2 441/1/2
f 438/3/2 439/3/2 442/3/2
f 436/3/2 437/3/2 442/3/2
f 437/3/2 438/3/2 442/3/2
f 442/3/2 439/3/2 443/3/2
f 444/3/2 445/3/2 446/3/2
f 446/3/2 445/3/2 447/3/2
f 448/3/2 449/3/2 452/3/2
f 452/3/2 449/3/2 453/3/2
f 450/3/2 451/3/2 454/3/2
f 454/3/2 451/3/2 455/3/2
f 456/3/2 457/3/2 461/3/2
f 461/3/2 457/3/2 462/3/2
f 460/3/2 461/3/2 464/3/2
f 462/3/2 463/3/2 464/3/2
f 461/3/2 462/3/2 464/3/2
f 464/3/2 463/3/2 465/3/2
f 465/3/2 463/3/2 466/3/2
f 458/3/2 459/3/2 467/3/2
f 467/3/2 459/3/2 468/3/2
f 464/2/2 465/2/2 469/2/2
f 465/3/2 466/3/2 470/3/2
f 469/2/2 465/2/2 470/2/2
f 470/3/2 466/3/2 471/3/2
f 471/3/2 466/3/2 472/3/2
f 469/3/2 470/3/2 475/3/2
f 470/3/2 471/3/2 475/3/2
f 475/3/2 471/3/2 476/3/2
f 476/3/2 471/3/2 477/3/2
f 471/1/2 472/1/2 478/1/2
f 477/3/2 471/3/2 478/3/2
f 478/1/2 472/1/2 479/1/2
f 473/3/2 474/3/2 480/3/2
f 480/3/2 474/3/2 481/3/2
f 475/2/2 476/2/2 482/2/2
f 482/2/2 476/2/2 483/2/2
f 477/2/2 478/2/2 484/2/2
f 478/1/2 479/1/2 485/1/2
f 484/2/2 478/2/2 485/2/2
f 485/1/2 479/1/2 486/1/2
f 487/3/2 488/3/2 489/3/2
f 489/3/2 488/3/2 490/3/2
f 491/2/2 492/2/2 493/2/2
f 493/2/2 492/2/2 494/2/2
f 495/3/2 496/3/2 497/3/2
f 497/3/2 496/3/2 498/3/2
f 499/3/2 500/3/2 501/3/2
f 501/3/2 500/3/2 502/3/2
f 503/3/2 504/3/2 505/3/2
f 505/3/2 504/3/2 506/3/2
f 507/3/2 508/3/2 511/3/2
f 511/3/2 508/3/2 512/3/2
f 509/3/2 510/3/2 514/3/2
f 514/3/2 510/3/2 515/3/2
f 513/3/2 514/3/2 517/3/2
f 516/2/2 517/2/2 520/2/2
f 517/3/2 514/3/2 521/3/2
f 520/2/2 517/2/2 521/2/2
f 521/3/2 514/3/2 522/3/2
f 518/2/2 519/2/2 523/2/2
f 523/2/2 519/2/2 524/2/2
f 525/3/2 526/3/2 527/3/2
f 527/3/2 526/3/2 528/3/2
f 527/3/2 528/3/2 530/3/2
f 530/3/2 528/3/2 531/3/2
f 529/3/2 530/3/2 532/3/2
f 532/3/2 530/3/2 533/3/2
f 534/3/2 535/3/2 536/3/2
f 536/3/2 535/3/2 537/3/2
f 538/3/2 539/3/2 542/3/2
f 542/3/2 539/3/2 543/3/2
f 540/3/2 541/3/2 544/3/2
f 544/3/2 541/3/2 545/3/2
f 546/1/2 547/1/2 548/1/2
f 548/1/2 547/1/2 549/1/2
f 550/2/2 551/2/2 554/2/2
f 554/2/2 551/2/2 555/2/2
f 552/3/2 553/3/2 558/3/2
f 558/3/2 553/3/2 559/3/2
f 556/3/2 557/3/2 560/3/2
f 557/2/2 558/2/2 561/2/2
f 560/3/2 557/3/2 561/3/2
f 561/2/2 558/2/2 562/2/2
f 563/3/2 564/3/2 567/3/2
f 567/3/2 564/3/2 568/3/2
f 565/3/2 566/3/2 569/3/2
f 569/3/2 566/3/2 570/3/2
f 571/2/2 572/2/2 574/2/2
f 572/3/2 573/3/2 575/3/2
f 574/2/2 572/2/2 575/2/2
f 574/3/2 575/3/2 576/3/2
f 575/3/2 573/3/2 577/3/2
f 576/3/2 575/3/2 577/3/2
f 577/3/2 573/3/2 578/3/2
f 576/2/2 577/2/2 581/2/2
f 581/2/2 577/2/2 582/2/2
f 579/3/2 580/3/2 583/3/2
f 583/3/2 580/3/2 584/3/2
f 585/3/2 586/3/2 589/3/2
f 589/3/2 586/3/2 590/3/2
f 587/1/2 588/1/2 592/1/2
f 592/1/2 588/1/2 593/1/2
f 590/1/2 591/1/2 594/1/2
f 594/1/2 591/1/2 595/1/2
f 596/3/2 597/3/2 600/3/2
f 600/3/2 597/3/2 601/3/2
f 598/3/2 599/3/2 602/3/2
f 602/3/2 599/3/2 603/3/2
f 606/3/2 607/3/2 608/3/2
f 608/3/2 607/3/2 609/3/2
f 604/3/2 605/3/2 610/3/2
f 610/3/2 605/3/2 611/3/2
f 612/3/2 613/3/2 617/3/2
f 617/3/2 613/3/2 618/3/2
f 614/3/2 615/3/2 622/3/2
f 622/3/2 615/3/2 623/3/2
f 616/3/2 617/3/2 624/3/2
f 617/1/2 618/1/2 625/1/2
f 624/3/2 617/3/2 625/3/2
f 618/2/2 619/2/2 626/2/2
f 625/1/2 618/1/2 626/1/2
f 626/2/2 619/2/2 627/2/2
f 620/1/2 621/1/2 628/1/2
f 621/2/2 622/2/2 629/2/2
f 628/1/2 621/1/2 629/1/2
f 629/2/2 622/2/2 630/2/2
f 631/3/2 632/3/2 634/3/2
f 634/3/2 632/3/2 635/3/2
f 635/3/2 632/3/2 636/3/2
f 633/3/2 634/3/2 638/3/2
f 634/3/2 635/3/2 638/3/2
f 638/3/2 635/3/2 639/3/2
f 639/3/2 635/3/2 640/3/2
f 637/1/2 638/1/2 641/1/2
f 638/2/2 639/2/2 642/2/2
f 641/1/2 638/1/2 642/1/2
f 642/2/2 639/2/2 643/2/2
f 644/3/2 645/3/2 646/3/2
f 646/3/2 645/3/2 647/3/2
f 650/3/2 651/3/2 655/3/2
f 655/3/2 651/3/2 656/3/2
f 652/3/2 653/3/2 657/3/2
f 657/3/2 653/3/2 658/3/2
f 648/3/2 649/3/2 659/3/2
f 659/3/2 649/3/2 660/3/2
f 654/3/2 655/3/2 663/3/2
f 663/3/2 655/3/2 664/3/2
f 661/3/2 662/3/2 665/3/2
f 665/3/2 662/3/2 666/3/2
f 667/3/2 668/3/2 671/3/2
f 671/3/2 668/3/2 672/3/2
f 669/3/2 670/3/2 673/3/2
f 673/3/2 670/3/2 674/3/2
f 675/2/2 676/2/2 677/2/2
f 677/2/2 676/2/2 678/2/2
f 679/3/2 680/3/2 681/3/2
f 681/3/2 680/3/2 682/3/2
f 683/3/2 684/3/2 686/3/2
f 686/3/2 684/3/2 687/3/2
f 687/3/2 684/3/2 688/3/2
f 685/3/2 686/3/2 689/3/2
f 686/3/2 687/3/2 689/3/2
f 689/3/2 687/3/2 690/3/2
f 690/3/2 687/3/2 691/3/2
f 689/3/2 690/3/2 692/3/2
f 692/3/2 690/3/2 693/3/2
f 694/3/2 695/3/2 696/3/2
f 696/3/2 695/3/2 697/3/2
f 698/2/2 699/2/2 702/2/2
f 702/2/2 699/2/2 703/2/2
f 700/3/2 701/3/2 704/3/2
f 704/3/2 701/3/2 705/3/2
f 703/2/2 704/2/2 709/2/2
f 705/2/2 706/2/2 709/2/2
f 704/2/2 705/2/2 709/2/2
f 709/2/2 706/2/2 710/2/2
f 707/3/2 708/3/2 713/3/2
f 713/3/2 708/3/2 714/3/2
f 710/2/2 711/2/2 715/2/2
f 715/2/2 711/2/2 716/2/2
f 713/2/2 714/2/2 717/2/2
f 712/2/2 713/2/2 717/2/2
f 717/2/2 714/2/2 718/2/2
f 719/3/2 720/3/2 721/3/2
f 721/3/2 720/3/2 722/3/2
f 719/3/2 721/3/2 723/3/2
f 723/3/2 721/3/2 724/3/2
f 719/3/2 723/3/2 725/3/2
f 725/3/2 723/3/2 726/3/2
f 726/3/2 723/3/2 727/3/2
f 727/3/2 723/3/2 728/3/2
f 723/2/2 724/2/2 729/2/2
f 728/3/2 723/3/2 729/3/2
f 729/2/2 724/2/2 730/2/2
f 726/3/2 727/3/2 731/3/2
f 731/3/2 727/3/2 732/3/2
f 729/3/2 730/3/2 733/3/2
f 728/3/2 729/3/2 733/3/2
f 733/3/2 730/3/2 734/3/2
f 734/3/2 730/3/2 735/3/2
f 735/3/2 730/3/2 736/3/2
f 734/3/2 735/3/2 738/3/2
f 738/3/2 735/3/2 739/3/2
f 736/3/2 737/3/2 740/3/2
f 740/3/2 737/3/2 741/3/2
f 744/3/3 743/3/3 742/3/3
f 745/3/3 743/3/3 744/3/3
f 748/3/3 747/3/3 746/3/3
f 749/3/3 747/3/3 748/3/3
f 750/3/3 748/3/3 746/3/3
f 752/3/3 751/3/3 750/3/3
f 754/3/3 752/3/3 750/3/3
f 754/3/3 753/3/3 752/3/3
f 754/3/3 750/3/3 746/3/3
f 755/3/3 753/3/3 754/3/3
f 758/3/3 757/3/3 756/3/3
f 760/3/3 758/3/3 756/3/3
f 760/3/3 759/3/3 758/3/3
f 761/3/3 759/3/3 760/3/3
f 762/3/3 759/3/3 761/3/3
f 763/3/3 759/3/3 762/3/3
f 765/1/3 762/1/3 761/1/3
f 766/1/3 762/1/3 765/1/3
f 768/3/3 765/3/3 764/3/3
f 768/3/3 767/3/3 766/3/3
f 768/3/3 766/3/3 765/3/3
f 769/3/3 767/3/3 768/3/3
f 770/3/3 767/3/3 769/3/3
f 771/3/3 767/3/3 770/3/3
f 772/1/3 769/1/3 768/1/3
f 773/1/3 769/1/3 772/1/3
f 774/1/3 771/1/3 770/1/3
f 775/1/3 771/1/3 774/1/3
f 776/1/3 771/1/3 775/1/3
f 777/2/3 773/2/3 772/2/3
f 778/3/3 774/3/3 773/3/3
f 778/2/3 773/2/3 777/2/3
f 778/3/3 775/3/3 774/3/3
f 779/2/3 776/2/3 775/2/3
f 779/3/3 775/3/3 778/3/3
f 780/2/3 776/2/3 779/2/3
f 781/3/3 778/3/3 777/3/3
f 781/3/3 779/3/3 778/3/3
f 782/3/3 779/3/3 781/3/3
f 785/1/3 784/1/3 783/1/3
f 786/1/3 784/1/3 785/1/3
f 790/3/3 788/3/3 787/3/3
f 791/3/3 788/3/3 790/3/3
f 792/3/3 790/3/3 789/3/3
f 793/3/3 790/3/3 792/3/3
f 796/3/3 795/3/3 794/3/3
f 797/3/3 795/3/3 796/3/3
f 800/3/3 799/3/3 798/3/3
f 801/3/3 799/3/3 800/3/3
f 804/3/3 803/3/3 802/3/3
f 805/3/3 803/3/3 804/3/3
f 807/3/3 806/3/3 805/3/3
f 808/3/3 806/3/3 807/3/3
f 812/3/3 806/3/3 808/3/3
f 813/3/3 806/3/3 812/3/3
f 814/3/3 810/3/3 809/3/3
f 815/3/3 810/3/3 814/3/3
f 816/3/3 812/3/3 811/3/3
f 817/1/3 813/1/3 812/1/3
f 817/3/3 812/3/3 816/3/3
f 818/1/3 813/1/3 817/1/3
f 819/2/3 818/2/3 817/2/3
f 820/2/3 818/2/3 819/2/3
f 825/3/3 822/3/3 821/3/3
f 826/3/3 822/3/3 825/3/3
f 827/1/3 824/1/3 823/1/3
f 828/1/3 824/1/3 827/1/3
f 830/2/3 828/2/3 827/2/3
f 831/2/3 828/2/3 830/2/3
f 832/3/3 830/3/3 829/3/3
f 833/3/3 830/3/3 832/3/3
f 836/1/3 835/1/3 834/1/3
f 837/1/3 835/1/3 836/1/3
f 842/3/3 839/3/3 838/3/3
f 843/3/3 839/3/3 842/3/3
f 845/3/3 841/3/3 840/3/3
f 846/3/3 841/3/3 845/3/3
f 848/3/3 845/3/3 844/3/3
f 849/1/3 846/1/3 845/1/3
f 849/3/3 845/3/3 848/3/3
f 850/1/3 846/1/3 849/1/3
f 852/3/3 848/3/3 847/3/3
f 852/3/3 849/3/3 848/3/3
f 852/3/3 850/3/3 849/3/3
f 853/3/3 850/3/3 852/3/3
f 854/3/3 850/3/3 853/3/3
f 855/3/3 850/3/3 854/3/3
f 856/3/3 850/3/3 855/3/3
f 857/3/3 852/3/3 851/3/3
f 857/3/3 853/3/3 852/3/3
f 858/3/3 853/3/3 857/3/3
f 859/2/3 854/2/3 853/2/3
f 859/3/3 853/3/3 858/3/3
f 860/3/3 855/3/3 854/3/3
f 860/2/3 854/2/3 859/2/3
f 861/2/3 856/2/3 855/2/3
f 861/3/3 855/3/3 860/3/3
f 862/2/3 856/2/3 861/2/3
f 866/3/3 864/3/3 863/3/3
f 866/1/3 865/1/3 864/1/3
f 867/1/3 865/1/3 866/1/3
f 868/3/3 866/3/3 863/3/3
f 870/3/3 868/3/3 863/3/3
f 870/3/3 869/3/3 868/3/3
f 871/3/3 869/3/3 870/3/3
f 872/3/3 869/3/3 871/3/3
f 874/1/3 872/1/3 871/1/3
f 875/1/3 872/1/3 874/1/3
f 876/3/3 874/3/3 873/3/3
f 877/3/3 874/3/3 876/3/3
f 879/1/3 878/1/3 877/1/3
f 880/1/3 878/1/3 879/1/3
f 883/3/3 882/3/3 881/3/3
f 884/3/3 882/3/3 883/3/3
f 887/3/3 886/3/3 885/3/3
f 888/3/3 886/3/3 887/3/3
f 893/2/3 890/2/3 889/2/3
f 894/3/3 891/3/3 890/3/3
f 894/2/3 890/2/3 893/2/3
f 895/2/3 892/2/3 891/2/3
f 895/3/3 891/3/3 894/3/3
f 896/2/3 892/2/3 895/2/3
f 897/3/3 894/3/3 893/3/3
f 897/3/3 895/3/3 894/3/3
f 898/3/3 895/3/3 897/3/3
f 899/3/3 897/3/3 893/3/3
f 900/3/3 897/3/3 899/3/3
f 905/3/3 902/3/3 901/3/3
f 906/2/3 903/2/3 902/2/3
f 906/3/3 902/3/3 905/3/3
f 907/3/3 904/3/3 903/3/3
f 907/2/3 903/2/3 906/2/3
f 910/2/3 906/2/3 905/2/3
f 911/3/3 907/3/3 906/3/3
f 911/2/3 906/2/3 910/2/3
f 912/3/3 904/3/3 907/3/3
f 912/3/3 907/3/3 911/3/3
f 913/2/3 909/2/3 908/2/3
f 914/2/3 909/2/3 913/2/3
f 915/3/3 914/3/3 913/3/3
f 916/3/3 914/3/3 915/3/3
f 919/3/3 918/3/3 917/3/3
f 920/3/3 918/3/3 919/3/3
f 922/3/3 921/3/3 920/3/3
f 923/3/3 921/3/3 922/3/3
f 926/3/3 925/3/3 924/3/3
f 927/3/3 925/3/3 926/3/3
f 929/2/3 928/2/3 927/2/3
f 931/2/3 928/2/3 929/2/3
f 932/2/3 928/2/3 931/2/3
f 933/3/3 931/3/3 930/3/3
f 933/3/3 932/3/3 931/3/3
f 934/3/3 932/3/3 933/3/3
f 935/3/3 932/3/3 934/3/3
f 938/3/3 937/3/3 936/3/3
f 939/3/3 937/3/3 938/3/3
f 942/3/3 941/3/3 940/3/3
f 943/3/3 941/3/3 942/3/3
f 946/3/3 945/3/3 944/3/3
f 947/3/3 945/3/3 946/3/3
f 950/2/3 949/2/3 948/2/3
f 951/2/3 949/2/3 950/2/3
f 954/3/3 953/3/3 952/3/3
f 955/3/3 953/3/3 954/3/3
f 958/3/3 957/3/3 956/3/3
f 959/3/3 957/3/3 958/3/3
f 962/3/3 961/3/3 960/3/3
f 963/3/3 961/3/3 962/3/3
f 966/3/3 965/3/3 964/3/3
f 967/3/3 965/3/3 966/3/3
f 972/3/3 969/3/3 968/3/3
f 973/3/3 969/3/3 972/3/3
f 974/3/3 971/3/3 970/3/3
f 975/3/3 971/3/3 974/3/3
f 978/3/3 977/3/3 976/3/3
f 979/3/3 977/3/3 978/3/3
f 982/3/3 981/3/3 980/3/3
f 983/3/3 981/3/3 982/3/3
f 985/3/3 984/3/3 983/3/3
f 986/3/3 984/3/3 985/3/3
f 989/1/3 988/1/3 987/1/3
f 990/1/3 988/1/3 989/1/3
f 993/2/3 992/2/3 991/2/3
f 994/2/3 992/2/3 993/2/3
f 1000/3/3 996/3/3 995/3/3
f 1001/2/3 997/2/3 996/2/3
f 1001/3/3 996/3/3 1000/3/3
f 1002/3/3 998/3/3 997/3/3
f 1002/2/3 997/2/3 1001/2/3
f 1003/2/3 999/2/3 998/2/3
f 1003/3/3 998/3/3 1002/3/3
f 1004/2/3 999/2/3 1003/2/3
f 1005/3/3 1003/3/3 1002/3/3
f 1008/3/3 1005/3/3 1002/3/3
f 1009/2/3 1006/2/3 1005/2/3
f 1009/3/3 1005/3/3 1008/3/3
f 1010/2/3 1006/2/3 1009/2/3
f 1011/3/3 1008/3/3 1007/3/3
f 1012/1/3 1009/1/3 1008/1/3
f 1012/3/3 1008/3/3 1011/3/3
f 1012/1/3 1010/1/3 1009/1/3
f 1013/1/3 1010/1/3 1012/1/3
f 1014/1/3 1010/1/3 1013/1/3
f 1015/3/3 1013/3/3 1012/3/3
f 1016/2/3 1014/2/3 1013/2/3
f 1016/3/3 1013/3/3 1015/3/3
f 1017/2/3 1014/2/3 1016/2/3
f 1020/3/3 1019/3/3 1018/3/3
f 1021/3/3 1019/3/3 1020/3/3
f 1024/2/3 1023/2/3 1022/2/3
f 1025/2/3 1023/2/3 1024/2/3
f 1028/3/3 1027/3/3 1026/3/3
f 1029/3/3 1027/3/3 1028/3/3
f 1031/2/3 1029/2/3 1028/2/3
f 1032/2/3 1029/2/3 1031/2/3
f 1033/3/3 1031/3/3 1030/3/3
f 1034/3/3 1031/3/3 1033/3/3
f 1037/1/3 1036/1/3 1035/1/3
f 1038/1/3 1036/1/3 1037/1/3
f 1041/3/3 1040/3/3 1039/3/3
f 1042/3/3 1040/3/3 1041/3/3
f 1045/3/3 1044/3/3 1043/3/3
f 1046/3/3 1044/3/3 1045/3/3
f 1049/3/3 1048/3/3 1047/3/3
f 1050/3/3 1048/3/3 1049/3/3
f 1053/3/3 1052/3/3 1051/3/3
f 1054/3/3 1052/3/3 1053/3/3
f 1058/3/3 1056/3/3 1055/3/3
f 1059/3/3 1056/3/3 1058/3/3
f 1059/3/3 1058/3/3 1057/3/3
f 1060/3/3 1059/3/3 1057/3/3
f 1061/3/3 1059/3/3 1060/3/3
f 1064/3/3 1063/3/3 1062/3/3
f 1065/3/3 1063/3/3 1064/3/3
f 1066/3/3 1063/3/3 1065/3/3
f 1067/3/3 1063/3/3 1066/3/3
f 1070/1/3 1069/1/3 1068/1/3
f 1071/1/3 1069/1/3 1070/1/3
f 1074/1/3 1073/1/3 1072/1/3
f 1075/1/3 1073/1/3 1074/1/3
f 1078/3/3 1077/3/3 1076/3/3
f 1079/3/3 1077/3/3 1078/3/3
f 1082/2/3 1081/2/3 1080/2/3
f 1083/2/3 1081/2/3 1082/2/3
f 1086/3/3 1085/3/3 1084/3/3
f 1087/3/3 1085/3/3 1086/3/3
f 1090/3/3 1089/3/3 1088/3/3
f 1091/3/3 1089/3/3 1090/3/3
f 1094/2/3 1093/2/3 1092/2/3
f 1095/2/3 1093/2/3 1094/2/3
f 1098/3/3 1097/3/3 1096/3/3
f 1099/3/3 1097/3/3 1098/3/3
f 1102/3/3 1101/3/3 1100/3/3
f 1103/3/3 1101/3/3 1102/3/3
f 1106/3/3 1105/3/3 1104/3/3
f 1107/3/3 1105/3/3 1106/3/3
f 1110/3/3 1109/3/3 1108/3/3
f 1111/3/3 1109/3/3 1110/3/3
f 1112/3/4 1113/3/4 1114/3/4
f 1114/3/4 1113/3/4 1115/3/4
f 1116/3/4 1117/3/4 1118/3/4
f 1118/3/4 1117/3/4 1119/3/4
f 1120/3/4 1121/3/4 1122/3/4
f 1122/3/4 1121/3/4 1123/3/4
f 1124/3/4 1125/3/4 1126/3/4
f 1126/3/4 1125/3/4 1127/3/4
f 1128/3/4 1129/3/4 1130/3/4
f 1130/3/4 1129/3/4 1131/3/4
f 1132/2/4 1133/2/4 1136/2/4
f 1136/2/4 1133/2/4 1137/2/4
f 1134/3/4 1135/3/4 1138/3/4
f 1138/3/4 1135/3/4 1139/3/4
f 1140/3/4 1141/3/4 1142/3/4
f 1142/3/4 1141/3/4 1143/3/4
f 1144/3/4 1145/3/4 1146/3/4
f 1146/3/4 1145/3/4 1147/3/4
f 1148/3/4 1149/3/4 1150/3/4
f 1150/3/4 1149/3/4 1151/3/4
f 1152/2/4 1153/2/4 1154/2/4
f 1154/2/4 1153/2/4 1155/2/4
f 1156/3/4 1157/3/4 1158/3/4
f 1158/3/4 1157/3/4 1159/3/4
f 1160/3/4 1161/3/4 1162/3/4
f 1162/3/4 1161/3/4 1163/3/4
f 1164/3/4 1165/3/4 1166/3/4
f 1166/3/4 1165/3/4 1167/3/4
f 1168/3/4 1169/3/4 1170/3/4
f 1170/3/4 1169/3/4 1171/3/4
f 1171/2/4 1172/2/4 1173/2/4
f 1173/2/4 1172/2/4 1174/2/4
f 1175/1/4 1176/1/4 1177/1/4
f 1177/1/4 1176/1/4 1178/1/4
f 1178/1/4 1176/1/4 1179/1/4
f 1180/3/4 1181/3/4 1182/3/4
f 1180/3/4 1182/3/4 1183/3/4
f 1183/3/4 1182/3/4 1184/3/4
f 1184/3/4 1182/3/4 1185/3/4
f 1185/3/4 1182/3/4 1186/3/4
f 1187/3/4 1188/3/4 1189/3/4
f 1189/3/4 1188/3/4 1190/3/4
f 1191/3/4 1192/3/4 1194/3/4
f 1192/3/4 1193/3/4 1194/3/4
f 1194/3/4 1193/3/4 1195/3/4
f 1191/3/4 1194/3/4 1196/3/4
f 1196/3/4 1194/3/4 1197/3/4
f 1198/3/4 1199/3/4 1200/3/4
f 1200/3/4 1199/3/4 1201/3/4
f 1202/1/4 1203/1/4 1204/1/4
f 1204/1/4 1203/1/4 1205/1/4
f 1206/2/4 1207/2/4 1208/2/4
f 1208/2/4 1207/2/4 1209/2/4
f 1210/1/4 1211/1/4 1212/1/4
f 1212/1/4 1211/1/4 1213/1/4
f 1214/3/4 1215/3/4 1216/3/4
f 1216/3/4 1215/3/4 1217/3/4
f 1217/2/4 1218/2/4 1219/2/4
f 1219/2/4 1218/2/4 1220/2/4
f 1219/3/4 1220/3/4 1221/3/4
f 1221/3/4 1220/3/4 1222/3/4
f 1223/2/4 1224/2/4 1225/2/4
f 1225/2/4 1224/2/4 1226/2/4
f 1227/3/4 1228/3/4 1229/3/4
f 1229/3/4 1228/3/4 1230/3/4
f 1231/3/4 1232/3/4 1233/3/4
f 1233/3/4 1232/3/4 1234/3/4
f 1235/3/4 1236/3/4 1237/3/4
f 1237/3/4 1236/3/4 1238/3/4
f 1239/2/4 1240/2/4 1241/2/4
f 1241/2/4 1240/2/4 1242/2/4
f 1243/3/4 1244/3/4 1247/3/4
f 1247/3/4 1244/3/4 1248/3/4
f 1245/3/4 1246/3/4 1249/3/4
f 1249/3/4 1246/3/4 1250/3/4
f 1251/3/4 1252/3/4 1253/3/4
f 1253/3/4 1252/3/4 1254/3/4
f 1255/3/4 1256/3/4 1257/3/4
f 1257/3/4 1256/3/4 1258/3/4
f 1259/3/4 1260/3/4 1261/3/4
f 1261/3/4 1260/3/4 1262/3/4
f 1263/3/4 1264/3/4 1266/3/4
f 1266/3/4 1264/3/4 1267/3/4
f 1265/3/4 1266/3/4 1268/3/4
f 1268/3/4 1266/3/4 1269/3/4
f 1270/3/4 1271/3/4 1272/3/4
f 1272/3/4 1271/3/4 1273/3/4
f 1274/2/4 1275/2/4 1276/2/4
f 1276/2/4 1275/2/4 1277/2/4
f 1278/2/4 1279/2/4 1281/2/4
f 1281/2/4 1279/2/4 1282/2/4
f 1280/2/4 1281/2/4 1284/2/4
f 1283/3/4 1284/3/4 1285/3/4
f 1284/2/4 1281/2/4 1286/2/4
f 1285/3/4 1284/3/4 1286/3/4
f 1286/2/4 1281/2/4 1288/2/4
f 1288/2/4 1281/2/4 1289/2/4
f 1287/2/4 1288/2/4 1292/2/4
f 1292/2/4 1288/2/4 1293/2/4
f 1290/3/4 1291/3/4 1294/3/4
f 1294/3/4 1291/3/4 1295/3/4
f 1296/2/4 1297/2/4 1298/2/4
f 1298/2/4 1297/2/4 1299/2/4
f 1300/3/4 1301/3/4 1302/3/4
f 1302/3/4 1301/3/4 1303/3/4
f 1304/3/4 1305/3/4 1306/3/4
f 1304/3/4 1306/3/4 1308/3/4
f 1306/3/4 1307/3/4 1308/3/4
f 1308/3/4 1307/3/4 1309/3/4
f 1309/3/4 1307/3/4 1310/3/4
f 1308/2/4 1309/2/4 1312/2/4
f 1309/3/4 1310/3/4 1313/3/4
f 1312/2/4 1309/2/4 1313/2/4
f 1310/2/4 1311/2/4 1314/2/4
f 1313/3/4 1310/3/4 1314/3/4
f 1314/2/4 1311/2/4 1315/2/4
f 1316/3/4 1317/3/4 1318/3/4
f 1318/3/4 1317/3/4 1319/3/4
f 1320/3/4 1321/3/4 1323/3/4
f 1322/3/4 1323/3/4 1324/3/4
f 1323/3/4 1321/3/4 1325/3/4
f 1324/3/4 1323/3/4 1325/3/4
f 1325/3/4 1321/3/4 1326/3/4
f 1326/3/4 1321/3/4 1327/3/4
f 1328/3/4 1329/3/4 1330/3/4
f 1330/3/4 1329/3/4 1331/3/4
f 1332/3/4 1333/3/4 1335/3/4
f 1333/3/4 1334/3/4 1335/3/4
f 1335/3/4 1334/3/4 1336/3/4
f 1336/3/4 1334/3/4 1337/3/4
f 1335/3/4 1336/3/4 1338/3/4
f 1338/3/4 1336/3/4 1339/3/4
f 1340/3/4 1341/3/4 1345/3/4
f 1345/3/4 1341/3/4 1346/3/4
f 1342/2/4 1343/2/4 1347/2/4
f 1343/3/4 1344/3/4 1348/3/4
f 1347/2/4 1343/2/4 1348/2/4
f 1348/3/4 1344/3/4 1349/3/4
f 1345/2/4 1346/2/4 1350/2/4
f 1350/2/4 1346/2/4 1351/2/4
f 1347/3/4 1348/3/4 1352/3/4
f 1348/2/4 1349/2/4 1353/2/4
f 1352/3/4 1348/3/4 1353/3/4
f 1349/3/4 1344/3/4 1354/3/4
f 1353/2/4 1349/2/4 1354/2/4
f 1354/3/4 1344/3/4 1355/3/4
f 1356/1/4 1357/1/4 1358/1/4
f 1358/1/4 1357/1/4 1359/1/4
f 1360/3/4 1361/3/4 1362/3/4
f 1362/3/4 1361/3/4 1363/3/4
f 1364/3/4 1365/3/4 1366/3/4
f 1366/3/4 1365/3/4 1367/3/4
f 1368/3/4 1369/3/4 1372/3/4
f 1372/3/4 1369/3/4 1373/3/4
f 1370/3/4 1371/3/4 1374/3/4
f 1371/1/4 1372/1/4 1375/1/4
f 1374/3/4 1371/3/4 1375/3/4
f 1375/1/4 1372/1/4 1376/1/4
f 1376/3/4 1377/3/4 1378/3/4
f 1378/3/4 1377/3/4 1379/3/4
f 1380/3/4 1381/3/4 1384/3/4
f 1382/1/4 1383/1/4 1385/1/4
f 1384/3/4 1381/3/4 1385/3/4
f 1381/1/4 1382/1/4 1385/1/4
f 1385/1/4 1383/1/4 1386/1/4
f 1384/1/4 1385/1/4 1387/1/4
f 1387/1/4 1385/1/4 1388/1/4
f 1387/3/4 1388/3/4 1389/3/4
f 1389/3/4 1388/3/4 1390/3/4
f 1391/3/4 1392/3/4 1396/3/4
f 1396/3/4 1392/3/4 1397/3/4
f 1392/2/4 1393/2/4 1398/2/4
f 1397/3/4 1392/3/4 1398/3/4
f 1393/3/4 1394/3/4 1399/3/4
f 1398/2/4 1393/2/4 1399/2/4
f 1394/2/4 1395/2/4 1400/2/4
f 1399/3/4 1394/3/4 1400/3/4
f 1400/2/4 1395/2/4 1401/2/4
f 1397/3/4 1398/3/4 1402/3/4
f 1398/3/4 1399/3/4 1402/3/4
f 1400/3/4 1401/3/4 1402/3/4
f 1399/3/4 1400/3/4 1402/3/4
f 1402/3/4 1401/3/4 1403/3/4
f 1403/3/4 1401/3/4 1404/3/4
f 1404/3/4 1401/3/4 1405/3/4
f 1403/3/4 1404/3/4 1408/3/4
f 1404/1/4 1405/1/4 1409/1/4
f 1408/3/4 1404/3/4 1409/3/4
f 1409/1/4 1405/1/4 1410/1/4
f 1406/3/4 1407/3/4 1411/3/4
f 1411/3/4 1407/3/4 1412/3/4
f 1409/3/4 1410/3/4 1413/3/4
f 1413/3/4 1410/3/4 1414/3/4
f 1415/1/4 1416/1/4 1417/1/4
f 1417/1/4 1416/1/4 1418/1/4
f 1419/3/4 1420/3/4 1421/3/4
f 1421/3/4 1420/3/4 1422/3/4
f 1422/2/4 1423/2/4 1426/2/4
f 1426/2/4 1423/2/4 1427/2/4
f 1424/3/4 1425/3/4 1428/3/4
f 1428/3/4 1425/3/4 1429/3/4
f 1426/1/4 1427/1/4 1430/1/4
f 1430/1/4 1427/1/4 1431/1/4
f 1432/2/4 1433/2/4 1437/2/4
f 1437/2/4 1433/2/4 1438/2/4
f 1434/3/4 1435/3/4 1439/3/4
f 1439/3/4 1435/3/4 1440/3/4
f 1436/3/4 1437/3/4 1441/3/4
f 1437/1/4 1438/1/4 1442/1/4
f 1441/3/4 1437/3/4 1442/3/4
f 1442/1/4 1438/1/4 1443/1/4
f 1442/3/4 1443/3/4 1445/3/4
f 1444/3/4 1445/3/4 1447/3/4
f 1445/3/4 1443/3/4 1448/3/4
f 1447/3/4 1445/3/4 1448/3/4
f 1446/3/4 1447/3/4 1449/3/4
f 1449/3/4 1447/3/4 1450/3/4
f 1450/3/4 1447/3/4 1451/3/4
f 1452/3/4 1453/3/4 1456/3/4
f 1453/3/4 1454/3/4 1456/3/4
f 1456/3/4 1454/3/4 1457/3/4
f 1455/3/4 1456/3/4 1458/3/4
f 1458/3/4 1456/3/4 1459/3/4
f 1460/2/4 1461/2/4 1462/2/4
f 1462/2/4 1461/2/4 1463/2/4
f 1464/3/4 1465/3/4 1466/3/4
f 1466/3/4 1465/3/4 1467/3/4
f 1468/3/4 1469/3/4 1470/3/4
f 1470/3/4 1469/3/4 1471/3/4
f 1471/3/4 1472/3/4 1473/3/4
f 1473/3/4 1472/3/4 1474/3/4
f 1475/3/4 1476/3/4 1477/3/4
f 1477/3/4 1476/3/4 1478/3/4
f 1478/3/4 1476/3/4 1479/3/4
f 1477/2/4 1478/2/4 1481/2/4
f 1478/3/4 1479/3/4 1482/3/4
f 1481/2/4 1478/2/4 1482/2/4
f 1482/3/4 1479/3/4 1483/3/4
f 1479/2/4 1480/2/4 1484/2/4
f 1483/3/4 1479/3/4 1484/3/4
f 1484/2/4 1480/2/4 1485/2/4
f 1481/1/4 1482/1/4 1486/1/4
f 1486/1/4 1482/1/4 1487/1/4
f 1484/1/4 1485/1/4 1488/1/4
f 1483/1/4 1484/1/4 1488/1/4
f 1488/1/4 1485/1/4 1489/1/4
f 1486/3/4 1487/3/4 1490/3/4
f 1487/3/4 1488/3/4 1490/3/4
f 1488/3/4 1489/3/4 1490/3/4
f 1490/3/4 1489/3/4 1491/3/4
f 1491/3/4 1489/3/4 1492/3/4
f 1492/3/4 1489/3/4 1493/3/4
f 1491/1/4 1492/1/4 1495/1/4
f 1495/1/4 1492/1/4 1496/1/4
f 1494/3/4 1495/3/4 1498/3/4
f 1496/3/4 1497/3/4 1498/3/4
f 1495/3/4 1496/3/4 1498/3/4
f 1498/3/4 1497/3/4 1499/3/4
f 1494/3/4 1498/3/4 1500/3/4
f 1500/3/4 1498/3/4 1501/3/4
f 1494/3/4 1500/3/4 1502/3/4
f 1494/3/4 1502/3/4 1504/3/4
f 1502/3/4 1503/3/4 1504/3/4
f 1504/3/4 1503/3/4 1505/3/4
f 1494/3/4 1504/3/4 1506/3/4
f 1506/3/4 1504/3/4 1507/3/4
f 1507/3/4 1508/3/4 1510/3/4
f 1510/3/4 1508/3/4 1511/3/4
f 1511/3/4 1508/3/4 1512/3/4
f 1509/3/4 1510/3/4 1513/3/4
f 1510/3/4 1511/3/4 1513/3/4
f 1513/3/4 1511/3/4 1514/3/4
f 1515/3/4 1516/3/4 1517/3/4
f 1517/3/4 1516/3/4 1518/3/4
f 1532/3/5 1520/3/5 1519/3/5
f 1536/3/5 1522/3/5 1521/3/5
f 1537/3/5 1522/3/5 1536/3/5
f 1538/3/5 1524/3/5 1523/3/5
f 1539/3/5 1524/3/5 1538/3/5
f 1540/3/5 1526/3/5 1525/3/5
f 1541/1/5 1527/1/5 1526/1/5
f 1541/3/5 1526/3/5 1540/3/5
f 1542/2/5 1528/2/5 1527/2/5
f 1542/1/5 1527/1/5 1541/1/5
f 1543/3/5 1529/3/5 1528/3/5
f 1543/2/5 1528/2/5 1542/2/5
f 1544/1/5 1531/1/5 1530/1/5
f 1545/1/5 1531/1/5 1544/1/5
f 1547/3/5 1532/3/5 1519/3/5
f 1547/3/5 1533/3/5 1532/3/5
f 1548/3/5 1533/3/5 1547/3/5
f 1549/3/5 1535/3/5 1534/3/5
f 1550/3/5 1535/3/5 1549/3/5
f 1551/3/5 1535/3/5 1550/3/5
f 1552/3/5 1536/3/5 1521/3/5
f 1553/3/5 1543/3/5 1542/3/5
f 1553/3/5 1539/3/5 1538/3/5
f 1553/3/5 1540/3/5 1539/3/5
f 1553/3/5 1541/3/5 1540/3/5
f 1553/3/5 1542/3/5 1541/3/5
f 1553/3/5 1538/3/5 1537/3/5
f 1554/3/5 1545/3/5 1544/3/5
f 1557/3/5 1548/3/5 1547/3/5
f 1557/3/5 1550/3/5 1549/3/5
f 1557/3/5 1549/3/5 1548/3/5
f 1557/3/5 1547/3/5 1546/3/5
f 1558/3/5 1550/3/5 1557/3/5
f 1560/3/5 1552/3/5 1521/3/5
f 1560/3/5 1553/3/5 1552/3/5
f 1561/2/5 1555/2/5 1554/2/5
f 1561/3/5 1554/3/5 1544/3/5
f 1562/3/5 1556/3/5 1555/3/5
f 1562/2/5 1555/2/5 1561/2/5
f 1563/3/5 1556/3/5 1562/3/5
f 1564/3/5 1556/3/5 1563/3/5
f 1565/3/5 1557/3/5 1546/3/5
f 1567/3/5 1560/3/5 1559/3/5
f 1568/3/5 1562/3/5 1561/3/5
f 1568/3/5 1563/3/5 1562/3/5
f 1569/3/5 1565/3/5 1564/3/5
f 1570/3/5 1557/3/5 1565/3/5
f 1570/3/5 1565/3/5 1569/3/5
f 1571/3/5 1567/3/5 1566/3/5
f 1572/3/5 1553/3/5 1560/3/5
f 1572/3/5 1571/3/5 1570/3/5
f 1572/3/5 1567/3/5 1571/3/5
f 1572/3/5 1570/3/5 1569/3/5
f 1572/3/5 1543/3/5 1553/3/5
f 1572/3/5 1569/3/5 1568/3/5
f 1572/3/5 1560/3/5 1567/3/5
f 1573/3/5 1543/3/5 1572/3/5
f 1574/3/5 1561/3/5 1544/3/5
f 1574/3/5 1568/3/5 1561/3/5
f 1574/3/5 1572/3/5 1568/3/5
f 1575/3/5 1572/3/5 1574/3/5
f 1576/1/5 1573/1/5 1572/1/5
f 1576/3/5 1572/3/5 1575/3/5
f 1577/3/5 1543/3/5 1573/3/5
f 1577/1/5 1573/1/5 1576/1/5
f 1578/3/5 1543/3/5 1577/3/5
f 1579/3/5 1543/3/5 1578/3/5
f 1580/3/5 1574/3/5 1544/3/5
f 1581/3/5 1574/3/5 1580/3/5
f 1582/3/5 1576/3/5 1575/3/5
f 1583/3/5 1576/3/5 1582/3/5
f 1584/3/5 1576/3/5 1583/3/5
f 1585/2/5 1577/2/5 1576/2/5
f 1585/3/5 1576/3/5 1584/3/5
f 1586/3/5 1578/3/5 1577/3/5
f 1586/2/5 1577/2/5 1585/2/5
f 1587/3/5 1578/3/5 1586/3/5
f 1588/3/5 1582/3/5 1581/3/5
f 1588/3/5 1583/3/5 1582/3/5
f 1589/2/5 1584/2/5 1583/2/5
f 1589/3/5 1583/3/5 1588/3/5
f 1590/3/5 1585/3/5 1584/3/5
f 1590/2/5 1584/2/5 1589/2/5
f 1590/3/5 1586/3/5 1585/3/5
f 1591/3/5 1586/3/5 1590/3/5
f 1592/3/5 1586/3/5 1591/3/5
f 1593/3/5 1591/3/5 1590/3/5
f 1594/3/5 1591/3/5 1593/3/5
f 1595/3/5 1591/3/5 1594/3/5
f 1596/3/5 1591/3/5 1595/3/5
f 1597/1/5 1592/1/5 1591/1/5
f 1597/3/5 1591/3/5 1596/3/5
f 1598/3/5 1586/3/5 1592/3/5
f 1598/1/5 1592/1/5 1597/1/5
f 1599/3/5 1586/3/5 1598/3/5
f 1602/3/5 1543/3/5 1579/3/5
f 1603/3/5 1543/3/5 1602/3/5
f 1604/3/5 1543/3/5 1603/3/5
f 1605/3/5 1529/3/5 1543/3/5
f 1605/3/5 1543/3/5 1604/3/5
f 1606/1/5 1594/1/5 1593/1/5
f 1607/3/5 1595/3/5 1594/3/5
f 1607/1/5 1594/1/5 1606/1/5
f 1608/3/5 1595/3/5 1607/3/5
f 1609/3/5 1595/3/5 1608/3/5
f 1610/3/5 1595/3/5 1609/3/5
f 1611/3/5 1595/3/5 1610/3/5
f 1612/3/5 1595/3/5 1611/3/5
f 1613/3/5 1595/3/5 1612/3/5
f 1614/3/5 1595/3/5 1613/3/5
f 1615/2/5 1596/2/5 1595/2/5
f 1615/3/5 1595/3/5 1614/3/5
f 1616/2/5 1596/2/5 1615/2/5
f 1617/3/5 1601/3/5 1600/3/5
f 1618/3/5 1601/3/5 1617/3/5
f 1619/3/5 1604/3/5 1603/3/5
f 1620/3/5 1604/3/5 1619/3/5
f 1621/3/5 1608/3/5 1607/3/5
f 1622/2/5 1609/2/5 1608/2/5
f 1622/3/5 1608/3/5 1621/3/5
f 1623/1/5 1610/1/5 1609/1/5
f 1623/2/5 1609/2/5 1622/2/5
f 1624/3/5 1611/3/5 1610/3/5
f 1624/1/5 1610/1/5 1623/1/5
f 1625/3/5 1611/3/5 1624/3/5
f 1626/3/5 1613/3/5 1612/3/5
f 1627/3/5 1613/3/5 1626/3/5
f 1628/3/5 1616/3/5 1615/3/5
f 1628/3/5 1615/3/5 1614/3/5
f 1629/3/5 1616/3/5 1628/3/5
f 1630/3/5 1604/3/5 1620/3/5
f 1631/3/5 1604/3/5 1630/3/5
f 1634/3/5 1633/3/5 1632/3/5
f 1635/3/5 1633/3/5 1634/3/5
f 1640/1/5 1637/1/5 1636/1/5
f 1641/1/5 1637/1/5 1640/1/5
f 1642/1/5 1639/1/5 1638/1/5
f 1643/1/5 1639/1/5 1642/1/5
f 1648/1/5 1645/1/5 1644/1/5
f 1649/1/5 1645/1/5 1648/1/5
f 1650/1/5 1647/1/5 1646/1/5
f 1651/1/5 1647/1/5 1650/1/5
f 1654/1/5 1653/1/5 1652/1/5
f 1655/1/5 1653/1/5 1654/1/5
f 1660/1/5 1657/1/5 1656/1/5
f 1661/1/5 1657/1/5 1660/1/5
f 1662/1/5 1659/1/5 1658/1/5
f 1663/1/5 1659/1/5 1662/1/5
f 1668/3/5 1665/3/5 1664/3/5
f 1669/3/5 1665/3/5 1668/3/5
f 1670/3/5 1667/3/5 1666/3/5
f 1671/3/5 1667/3/5 1670/3/5
f 1676/3/5 1673/3/5 1672/3/5
f 1677/3/5 1673/3/5 1676/3/5
f 1678/3/5 1675/3/5 1674/3/5
f 1679/3/5 1675/3/5 1678/3/5
f 1682/3/5 1681/3/5 1680/3/5
f 1683/3/5 1681/3/5 1682/3/5
f 1686/3/5 1685/3/5 1684/3/5
f 1687/3/5 1685/3/5 1686/3/5
f 1688/3/6 1689/3/6 1696/3/6
f 1696/3/6 1689/3/6 1697/3/6
f 1690/3/6 1691/3/6 1701/3/6
f 1701/3/6 1691/3/6 1702/3/6
f 1692/1/6 1693/1/6 1703/1/6
f 1703/1/6 1693/1/6 1704/1/6
f 1694/1/6 1695/1/6 1705/1/6
f 1705/1/6 1695/1/6 1706/1/6
f 1697/3/6 1698/3/6 1709/3/6
f 1709/3/6 1698/3/6 1710/3/6
f 1699/3/6 1700/3/6 1711/3/6
f 1711/3/6 1700/3/6 1712/3/6
f 1712/3/6 1700/3/6 1713/3/6
f 1707/3/6 1708/3/6 1718/3/6
f 1718/3/6 1708/3/6 1719/3/6
f 1719/3/6 1708/3/6 1720/3/6
f 1711/3/6 1712/3/6 1721/3/6
f 1721/3/6 1712/3/6 1722/3/6
f 1714/3/6 1715/3/6 1724/3/6
f 1724/3/6 1715/3/6 1725/3/6
f 1716/3/6 1717/3/6 1726/3/6
f 1726/3/6 1717/3/6 1727/3/6
f 1723/3/6 1724/3/6 1730/3/6
f 1727/3/6 1728/3/6 1732/3/6
f 1729/3/6 1730/3/6 1734/3/6
f 1730/3/6 1724/3/6 1735/3/6
f 1734/3/6 1730/3/6 1735/3/6
f 1733/3/6 1734/3/6 1739/3/6
f 1739/3/6 1734/3/6 1740/3/6
f 1735/3/6 1736/3/6 1741/3/6
f 1741/3/6 1736/3/6 1742/3/6
f 1731/3/6 1732/3/6 1743/3/6
f 1732/3/6 1728/3/6 1744/3/6
f 1743/3/6 1732/3/6 1744/3/6
f 1737/3/6 1738/3/6 1749/3/6
f 1749/3/6 1738/3/6 1750/3/6
f 1745/1/6 1746/1/6 1751/1/6
f 1751/1/6 1746/1/6 1752/1/6
f 1747/3/6 1748/3/6 1753/3/6
f 1753/3/6 1748/3/6 1754/3/6
f 1737/3/6 1749/3/6 1755/3/6
f 1755/3/6 1749/3/6 1756/3/6
f 1752/3/6 1753/3/6 1758/3/6
f 1758/3/6 1753/3/6 1759/3/6
f 1756/3/6 1757/3/6 1760/3/6
f 1760/3/6 1757/3/6 1761/3/6
f 1762/1/6 1763/1/6 1772/1/6
f 1763/3/6 1764/3/6 1773/3/6
f 1772/1/6 1763/1/6 1773/1/6
f 1773/3/6 1764/3/6 1774/3/6
f 1766/3/6 1767/3/6 1779/3/6
f 1765/3/6 1766/3/6 1779/3/6
f 1779/3/6 1767/3/6 1780/3/6
f 1768/1/6 1769/1/6 1781/1/6
f 1781/1/6 1769/1/6 1782/1/6
f 1770/3/6 1771/3/6 1786/3/6
f 1786/3/6 1771/3/6 1787/3/6
f 1775/3/6 1776/3/6 1789/3/6
f 1789/3/6 1776/3/6 1790/3/6
f 1777/3/6 1778/3/6 1791/3/6
f 1791/3/6 1778/3/6 1792/3/6
f 1783/1/6 1784/1/6 1794/1/6
f 1794/1/6 1784/1/6 1795/1/6
f 1785/3/6 1786/3/6 1796/3/6
f 1796/3/6 1786/3/6 1797/3/6
f 1787/3/6 1788/3/6 1798/3/6
f 1798/3/6 1788/3/6 1799/3/6
f 1792/3/6 1793/3/6 1800/3/6
f 1800/3/6 1793/3/6 1801/3/6
f 1802/3/6 1803/3/6 1808/3/6
f 1804/3/6 1805/3/6 1809/3/6
f 1806/3/6 1807/3/6 1810/3/6
f 1810/3/6 1807/3/6 1811/3/6
f 1808/3/6 1809/3/6 1812/3/6
f 1802/3/6 1808/3/6 1812/3/6
f 1812/3/6 1809/3/6 1813/3/6
f 1809/3/6 1805/3/6 1814/3/6
f 1813/3/6 1809/3/6 1814/3/6
f 1815/3/6 1816/3/6 1817/3/6
f 1817/3/6 1816/3/6 1818/3/6
f 1819/3/6 1820/3/6 1821/3/6
f 1821/3/6 1820/3/6 1822/3/6
f 1823/3/6 1824/3/6 1825/3/6
f 1825/3/6 1824/3/6 1826/3/6
f 1827/3/6 1828/3/6 1833/3/6
f 1833/3/6 1828/3/6 1834/3/6
f 1829/3/6 1830/3/6 1835/3/6
f 1835/3/6 1830/3/6 1836/3/6
f 1831/3/6 1832/3/6 1837/3/6
f 1837/3/6 1832/3/6 1838/3/6
f 1839/3/6 1840/3/6 1847/3/6
f 1847/3/6 1840/3/6 1848/3/6
f 1841/3/6 1842/3/6 1849/3/6
f 1849/3/6 1842/3/6 1850/3/6
f 1843/1/6 1844/1/6 1851/1/6
f 1851/1/6 1844/1/6 1852/1/6
f 1845/3/6 1846/3/6 1853/3/6
f 1853/3/6 1846/3/6 1854/3/6
f 1839/3/6 1847/3/6 1859/3/6
f 1859/3/6 1847/3/6 1860/3/6
f 1848/3/6 1849/3/6 1861/3/6
f 1861/3/6 1849/3/6 1862/3/6
f 1855/1/6 1856/1/6 1865/1/6
f 1865/1/6 1856/1/6 1866/1/6
f 1857/3/6 1858/3/6 1870/3/6
f 1870/3/6 1858/3/6 1871/3/6
f 1860/3/6 1861/3/6 1872/3/6
f 1872/3/6 1861/3/6 1873/3/6
f 1863/3/6 1864/3/6 1874/3/6
f 1874/3/6 1864/3/6 1875/3/6
f 1868/3/6 1869/3/6 1876/3/6
f 1865/3/6 1866/3/6 1878/3/6
f 1866/2/6 1867/2/6 1879/2/6
f 1878/3/6 1866/3/6 1879/3/6
f 1879/2/6 1867/2/6 1880/2/6
f 1876/3/6 1877/3/6 1883/3/6
f 1868/3/6 1876/3/6 1883/3/6
f 1883/3/6 1877/3/6 1884/3/6
f 1880/3/6 1881/3/6 1887/3/6
f 1879/3/6 1880/3/6 1887/3/6
f 1887/3/6 1881/3/6 1888/3/6
f 1882/3/6 1883/3/6 1891/3/6
f 1891/3/6 1883/3/6 1892/3/6
f 1884/3/6 1877/3/6 1893/3/6
f 1893/3/6 1877/3/6 1894/3/6
f 1885/1/6 1886/1/6 1895/1/6
f 1895/1/6 1886/1/6 1896/1/6
f 1889/1/6 1890/1/6 1901/1/6
f 1901/1/6 1890/1/6 1902/1/6
f 1899/1/6 1900/1/6 1903/1/6
f 1903/1/6 1900/1/6 1904/1/6
f 1897/3/6 1898/3/6 1908/3/6
f 1908/3/6 1898/3/6 1909/3/6
f 1909/3/6 1898/3/6 1910/3/6
f 1905/3/6 1906/3/6 1911/3/6
f 1911/3/6 1906/3/6 1912/3/6
f 1912/3/6 1906/3/6 1913/3/6
f 1908/3/6 1909/3/6 1915/3/6
f 1907/3/6 1908/3/6 1915/3/6
f 1915/3/6 1909/3/6 1916/3/6
f 1912/2/6 1913/2/6 1921/2/6
f 1913/3/6 1914/3/6 1922/3/6
f 1921/2/6 1913/2/6 1922/2/6
f 1922/3/6 1914/3/6 1923/3/6
f 1917/3/6 1918/3/6 1928/3/6
f 1928/3/6 1918/3/6 1929/3/6
f 1919/3/6 1920/3/6 1930/3/6
f 1930/3/6 1920/3/6 1931/3/6
f 1922/1/6 1923/1/6 1932/1/6
f 1923/3/6 1924/3/6 1933/3/6
f 1932/1/6 1923/1/6 1933/1/6
f 1933/3/6 1924/3/6 1934/3/6
f 1925/1/6 1926/1/6 1936/1/6
f 1936/1/6 1926/1/6 1937/1/6
f 1927/3/6 1928/3/6 1938/3/6
f 1928/1/6 1929/1/6 1939/1/6
f 1938/3/6 1928/3/6 1939/3/6
f 1939/1/6 1929/1/6 1940/1/6
f 1935/3/6 1936/3/6 1946/3/6
f 1946/3/6 1936/3/6 1947/3/6
f 1937/3/6 1938/3/6 1948/3/6
f 1948/3/6 1938/3/6 1949/3/6
f 1938/2/6 1939/2/6 1950/2/6
f 1949/3/6 1938/3/6 1950/3/6
f 1950/2/6 1939/2/6 1951/2/6
f 1941/3/6 1942/3/6 1952/3/6
f 1952/3/6 1942/3/6 1953/3/6
f 1943/1/6 1944/1/6 1954/1/6
f 1954/1/6 1944/1/6 1955/1/6
f 1945/3/6 1946/3/6 1956/3/6
f 1956/3/6 1946/3/6 1957/3/6
f 1949/3/6 1950/3/6 1958/3/6
f 1958/3/6 1950/3/6 1959/3/6
f 1960/3/6 1961/3/6 1966/3/6
f 1966/3/6 1961/3/6 1967/3/6
f 1962/3/6 1963/3/6 1968/3/6
f 1968/3/6 1963/3/6 1969/3/6
f 1963/1/6 1964/1/6 1970/1/6
f 1969/3/6 1963/3/6 1970/3/6
f 1964/2/6 1965/2/6 1971/2/6
f 1970/1/6 1964/1/6 1971/1/6
f 1971/2/6 1965/2/6 1972/2/6
f 1969/3/6 1970/3/6 1981/3/6
f 1981/3/6 1970/3/6 1982/3/6
f 1972/3/6 1973/3/6 1983/3/6
f 1983/3/6 1973/3/6 1984/3/6
f 1974/1/6 1975/1/6 1989/1/6
f 1989/1/6 1975/1/6 1990/1/6
f 1976/3/6 1977/3/6 1991/3/6
f 1977/1/6 1978/1/6 1992/1/6
f 1991/3/6 1977/3/6 1992/3/6
f 1992/1/6 1978/1/6 1993/1/6
f 1979/1/6 1980/1/6 1994/1/6
f 1994/1/6 1980/1/6 1995/1/6
f 1985/3/6 1986/3/6 1998/3/6
f 1998/3/6 1986/3/6 1999/3/6
f 1987/3/6 1988/3/6 2000/3/6
f 2000/3/6 1988/3/6 2001/3/6
f 1989/3/6 1990/3/6 2002/3/6
f 1990/3/6 1991/3/6 2002/3/6
f 2002/3/6 1991/3/6 2003/3/6
f 2003/3/6 1991/3/6 2004/3/6
f 1994/3/6 1995/3/6 2011/3/6
f 2011/3/6 1995/3/6 2012/3/6
f 2007/3/6 2008/3/6 2017/3/6
f 2017/3/6 2008/3/6 2018/3/6
f 2009/3/6 2010/3/6 2021/3/6
f 2021/3/6 2010/3/6 2022/3/6
f 2012/3/6 2013/3/6 2024/3/6
f 2024/3/6 2013/3/6 2025/3/6
f 2014/3/6 2015/3/6 2026/3/6
f 2015/2/6 2016/2/6 2027/2/6
f 2026/3/6 2015/3/6 2027/3/6
f 2027/2/6 2016/2/6 2028/2/6
f 1996/3/6 1997/3/6 2029/3/6
f 2029/3/6 1997/3/6 2030/3/6
f 2005/3/6 2006/3/6 2031/3/6
f 2031/3/6 2006/3/6 2032/3/6
f 2019/3/6 2020/3/6 2035/3/6
f 2035/3/6 2020/3/6 2036/3/6
f 2021/2/6 2022/2/6 2037/2/6
f 2037/2/6 2022/2/6 2038/2/6
f 2024/3/6 2025/3/6 2040/3/6
f 2023/3/6 2024/3/6 2040/3/6
f 2033/3/6 2034/3/6 2043/3/6
f 2039/3/6 2040/3/6 2047/3/6
f 2040/3/6 2025/3/6 2048/3/6
f 2047/3/6 2040/3/6 2048/3/6
f 2048/3/6 2025/3/6 2049/3/6
f 2049/3/6 2025/3/6 2050/3/6
f 2041/3/6 2042/3/6 2051/3/6
f 2051/3/6 2042/3/6 2052/3/6
f 2033/3/6 2043/3/6 2053/3/6
f 2043/3/6 2044/3/6 2053/3/6
f 2053/3/6 2044/3/6 2054/3/6
f 2045/2/6 2046/2/6 2055/2/6
f 2055/2/6 2046/2/6 2056/2/6
f 2048/1/6 2049/1/6 2057/1/6
f 2057/1/6 2049/1/6 2058/1/6
f 2057/2/6 2058/2/6 2062/2/6
f 2062/2/6 2058/2/6 2063/2/6
f 2054/3/6 2044/3/6 2068/3/6
f 2068/3/6 2044/3/6 2069/3/6
f 2059/3/6 2060/3/6 2073/3/6
f 2073/3/6 2060/3/6 2074/3/6
f 2074/3/6 2060/3/6 2075/3/6
f 2061/3/6 2062/3/6 2076/3/6
f 2076/3/6 2062/3/6 2077/3/6
f 2064/3/6 2065/3/6 2078/3/6
f 2078/3/6 2065/3/6 2079/3/6
f 2066/3/6 2067/3/6 2080/3/6
f 2080/3/6 2067/3/6 2081/3/6
f 2070/3/6 2071/3/6 2086/3/6
f 2086/3/6 2071/3/6 2087/3/6
f 2072/3/6 2073/3/6 2088/3/6
f 2073/3/6 2074/3/6 2088/3/6
f 2088/3/6 2074/3/6 2089/3/6
f 2082/3/6 2083/3/6 2090/3/6
f 2090/3/6 2083/3/6 2091/3/6
f 2084/3/6 2085/3/6 2093/3/6
f 2093/3/6 2085/3/6 2094/3/6
f 2091/2/6 2092/2/6 2098/2/6
f 2092/1/6 2093/1/6 2099/1/6
f 2098/2/6 2092/2/6 2099/2/6
f 2094/3/6 2095/3/6 2100/3/6
f 2099/1/6 2093/1/6 2100/1/6
f 2093/3/6 2094/3/6 2100/3/6
f 2100/3/6 2095/3/6 2101/3/6
f 2096/3/6 2097/3/6 2102/3/6
f 2102/3/6 2097/3/6 2103/3/6
f 2104/3/6 2105/3/6 2116/3/6
f 2116/3/6 2105/3/6 2117/3/6
f 2105/1/6 2106/1/6 2118/1/6
f 2117/3/6 2105/3/6 2118/3/6
f 2106/2/6 2107/2/6 2119/2/6
f 2108/1/6 2109/1/6 2120/1/6
f 2111/3/6 2112/3/6 2121/3/6
f 2121/3/6 2112/3/6 2122/3/6
f 2112/1/6 2113/1/6 2123/1/6
f 2122/3/6 2112/3/6 2123/3/6
f 2113/3/6 2114/3/6 2124/3/6
f 2123/1/6 2113/1/6 2124/1/6
f 2114/2/6 2115/2/6 2125/2/6
f 2124/3/6 2114/3/6 2125/3/6
f 2125/2/6 2115/2/6 2126/2/6
f 2116/2/6 2117/2/6 2130/2/6
f 2118/1/6 2106/1/6 2131/1/6
f 2124/3/6 2125/3/6 2134/3/6
f 2127/2/6 2128/2/6 2137/2/6
f 2137/2/6 2128/2/6 2138/2/6
f 2128/3/6 2129/3/6 2139/3/6
f 2138/2/6 2128/2/6 2139/2/6
f 2106/2/6 2119/2/6 2140/2/6
f 2131/1/6 2106/1/6 2140/1/6
f 2119/3/6 2120/3/6 2141/3/6
f 2140/2/6 2119/2/6 2141/2/6
f 2120/1/6 2109/1/6 2142/1/6
f 2141/3/6 2120/3/6 2142/3/6
f 2132/3/6 2133/3/6 2143/3/6
f 2124/3/6 2134/3/6 2145/3/6
f 2134/2/6 2135/2/6 2146/2/6
f 2145/3/6 2134/3/6 2146/3/6
f 2146/2/6 2135/2/6 2147/2/6
f 2137/3/6 2138/3/6 2148/3/6
f 2136/3/6 2137/3/6 2148/3/6
f 2148/3/6 2138/3/6 2149/3/6
f 2149/3/6 2138/3/6 2150/3/6
f 2139/3/6 2129/3/6 2151/3/6
f 2151/3/6 2129/3/6 2152/3/6
f 2116/2/6 2130/2/6 2153/2/6
f 2130/3/6 2131/3/6 2154/3/6
f 2153/2/6 2130/2/6 2154/2/6
f 2131/1/6 2140/1/6 2155/1/6
f 2154/3/6 2131/3/6 2155/3/6
f 2140/1/6 2141/1/6 2155/1/6
f 2141/1/6 2142/1/6 2155/1/6
f 2155/1/6 2142/1/6 2156/1/6
f 2142/1/6 2109/1/6 2157/1/6
f 2156/1/6 2142/1/6 2157/1/6
f 2143/3/6 2144/3/6 2158/3/6
f 2132/3/6 2143/3/6 2158/3/6
f 2158/3/6 2144/3/6 2159/3/6
f 2146/1/6 2147/1/6 2160/1/6
f 2145/1/6 2146/1/6 2160/1/6
f 2160/1/6 2147/1/6 2161/1/6
f 2161/1/6 2147/1/6 2162/1/6
f 2151/1/6 2152/1/6 2168/1/6
f 2149/1/6 2150/1/6 2168/1/6
f 2150/1/6 2151/1/6 2168/1/6
f 2168/1/6 2152/1/6 2169/1/6
f 2154/3/6 2155/3/6 2170/3/6
f 2170/3/6 2155/3/6 2171/3/6
f 2156/3/6 2157/3/6 2173/3/6
f 2157/1/6 2109/1/6 2174/1/6
f 2173/3/6 2157/3/6 2174/3/6
f 2109/2/6 2110/2/6 2175/2/6
f 2174/1/6 2109/1/6 2175/1/6
f 2175/2/6 2110/2/6 2176/2/6
f 2161/2/6 2162/2/6 2178/2/6
f 2162/2/6 2163/2/6 2178/2/6
f 2178/2/6 2163/2/6 2179/2/6
f 2164/2/6 2165/2/6 2180/2/6
f 2165/1/6 2166/1/6 2181/1/6
f 2180/2/6 2165/2/6 2181/2/6
f 2166/2/6 2167/2/6 2182/2/6
f 2181/1/6 2166/1/6 2182/1/6
f 2182/2/6 2167/2/6 2183/2/6
f 2149/1/6 2168/1/6 2184/1/6
f 2168/2/6 2169/2/6 2185/2/6
f 2184/1/6 2168/1/6 2185/1/6
f 2185/2/6 2169/2/6 2186/2/6
f 2186/2/6 2169/2/6 2187/2/6
f 2132/3/6 2158/3/6 2188/3/6
f 2188/3/6 2158/3/6 2189/3/6
f 2160/3/6 2161/3/6 2191/3/6
f 2161/2/6 2178/2/6 2192/2/6
f 2191/3/6 2161/3/6 2192/3/6
f 2180/3/6 2181/3/6 2193/3/6
f 2192/2/6 2178/2/6 2193/2/6
f 2179/3/6 2180/3/6 2193/3/6
f 2178/3/6 2179/3/6 2193/3/6
f 2193/3/6 2181/3/6 2194/3/6
f 2181/1/6 2182/1/6 2195/1/6
f 2194/3/6 2181/3/6 2195/3/6
f 2183/3/6 2184/3/6 2196/3/6
f 2195/1/6 2182/1/6 2196/1/6
f 2182/3/6 2183/3/6 2196/3/6
f 2196/3/6 2184/3/6 2197/3/6
f 2184/1/6 2185/1/6 2198/1/6
f 2197/3/6 2184/3/6 2198/3/6
f 2185/3/6 2186/3/6 2199/3/6
f 2198/1/6 2185/1/6 2199/1/6
f 2199/3/6 2186/3/6 2200/3/6
f 2172/2/6 2173/2/6 2202/2/6
f 2173/3/6 2174/3/6 2203/3/6
f 2202/2/6 2173/2/6 2203/2/6
f 2203/3/6 2174/3/6 2204/3/6
f 2176/3/6 2177/3/6 2206/3/6
f 2191/3/6 2192/3/6 2207/3/6
f 2190/1/6 2191/1/6 2207/1/6
f 2207/3/6 2192/3/6 2208/3/6
f 2193/1/6 2194/1/6 2209/1/6
f 2209/1/6 2194/1/6 2210/1/6
f 2200/1/6 2201/1/6 2213/1/6
f 2199/1/6 2200/1/6 2213/1/6
f 2198/1/6 2199/1/6 2213/1/6
f 2197/1/6 2198/1/6 2213/1/6
f 2213/1/6 2201/1/6 2214/1/6
f 2203/1/6 2204/1/6 2215/1/6
f 2202/1/6 2203/1/6 2215/1/6
f 2215/1/6 2204/1/6 2216/1/6
f 2216/1/6 2204/1/6 2217/1/6
f 2205/3/6 2206/3/6 2218/3/6
f 2206/3/6 2177/3/6 2219/3/6
f 2218/3/6 2206/3/6 2219/3/6
f 2208/1/6 2209/1/6 2220/1/6
f 2207/1/6 2208/1/6 2220/1/6
f 2190/1/6 2207/1/6 2220/1/6
f 2220/1/6 2209/1/6 2221/1/6
f 2209/3/6 2210/3/6 2222/3/6
f 2221/1/6 2209/1/6 2222/1/6
f 2222/3/6 2210/3/6 2223/3/6
f 2211/3/6 2212/3/6 2224/3/6
f 2224/3/6 2212/3/6 2225/3/6
f 2213/2/6 2214/2/6 2226/2/6
f 2226/2/6 2214/2/6 2227/2/6
f 2215/2/6 2216/2/6 2228/2/6
f 2216/3/6 2217/3/6 2229/3/6
f 2228/2/6 2216/2/6 2229/2/6
f 2219/3/6 2177/3/6 2230/3/6
f 2230/3/6 2177/3/6 2231/3/6
f 2224/3/6 2225/3/6 2232/3/6
f 2222/3/6 2223/3/6 2232/3/6
f 2225/3/6 2226/3/6 2232/3/6
f 2221/2/6 2222/2/6 2232/2/6
f 2223/3/6 2224/3/6 2232/3/6
f 2232/3/6 2226/3/6 2233/3/6
f 2233/3/6 2226/3/6 2234/3/6
f 2234/3/6 2226/3/6 2235/3/6
f 2235/3/6 2226/3/6 2236/3/6
f 2229/3/6 2217/3/6 2238/3/6
f 2238/3/6 2217/3/6 2239/3/6
f 2220/3/6 2221/3/6 2243/3/6
f 2190/1/6 2220/1/6 2243/1/6
f 2221/2/6 2232/2/6 2244/2/6
f 2243/3/6 2221/3/6 2244/3/6
f 2232/1/6 2233/1/6 2245/1/6
f 2234/2/6 2235/2/6 2246/2/6
f 2246/2/6 2235/2/6 2247/2/6
f 2237/2/6 2238/2/6 2248/2/6
f 2238/3/6 2239/3/6 2249/3/6
f 2248/2/6 2238/2/6 2249/2/6
f 2239/1/6 2240/1/6 2250/1/6
f 2249/3/6 2239/3/6 2250/3/6
f 2241/3/6 2242/3/6 2251/3/6
f 2250/1/6 2240/1/6 2251/1/6
f 2240/3/6 2241/3/6 2251/3/6
f 2251/3/6 2242/3/6 2252/3/6
f 2189/2/6 2190/2/6 2253/2/6
f 2190/1/6 2243/1/6 2254/1/6
f 2253/2/6 2190/2/6 2254/2/6
f 2254/1/6 2243/1/6 2255/1/6
f 2244/2/6 2232/2/6 2256/2/6
f 2232/1/6 2245/1/6 2257/1/6
f 2256/2/6 2232/2/6 2257/2/6
f 2245/3/6 2246/3/6 2258/3/6
f 2257/1/6 2245/1/6 2258/1/6
f 2246/3/6 2247/3/6 2258/3/6
f 2258/3/6 2247/3/6 2259/3/6
f 2260/3/6 2261/3/6 2265/3/6
f 2265/3/6 2261/3/6 2266/3/6
f 2262/2/6 2263/2/6 2269/2/6
f 2263/3/6 2264/3/6 2270/3/6
f 2269/2/6 2263/2/6 2270/2/6
f 2267/3/6 2268/3/6 2271/3/6
f 2271/3/6 2268/3/6 2272/3/6
f 2270/3/6 2264/3/6 2274/3/6
f 2273/2/6 2274/2/6 2278/2/6
f 2274/3/6 2264/3/6 2279/3/6
f 2278/2/6 2274/2/6 2279/2/6
f 2279/3/6 2264/3/6 2280/3/6
f 2276/2/6 2277/2/6 2283/2/6
f 2275/3/6 2276/3/6 2283/3/6
f 2283/2/6 2277/2/6 2284/2/6
f 2281/3/6 2282/3/6 2285/3/6
f 2285/3/6 2282/3/6 2286/3/6
f 2286/3/6 2282/3/6 2287/3/6
f 2287/3/6 2282/3/6 2288/3/6
f 2275/3/6 2283/3/6 2289/3/6
f 2285/2/6 2286/2/6 2291/2/6
f 2291/2/6 2286/2/6 2292/2/6
f 2287/2/6 2288/2/6 2293/2/6
f 2293/2/6 2288/2/6 2294/2/6
f 2275/3/6 2289/3/6 2297/3/6
f 2289/2/6 2290/2/6 2298/2/6
f 2297/3/6 2289/3/6 2298/3/6
f 2298/2/6 2290/2/6 2299/2/6
f 2295/3/6 2296/3/6 2300/3/6
f 2300/3/6 2296/3/6 2301/3/6
