# MagicaVoxel @ Ephtracy

# group
g switch

# material
mtllib switch.mtl
usemtl palette

# normals
vn -1 0 0
vn 1 0 0
vn 0 0 1
vn 0 0 -1
vn 0 -1 0
vn 0 1 0

# texcoords
vt 0.826172 0.5
vt 0.833984 0.5
vt 0.837891 0.5

# verts
v -4.5 2 1.5
v -4.5 2 -0.5
v -4.5 3 1.5
v -4.5 3 -0.5
v -3.5 1 2.5
v -3.5 1 -1.5
v -3.5 2 2.5
v -3.5 2 1.5
v -3.5 2 -0.5
v -3.5 2 -1.5
v -3.5 3 2.5
v -3.5 3 1.5
v -3.5 3 -0.5
v -3.5 3 -1.5
v -2.5 0 2.5
v -2.5 0 -1.5
v -2.5 1 3.5
v -2.5 1 2.5
v -2.5 1 -1.5
v -2.5 1 -2.5
v -2.5 2 3.5
v -2.5 2 2.5
v -2.5 2 -1.5
v -2.5 2 -2.5
v -2.5 3 3.5
v -2.5 3 2.5
v -2.5 3 -1.5
v -2.5 3 -2.5
v -2.5 7 2.5
v -2.5 7 1.5
v -2.5 7 -0.5
v -2.5 7 -1.5
v -2.5 8 2.5
v -2.5 8 1.5
v -2.5 8 -0.5
v -2.5 8 -1.5
v -1.5 1 1.5
v -1.5 1 -0.5
v -1.5 2 4.5
v -1.5 2 3.5
v -1.5 2 1.5
v -1.5 2 -0.5
v -1.5 2 -2.5
v -1.5 2 -3.5
v -1.5 3 4.5
v -1.5 3 3.5
v -1.5 3 -2.5
v -1.5 3 -3.5
v -1.5 4 1.5
v -1.5 4 -0.5
v -1.5 5 1.5
v -1.5 5 -0.5
v -1.5 6 1.5
v -1.5 6 -0.5
v -1.5 7 3.5
v -1.5 7 2.5
v -1.5 7 1.5
v -1.5 7 -0.5
v -1.5 7 -1.5
v -1.5 7 -2.5
v -1.5 8 4.5
v -1.5 8 3.5
v -1.5 8 2.5
v -1.5 8 -1.5
v -1.5 8 -2.5
v -1.5 8 -3.5
v -1.5 9 4.5
v -1.5 9 3.5
v -1.5 9 -2.5
v -1.5 9 -3.5
v 0.5 1 2.5
v 0.5 1 1.5
v 0.5 1 -0.5
v 0.5 1 -1.5
v 0.5 2 3.5
v 0.5 2 2.5
v 0.5 2 1.5
v 0.5 2 -0.5
v 0.5 2 -1.5
v 0.5 2 -2.5
v 0.5 3 3.5
v 0.5 3 2.5
v 0.5 3 -1.5
v 0.5 3 -2.5
v 1.5 1 1.5
v 1.5 1 -0.5
v 1.5 2 2.5
v 1.5 2 1.5
v 1.5 2 -0.5
v 1.5 2 -1.5
v 1.5 3 2.5
v 1.5 3 1.5
v 1.5 3 -0.5
v 1.5 3 -1.5
v 2.5 2 1.5
v 2.5 2 -0.5
v 2.5 3 1.5
v 2.5 3 -0.5
v -3.5 2 1.5
v -3.5 2 -0.5
v -3.5 3 1.5
v -3.5 3 -0.5
v -2.5 1 1.5
v -2.5 1 -0.5
v -2.5 2 2.5
v -2.5 2 1.5
v -2.5 2 -0.5
v -2.5 2 -1.5
v -2.5 3 2.5
v -2.5 3 1.5
v -2.5 3 -0.5
v -2.5 3 -1.5
v -1.5 1 2.5
v -1.5 1 1.5
v -1.5 1 -0.5
v -1.5 1 -1.5
v -1.5 2 3.5
v -1.5 2 2.5
v -1.5 2 1.5
v -1.5 2 -0.5
v -1.5 2 -1.5
v -1.5 2 -2.5
v -1.5 3 3.5
v -1.5 3 2.5
v -1.5 3 -1.5
v -1.5 3 -2.5
v 0.5 1 1.5
v 0.5 1 -0.5
v 0.5 2 4.5
v 0.5 2 3.5
v 0.5 2 1.5
v 0.5 2 -0.5
v 0.5 2 -2.5
v 0.5 2 -3.5
v 0.5 3 4.5
v 0.5 3 3.5
v 0.5 3 -2.5
v 0.5 3 -3.5
v 0.5 4 1.5
v 0.5 4 -0.5
v 0.5 5 1.5
v 0.5 5 -0.5
v 0.5 6 1.5
v 0.5 6 -0.5
v 0.5 7 3.5
v 0.5 7 2.5
v 0.5 7 1.5
v 0.5 7 -0.5
v 0.5 7 -1.5
v 0.5 7 -2.5
v 0.5 8 4.5
v 0.5 8 3.5
v 0.5 8 2.5
v 0.5 8 -1.5
v 0.5 8 -2.5
v 0.5 8 -3.5
v 0.5 9 4.5
v 0.5 9 3.5
v 0.5 9 -2.5
v 0.5 9 -3.5
v 1.5 0 2.5
v 1.5 0 -1.5
v 1.5 1 3.5
v 1.5 1 2.5
v 1.5 1 -1.5
v 1.5 1 -2.5
v 1.5 2 3.5
v 1.5 2 2.5
v 1.5 2 -1.5
v 1.5 2 -2.5
v 1.5 3 3.5
v 1.5 3 2.5
v 1.5 3 -1.5
v 1.5 3 -2.5
v 1.5 7 2.5
v 1.5 7 1.5
v 1.5 7 -0.5
v 1.5 7 -1.5
v 1.5 8 2.5
v 1.5 8 1.5
v 1.5 8 -0.5
v 1.5 8 -1.5
v 2.5 1 2.5
v 2.5 1 -1.5
v 2.5 2 2.5
v 2.5 2 1.5
v 2.5 2 -0.5
v 2.5 2 -1.5
v 2.5 3 2.5
v 2.5 3 1.5
v 2.5 3 -0.5
v 2.5 3 -1.5
v 3.5 2 1.5
v 3.5 2 -0.5
v 3.5 3 1.5
v 3.5 3 -0.5
v -1.5 2 4.5
v -1.5 3 4.5
v -1.5 8 4.5
v -1.5 9 4.5
v 0.5 2 4.5
v 0.5 3 4.5
v 0.5 8 4.5
v 0.5 9 4.5
v -2.5 1 3.5
v -2.5 2 3.5
v -2.5 3 3.5
v -1.5 2 3.5
v -1.5 3 3.5
v -1.5 7 3.5
v -1.5 8 3.5
v 0.5 2 3.5
v 0.5 3 3.5
v 0.5 7 3.5
v 0.5 8 3.5
v 1.5 1 3.5
v 1.5 2 3.5
v 1.5 3 3.5
v -3.5 1 2.5
v -3.5 2 2.5
v -3.5 3 2.5
v -2.5 0 2.5
v -2.5 1 2.5
v -2.5 2 2.5
v -2.5 3 2.5
v -2.5 7 2.5
v -2.5 8 2.5
v -1.5 7 2.5
v -1.5 8 2.5
v 0.5 7 2.5
v 0.5 8 2.5
v 1.5 0 2.5
v 1.5 1 2.5
v 1.5 2 2.5
v 1.5 3 2.5
v 1.5 7 2.5
v 1.5 8 2.5
v 2.5 1 2.5
v 2.5 2 2.5
v 2.5 3 2.5
v -4.5 2 1.5
v -4.5 3 1.5
v -3.5 2 1.5
v -3.5 3 1.5
v -1.5 1 1.5
v -1.5 2 1.5
v -1.5 4 1.5
v -1.5 5 1.5
v -1.5 6 1.5
v -1.5 7 1.5
v 0.5 1 1.5
v 0.5 2 1.5
v 0.5 4 1.5
v 0.5 5 1.5
v 0.5 6 1.5
v 0.5 7 1.5
v 2.5 2 1.5
v 2.5 3 1.5
v 3.5 2 1.5
v 3.5 3 1.5
v -3.5 2 -0.5
v -3.5 3 -0.5
v -2.5 1 -0.5
v -2.5 2 -0.5
v -2.5 3 -0.5
v -1.5 1 -0.5
v -1.5 2 -0.5
v 0.5 1 -0.5
v 0.5 2 -0.5
v 1.5 1 -0.5
v 1.5 2 -0.5
v 1.5 3 -0.5
v 2.5 2 -0.5
v 2.5 3 -0.5
v -2.5 2 -1.5
v -2.5 3 -1.5
v -1.5 1 -1.5
v -1.5 2 -1.5
v -1.5 3 -1.5
v 0.5 1 -1.5
v 0.5 2 -1.5
v 0.5 3 -1.5
v 1.5 2 -1.5
v 1.5 3 -1.5
v -1.5 2 -2.5
v -1.5 3 -2.5
v -1.5 8 -2.5
v -1.5 9 -2.5
v 0.5 2 -2.5
v 0.5 3 -2.5
v 0.5 8 -2.5
v 0.5 9 -2.5
v -1.5 2 3.5
v -1.5 3 3.5
v -1.5 8 3.5
v -1.5 9 3.5
v 0.5 2 3.5
v 0.5 3 3.5
v 0.5 8 3.5
v 0.5 9 3.5
v -2.5 2 2.5
v -2.5 3 2.5
v -1.5 1 2.5
v -1.5 2 2.5
v -1.5 3 2.5
v 0.5 1 2.5
v 0.5 2 2.5
v 0.5 3 2.5
v 1.5 2 2.5
v 1.5 3 2.5
v -3.5 2 1.5
v -3.5 3 1.5
v -2.5 1 1.5
v -2.5 2 1.5
v -2.5 3 1.5
v -1.5 1 1.5
v -1.5 2 1.5
v 0.5 1 1.5
v 0.5 2 1.5
v 1.5 1 1.5
v 1.5 2 1.5
v 1.5 3 1.5
v 2.5 2 1.5
v 2.5 3 1.5
v -4.5 2 -0.5
v -4.5 3 -0.5
v -3.5 2 -0.5
v -3.5 3 -0.5
v -1.5 1 -0.5
v -1.5 2 -0.5
v -1.5 4 -0.5
v -1.5 5 -0.5
v -1.5 6 -0.5
v -1.5 7 -0.5
v 0.5 1 -0.5
v 0.5 2 -0.5
v 0.5 4 -0.5
v 0.5 5 -0.5
v 0.5 6 -0.5
v 0.5 7 -0.5
v 2.5 2 -0.5
v 2.5 3 -0.5
v 3.5 2 -0.5
v 3.5 3 -0.5
v -3.5 1 -1.5
v -3.5 2 -1.5
v -3.5 3 -1.5
v -2.5 0 -1.5
v -2.5 1 -1.5
v -2.5 2 -1.5
v -2.5 3 -1.5
v -2.5 7 -1.5
v -2.5 8 -1.5
v -1.5 7 -1.5
v -1.5 8 -1.5
v 0.5 7 -1.5
v 0.5 8 -1.5
v 1.5 0 -1.5
v 1.5 1 -1.5
v 1.5 2 -1.5
v 1.5 3 -1.5
v 1.5 7 -1.5
v 1.5 8 -1.5
v 2.5 1 -1.5
v 2.5 2 -1.5
v 2.5 3 -1.5
v -2.5 1 -2.5
v -2.5 2 -2.5
v -2.5 3 -2.5
v -1.5 2 -2.5
v -1.5 3 -2.5
v -1.5 7 -2.5
v -1.5 8 -2.5
v 0.5 2 -2.5
v 0.5 3 -2.5
v 0.5 7 -2.5
v 0.5 8 -2.5
v 1.5 1 -2.5
v 1.5 2 -2.5
v 1.5 3 -2.5
v -1.5 2 -3.5
v -1.5 3 -3.5
v -1.5 8 -3.5
v -1.5 9 -3.5
v 0.5 2 -3.5
v 0.5 3 -3.5
v 0.5 8 -3.5
v 0.5 9 -3.5
v -2.5 0 2.5
v 1.5 0 2.5
v -2.5 0 -1.5
v 1.5 0 -1.5
v -2.5 1 3.5
v 1.5 1 3.5
v -3.5 1 2.5
v -2.5 1 2.5
v 1.5 1 2.5
v 2.5 1 2.5
v -3.5 1 -1.5
v -2.5 1 -1.5
v 1.5 1 -1.5
v 2.5 1 -1.5
v -2.5 1 -2.5
v 1.5 1 -2.5
v -1.5 2 4.5
v 0.5 2 4.5
v -1.5 2 3.5
v 0.5 2 3.5
v -4.5 2 1.5
v -3.5 2 1.5
v 2.5 2 1.5
v 3.5 2 1.5
v -4.5 2 -0.5
v -3.5 2 -0.5
v 2.5 2 -0.5
v 3.5 2 -0.5
v -1.5 2 -2.5
v 0.5 2 -2.5
v -1.5 2 -3.5
v 0.5 2 -3.5
v -1.5 7 3.5
v 0.5 7 3.5
v -2.5 7 2.5
v -1.5 7 2.5
v 0.5 7 2.5
v 1.5 7 2.5
v -2.5 7 1.5
v -1.5 7 1.5
v 0.5 7 1.5
v 1.5 7 1.5
v -2.5 7 -0.5
v -1.5 7 -0.5
v 0.5 7 -0.5
v 1.5 7 -0.5
v -2.5 7 -1.5
v -1.5 7 -1.5
v 0.5 7 -1.5
v 1.5 7 -1.5
v -1.5 7 -2.5
v 0.5 7 -2.5
v -1.5 8 4.5
v 0.5 8 4.5
v -1.5 8 3.5
v 0.5 8 3.5
v -1.5 8 -2.5
v 0.5 8 -2.5
v -1.5 8 -3.5
v 0.5 8 -3.5
v -1.5 1 2.5
v 0.5 1 2.5
v -2.5 1 1.5
v -1.5 1 1.5
v 0.5 1 1.5
v 1.5 1 1.5
v -2.5 1 -0.5
v -1.5 1 -0.5
v 0.5 1 -0.5
v 1.5 1 -0.5
v -1.5 1 -1.5
v 0.5 1 -1.5
v -1.5 2 3.5
v 0.5 2 3.5
v -2.5 2 2.5
v -1.5 2 2.5
v 0.5 2 2.5
v 1.5 2 2.5
v -3.5 2 1.5
v -2.5 2 1.5
v -1.5 2 1.5
v 0.5 2 1.5
v 1.5 2 1.5
v 2.5 2 1.5
v -3.5 2 -0.5
v -2.5 2 -0.5
v -1.5 2 -0.5
v 0.5 2 -0.5
v 1.5 2 -0.5
v 2.5 2 -0.5
v -2.5 2 -1.5
v -1.5 2 -1.5
v 0.5 2 -1.5
v 1.5 2 -1.5
v -1.5 2 -2.5
v 0.5 2 -2.5
v -1.5 3 4.5
v 0.5 3 4.5
v -2.5 3 3.5
v -1.5 3 3.5
v 0.5 3 3.5
v 1.5 3 3.5
v -3.5 3 2.5
v -2.5 3 2.5
v -1.5 3 2.5
v 0.5 3 2.5
v 1.5 3 2.5
v 2.5 3 2.5
v -4.5 3 1.5
v -3.5 3 1.5
v -2.5 3 1.5
v 1.5 3 1.5
v 2.5 3 1.5
v 3.5 3 1.5
v -4.5 3 -0.5
v -3.5 3 -0.5
v -2.5 3 -0.5
v 1.5 3 -0.5
v 2.5 3 -0.5
v 3.5 3 -0.5
v -3.5 3 -1.5
v -2.5 3 -1.5
v -1.5 3 -1.5
v 0.5 3 -1.5
v 1.5 3 -1.5
v 2.5 3 -1.5
v -2.5 3 -2.5
v -1.5 3 -2.5
v 0.5 3 -2.5
v 1.5 3 -2.5
v -1.5 3 -3.5
v 0.5 3 -3.5
v -1.5 8 3.5
v 0.5 8 3.5
v -2.5 8 2.5
v -1.5 8 2.5
v 0.5 8 2.5
v 1.5 8 2.5
v -2.5 8 1.5
v -1.5 8 1.5
v 0.5 8 1.5
v 1.5 8 1.5
v -2.5 8 -0.5
v -1.5 8 -0.5
v 0.5 8 -0.5
v 1.5 8 -0.5
v -2.5 8 -1.5
v -1.5 8 -1.5
v 0.5 8 -1.5
v 1.5 8 -1.5
v -1.5 8 -2.5
v 0.5 8 -2.5
v -1.5 9 4.5
v 0.5 9 4.5
v -1.5 9 3.5
v 0.5 9 3.5
v -1.5 9 -2.5
v 0.5 9 -2.5
v -1.5 9 -3.5
v 0.5 9 -3.5

# faces
f 3/1/1 2/1/1 1/1/1
f 4/1/1 2/1/1 3/1/1
f 7/3/1 6/3/1 5/3/1
f 8/3/1 6/3/1 7/3/1
f 9/3/1 6/3/1 8/3/1
f 10/3/1 6/3/1 9/3/1
f 11/1/1 8/1/1 7/1/1
f 12/1/1 8/1/1 11/1/1
f 13/1/1 10/1/1 9/1/1
f 14/1/1 10/1/1 13/1/1
f 18/2/1 16/2/1 15/2/1
f 19/2/1 16/2/1 18/2/1
f 21/3/1 18/3/1 17/3/1
f 22/3/1 18/3/1 21/3/1
f 23/3/1 20/3/1 19/3/1
f 24/3/1 20/3/1 23/3/1
f 25/1/1 22/1/1 21/1/1
f 26/1/1 22/1/1 25/1/1
f 27/1/1 24/1/1 23/1/1
f 28/1/1 24/1/1 27/1/1
f 33/1/1 30/1/1 29/1/1
f 34/3/1 31/3/1 30/3/1
f 34/1/1 30/1/1 33/1/1
f 35/1/1 32/1/1 31/1/1
f 35/3/1 31/3/1 34/3/1
f 36/1/1 32/1/1 35/1/1
f 41/2/1 38/2/1 37/2/1
f 42/2/1 38/2/1 41/2/1
f 45/1/1 40/1/1 39/1/1
f 46/1/1 40/1/1 45/1/1
f 47/1/1 44/1/1 43/1/1
f 48/1/1 44/1/1 47/1/1
f 49/2/1 42/2/1 41/2/1
f 50/2/1 42/2/1 49/2/1
f 51/3/1 50/3/1 49/3/1
f 52/3/1 50/3/1 51/3/1
f 53/2/1 52/2/1 51/2/1
f 54/2/1 52/2/1 53/2/1
f 57/3/1 54/3/1 53/3/1
f 58/3/1 54/3/1 57/3/1
f 62/3/1 56/3/1 55/3/1
f 63/3/1 56/3/1 62/3/1
f 64/3/1 60/3/1 59/3/1
f 65/3/1 60/3/1 64/3/1
f 67/1/1 62/1/1 61/1/1
f 68/1/1 62/1/1 67/1/1
f 69/1/1 66/1/1 65/1/1
f 70/1/1 66/1/1 69/1/1
f 76/2/1 72/2/1 71/2/1
f 77/2/1 72/2/1 76/2/1
f 78/2/1 74/2/1 73/2/1
f 79/2/1 74/2/1 78/2/1
f 81/1/1 76/1/1 75/1/1
f 82/1/1 76/1/1 81/1/1
f 83/1/1 80/1/1 79/1/1
f 84/1/1 80/1/1 83/1/1
f 88/3/1 86/3/1 85/3/1
f 89/3/1 86/3/1 88/3/1
f 91/1/1 88/1/1 87/1/1
f 92/1/1 88/1/1 91/1/1
f 93/1/1 90/1/1 89/1/1
f 94/1/1 90/1/1 93/1/1
f 97/1/1 96/1/1 95/1/1
f 98/1/1 96/1/1 97/1/1
f 99/1/2 100/1/2 101/1/2
f 101/1/2 100/1/2 102/1/2
f 103/3/2 104/3/2 106/3/2
f 106/3/2 104/3/2 107/3/2
f 105/1/2 106/1/2 109/1/2
f 109/1/2 106/1/2 110/1/2
f 107/1/2 108/1/2 111/1/2
f 111/1/2 108/1/2 112/1/2
f 113/2/2 114/2/2 118/2/2
f 118/2/2 114/2/2 119/2/2
f 115/2/2 116/2/2 120/2/2
f 120/2/2 116/2/2 121/2/2
f 117/1/2 118/1/2 123/1/2
f 123/1/2 118/1/2 124/1/2
f 121/1/2 122/1/2 125/1/2
f 125/1/2 122/1/2 126/1/2
f 127/2/2 128/2/2 131/2/2
f 131/2/2 128/2/2 132/2/2
f 129/1/2 130/1/2 135/1/2
f 135/1/2 130/1/2 136/1/2
f 133/1/2 134/1/2 137/1/2
f 137/1/2 134/1/2 138/1/2
f 131/2/2 132/2/2 139/2/2
f 139/2/2 132/2/2 140/2/2
f 139/3/2 140/3/2 141/3/2
f 141/3/2 140/3/2 142/3/2
f 141/2/2 142/2/2 143/2/2
f 143/2/2 142/2/2 144/2/2
f 143/3/2 144/3/2 147/3/2
f 147/3/2 144/3/2 148/3/2
f 145/3/2 146/3/2 152/3/2
f 152/3/2 146/3/2 153/3/2
f 149/3/2 150/3/2 154/3/2
f 154/3/2 150/3/2 155/3/2
f 151/1/2 152/1/2 157/1/2
f 157/1/2 152/1/2 158/1/2
f 155/1/2 156/1/2 159/1/2
f 159/1/2 156/1/2 160/1/2
f 161/2/2 162/2/2 164/2/2
f 164/2/2 162/2/2 165/2/2
f 163/3/2 164/3/2 167/3/2
f 167/3/2 164/3/2 168/3/2
f 165/3/2 166/3/2 169/3/2
f 169/3/2 166/3/2 170/3/2
f 167/1/2 168/1/2 171/1/2
f 171/1/2 168/1/2 172/1/2
f 169/1/2 170/1/2 173/1/2
f 173/1/2 170/1/2 174/1/2
f 175/1/2 176/1/2 179/1/2
f 176/3/2 177/3/2 180/3/2
f 179/1/2 176/1/2 180/1/2
f 177/1/2 178/1/2 181/1/2
f 180/3/2 177/3/2 181/3/2
f 181/1/2 178/1/2 182/1/2
f 183/3/2 184/3/2 185/3/2
f 185/3/2 184/3/2 186/3/2
f 186/3/2 184/3/2 187/3/2
f 187/3/2 184/3/2 188/3/2
f 185/1/2 186/1/2 189/1/2
f 189/1/2 186/1/2 190/1/2
f 187/1/2 188/1/2 191/1/2
f 191/1/2 188/1/2 192/1/2
f 193/1/2 194/1/2 195/1/2
f 195/1/2 194/1/2 196/1/2
f 201/1/3 198/1/3 197/1/3
f 202/1/3 198/1/3 201/1/3
f 203/1/3 200/1/3 199/1/3
f 204/1/3 200/1/3 203/1/3
f 208/3/3 206/3/3 205/3/3
f 208/1/3 207/1/3 206/1/3
f 209/1/3 207/1/3 208/1/3
f 212/3/3 208/3/3 205/3/3
f 214/3/3 211/3/3 210/3/3
f 215/3/3 211/3/3 214/3/3
f 216/3/3 212/3/3 205/3/3
f 217/1/3 213/1/3 212/1/3
f 217/3/3 212/3/3 216/3/3
f 218/1/3 213/1/3 217/1/3
f 223/3/3 220/3/3 219/3/3
f 224/1/3 221/1/3 220/1/3
f 224/3/3 220/3/3 223/3/3
f 225/1/3 221/1/3 224/1/3
f 228/1/3 227/1/3 226/1/3
f 229/1/3 227/1/3 228/1/3
f 232/2/3 223/2/3 222/2/3
f 233/2/3 223/2/3 232/2/3
f 236/1/3 231/1/3 230/1/3
f 237/1/3 231/1/3 236/1/3
f 238/3/3 234/3/3 233/3/3
f 239/1/3 235/1/3 234/1/3
f 239/3/3 234/3/3 238/3/3
f 240/1/3 235/1/3 239/1/3
f 243/1/3 242/1/3 241/1/3
f 244/1/3 242/1/3 243/1/3
f 251/2/3 246/2/3 245/2/3
f 251/2/3 247/2/3 246/2/3
f 252/2/3 247/2/3 251/2/3
f 253/3/3 248/3/3 247/3/3
f 253/2/3 247/2/3 252/2/3
f 254/2/3 249/2/3 248/2/3
f 254/3/3 248/3/3 253/3/3
f 255/3/3 250/3/3 249/3/3
f 255/2/3 249/2/3 254/2/3
f 256/3/3 250/3/3 255/3/3
f 259/1/3 258/1/3 257/1/3
f 260/1/3 258/1/3 259/1/3
f 264/1/3 262/1/3 261/1/3
f 265/1/3 262/1/3 264/1/3
f 266/2/3 264/2/3 263/2/3
f 267/2/3 264/2/3 266/2/3
f 270/2/3 269/2/3 268/2/3
f 271/2/3 269/2/3 270/2/3
f 273/1/3 272/1/3 271/1/3
f 274/1/3 272/1/3 273/1/3
f 278/1/3 276/1/3 275/1/3
f 279/1/3 276/1/3 278/1/3
f 280/3/3 278/3/3 277/3/3
f 281/3/3 278/3/3 280/3/3
f 283/1/3 282/1/3 281/1/3
f 284/1/3 282/1/3 283/1/3
f 289/1/3 286/1/3 285/1/3
f 290/1/3 286/1/3 289/1/3
f 291/1/3 288/1/3 287/1/3
f 292/1/3 288/1/3 291/1/3
f 293/1/4 294/1/4 297/1/4
f 297/1/4 294/1/4 298/1/4
f 295/1/4 296/1/4 299/1/4
f 299/1/4 296/1/4 300/1/4
f 301/1/4 302/1/4 304/1/4
f 304/1/4 302/1/4 305/1/4
f 303/3/4 304/3/4 306/3/4
f 306/3/4 304/3/4 307/3/4
f 307/1/4 308/1/4 309/1/4
f 309/1/4 308/1/4 310/1/4
f 311/1/4 312/1/4 314/1/4
f 314/1/4 312/1/4 315/1/4
f 313/2/4 314/2/4 316/2/4
f 316/2/4 314/2/4 317/2/4
f 318/2/4 319/2/4 320/2/4
f 320/2/4 319/2/4 321/2/4
f 321/1/4 322/1/4 323/1/4
f 323/1/4 322/1/4 324/1/4
f 325/1/4 326/1/4 327/1/4
f 327/1/4 326/1/4 328/1/4
f 329/2/4 330/2/4 335/2/4
f 330/2/4 331/2/4 335/2/4
f 335/2/4 331/2/4 336/2/4
f 331/3/4 332/3/4 337/3/4
f 336/2/4 331/2/4 337/2/4
f 332/2/4 333/2/4 338/2/4
f 337/3/4 332/3/4 338/3/4
f 333/3/4 334/3/4 339/3/4
f 338/2/4 333/2/4 339/2/4
f 339/3/4 334/3/4 340/3/4
f 341/1/4 342/1/4 343/1/4
f 343/1/4 342/1/4 344/1/4
f 345/3/4 346/3/4 349/3/4
f 346/1/4 347/1/4 350/1/4
f 349/3/4 346/3/4 350/3/4
f 350/1/4 347/1/4 351/1/4
f 352/1/4 353/1/4 354/1/4
f 354/1/4 353/1/4 355/1/4
f 348/2/4 349/2/4 358/2/4
f 358/2/4 349/2/4 359/2/4
f 356/1/4 357/1/4 362/1/4
f 362/1/4 357/1/4 363/1/4
f 359/3/4 360/3/4 364/3/4
f 360/1/4 361/1/4 365/1/4
f 364/3/4 360/3/4 365/3/4
f 365/1/4 361/1/4 366/1/4
f 367/3/4 368/3/4 370/3/4
f 368/1/4 369/1/4 370/1/4
f 370/1/4 369/1/4 371/1/4
f 367/3/4 370/3/4 374/3/4
f 372/3/4 373/3/4 376/3/4
f 376/3/4 373/3/4 377/3/4
f 367/3/4 374/3/4 378/3/4
f 374/1/4 375/1/4 379/1/4
f 378/3/4 374/3/4 379/3/4
f 379/1/4 375/1/4 380/1/4
f 381/1/4 382/1/4 385/1/4
f 385/1/4 382/1/4 386/1/4
f 383/1/4 384/1/4 387/1/4
f 387/1/4 384/1/4 388/1/4
f 391/2/5 390/2/5 389/2/5
f 392/2/5 390/2/5 391/2/5
f 396/3/5 394/3/5 393/3/5
f 397/3/5 394/3/5 396/3/5
f 399/3/5 396/3/5 395/3/5
f 400/3/5 396/3/5 399/3/5
f 401/3/5 398/3/5 397/3/5
f 402/3/5 398/3/5 401/3/5
f 403/3/5 401/3/5 400/3/5
f 404/3/5 401/3/5 403/3/5
f 407/1/5 406/1/5 405/1/5
f 408/1/5 406/1/5 407/1/5
f 413/1/5 410/1/5 409/1/5
f 414/1/5 410/1/5 413/1/5
f 415/1/5 412/1/5 411/1/5
f 416/1/5 412/1/5 415/1/5
f 419/1/5 418/1/5 417/1/5
f 420/1/5 418/1/5 419/1/5
f 424/3/5 422/3/5 421/3/5
f 425/3/5 422/3/5 424/3/5
f 427/1/5 424/1/5 423/1/5
f 428/2/5 425/2/5 424/2/5
f 428/1/5 424/1/5 427/1/5
f 429/1/5 426/1/5 425/1/5
f 429/2/5 425/2/5 428/2/5
f 430/1/5 426/1/5 429/1/5
f 431/3/5 428/3/5 427/3/5
f 432/3/5 428/3/5 431/3/5
f 433/3/5 430/3/5 429/3/5
f 434/3/5 430/3/5 433/3/5
f 435/1/5 432/1/5 431/1/5
f 436/2/5 433/2/5 432/2/5
f 436/1/5 432/1/5 435/1/5
f 437/1/5 434/1/5 433/1/5
f 437/2/5 433/2/5 436/2/5
f 438/1/5 434/1/5 437/1/5
f 439/3/5 437/3/5 436/3/5
f 440/3/5 437/3/5 439/3/5
f 443/1/5 442/1/5 441/1/5
f 444/1/5 442/1/5 443/1/5
f 447/1/5 446/1/5 445/1/5
f 448/1/5 446/1/5 447/1/5
f 449/2/6 450/2/6 452/2/6
f 452/2/6 450/2/6 453/2/6
f 451/2/6 452/2/6 455/2/6
f 455/2/6 452/2/6 456/2/6
f 453/2/6 454/2/6 457/2/6
f 457/2/6 454/2/6 458/2/6
f 456/2/6 457/2/6 459/2/6
f 459/2/6 457/2/6 460/2/6
f 461/3/6 462/3/6 464/3/6
f 464/3/6 462/3/6 465/3/6
f 463/2/6 464/2/6 468/2/6
f 468/2/6 464/2/6 469/2/6
f 465/2/6 466/2/6 470/2/6
f 470/2/6 466/2/6 471/2/6
f 467/3/6 468/3/6 473/3/6
f 473/3/6 468/3/6 474/3/6
f 471/3/6 472/3/6 477/3/6
f 477/3/6 472/3/6 478/3/6
f 474/2/6 475/2/6 479/2/6
f 479/2/6 475/2/6 480/2/6
f 476/2/6 477/2/6 481/2/6
f 481/2/6 477/2/6 482/2/6
f 480/3/6 481/3/6 483/3/6
f 483/3/6 481/3/6 484/3/6
f 485/1/6 486/1/6 488/1/6
f 488/1/6 486/1/6 489/1/6
f 487/1/6 488/1/6 492/1/6
f 492/1/6 488/1/6 493/1/6
f 489/1/6 490/1/6 494/1/6
f 494/1/6 490/1/6 495/1/6
f 491/1/6 492/1/6 498/1/6
f 498/1/6 492/1/6 499/1/6
f 495/1/6 496/1/6 500/1/6
f 500/1/6 496/1/6 501/1/6
f 497/1/6 498/1/6 503/1/6
f 503/1/6 498/1/6 504/1/6
f 501/1/6 502/1/6 507/1/6
f 507/1/6 502/1/6 508/1/6
f 504/1/6 505/1/6 509/1/6
f 509/1/6 505/1/6 510/1/6
f 506/1/6 507/1/6 513/1/6
f 513/1/6 507/1/6 514/1/6
f 510/1/6 511/1/6 515/1/6
f 515/1/6 511/1/6 516/1/6
f 512/1/6 513/1/6 517/1/6
f 517/1/6 513/1/6 518/1/6
f 516/1/6 517/1/6 519/1/6
f 519/1/6 517/1/6 520/1/6
f 521/3/6 522/3/6 524/3/6
f 524/3/6 522/3/6 525/3/6
f 523/1/6 524/1/6 527/1/6
f 524/2/6 525/2/6 528/2/6
f 527/1/6 524/1/6 528/1/6
f 525/1/6 526/1/6 529/1/6
f 528/2/6 525/2/6 529/2/6
f 529/1/6 526/1/6 530/1/6
f 527/3/6 528/3/6 531/3/6
f 528/2/6 529/2/6 532/2/6
f 531/3/6 528/3/6 532/3/6
f 529/3/6 530/3/6 533/3/6
f 532/2/6 529/2/6 533/2/6
f 533/3/6 530/3/6 534/3/6
f 531/1/6 532/1/6 535/1/6
f 532/2/6 533/2/6 536/2/6
f 535/1/6 532/1/6 536/1/6
f 533/1/6 534/1/6 537/1/6
f 536/2/6 533/2/6 537/2/6
f 537/1/6 534/1/6 538/1/6
f 536/3/6 537/3/6 539/3/6
f 539/3/6 537/3/6 540/3/6
f 541/1/6 542/1/6 543/1/6
f 543/1/6 542/1/6 544/1/6
f 545/1/6 546/1/6 547/1/6
f 547/1/6 546/1/6 548/1/6
