%YAML 1.1
%TAG !u! tag:unity3d.com,2011:
--- !u!114 &11400000
MonoBehaviour:
  m_ObjectHideFlags: 0
  m_CorrespondingSourceObject: {fileID: 0}
  m_PrefabInternal: {fileID: 0}
  m_GameObject: {fileID: 0}
  m_Enabled: 1
  m_EditorHideFlags: 0
  m_Script: {fileID: 11500000, guid: 36baaa8bdcb9d8b49b9199833965d2c3, type: 3}
  m_Name: CM StateDrivenCamera1 Blends
  m_EditorClassIdentifier: 
  m_CustomBlends:
  - m_From: FirstPersonSwoop
    m_To: FirstPersonMain
    m_Blend:
      m_Style: 1
      m_Time: 0.5
      m_CustomCurve:
        serializedVersion: 2
        m_Curve: []
        m_PreInfinity: 0
        m_PostInfinity: 0
        m_RotationOrder: 0
  - m_From: ShiftSwoop1
    m_To: FirstPersonMain
    m_Blend:
      m_Style: 2
      m_Time: 2
      m_CustomCurve:
        serializedVersion: 2
        m_Curve: []
        m_PreInfinity: 0
        m_PostInfinity: 0
        m_RotationOrder: 0
  - m_From: FirstPersonMain
    m_To: ShiftSwoop1
    m_Blend:
      m_Style: 4
      m_Time: 2
      m_CustomCurve:
        serializedVersion: 2
        m_Curve: []
        m_PreInfinity: 0
        m_PostInfinity: 0
        m_RotationOrder: 0
  - m_From: FirstPersonMain
    m_To: EnemyLook
    m_Blend:
      m_Style: 1
      m_Time: 2
      m_CustomCurve:
        serializedVersion: 2
        m_Curve: []
        m_PreInfinity: 0
        m_PostInfinity: 0
        m_RotationOrder: 0
  - m_From: FirstPersonMain
    m_To: StairsLook
    m_Blend:
      m_Style: 1
      m_Time: 2
      m_CustomCurve:
        serializedVersion: 2
        m_Curve: []
        m_PreInfinity: 0
        m_PostInfinity: 0
        m_RotationOrder: 0
